testsuite/verilator_sim/circ_buf/sync_ring_128_2/Vsonic_sync_ring_128_2.vcd
$version Generated by VerilatedVcd $end
$date Wed Nov 30 13:22:03 2011
 $end
$timescale 1ns $end

 $scope module TOP $end
  $var wire 128 2 data_in [127:0] $end
  $var wire  2 ; data_out [1:0] $end
  $var wire 14 : rd_address [13:0] $end
  $var wire  1 7 rd_clock $end
  $var wire  8 9 wr_address [7:0] $end
  $var wire  1 8 wr_clock $end
  $var wire  1 6 wren $end
  $scope module v $end
   $var wire 128 2 data_in [127:0] $end
   $var wire  2 ; data_out [1:0] $end
   $var wire  2 / data_out_ls [1:0] $end
   $var wire  2 . data_out_ms [1:0] $end
   $var wire  1 < data_sel $end
   $var wire 13 # mapped_read_address [12:0] $end
   $var wire 14 : rd_address [13:0] $end
   $var wire  1 7 rd_clock $end
   $var wire  8 9 wr_address [7:0] $end
   $var wire  1 8 wr_clock $end
   $var wire  1 6 wren $end
   $scope module bot_half $end
    $var wire 64 ? data [63:0] $end
    $var wire  1 8 inclock $end
    $var wire  1 7 outclock $end
    $var wire  2 / q [1:0] $end
    $var wire 13 # rdaddress [12:0] $end
    $var wire  2 / sub_wire0 [1:0] $end
    $var wire  8 9 wraddress [7:0] $end
    $var wire  1 6 wren $end
    $scope module altsyncram_component $end
     $var wire  8 9 address_a [7:0] $end
     $var wire 13 # address_b [12:0] $end
     $var wire  1 8 clock0 $end
     $var wire  1 7 clock1 $end
     $var wire  1 A cs_a $end
     $var wire  1 A cs_b $end
     $var wire 64 ? data_a [63:0] $end
     $var wire 64 F data_a_out [63:0] $end
     $var wire  2 1 data_b_out [1:0] $end
     $var wire 32 - i5 [31:0] $end
     $var wire  1 A oe_a $end
     $var wire  1 A oe_b $end
     $var wire 32 , port_a_bit_count_low [31:0] $end
     $var wire  2 / q_b [1:0] $end
     $var wire 64 ) temp_wa [63:0] $end
     $var wire  2 + temp_wb [1:0] $end
     $var wire  1 6 wren_a $end
     $var wire  1 E wren_b $end
    $upscope $end
   $upscope $end
   $scope module top_half $end
    $var wire 64 = data [63:0] $end
    $var wire  1 8 inclock $end
    $var wire  1 7 outclock $end
    $var wire  2 . q [1:0] $end
    $var wire 13 # rdaddress [12:0] $end
    $var wire  2 . sub_wire0 [1:0] $end
    $var wire  8 9 wraddress [7:0] $end
    $var wire  1 6 wren $end
    $scope module altsyncram_component $end
     $var wire  8 9 address_a [7:0] $end
     $var wire 13 # address_b [12:0] $end
     $var wire  1 8 clock0 $end
     $var wire  1 7 clock1 $end
     $var wire  1 A cs_a $end
     $var wire  1 A cs_b $end
     $var wire 64 = data_a [63:0] $end
     $var wire 64 C data_a_out [63:0] $end
     $var wire  2 0 data_b_out [1:0] $end
     $var wire 32 ( i5 [31:0] $end
     $var wire  1 A oe_a $end
     $var wire  1 A oe_b $end
     $var wire 32 ' port_a_bit_count_low [31:0] $end
     $var wire  2 . q_b [1:0] $end
     $var wire 64 $ temp_wa [63:0] $end
     $var wire  2 & temp_wb [1:0] $end
     $var wire  1 6 wren_a $end
     $var wire  1 B wren_b $end
    $upscope $end
   $upscope $end
  $upscope $end
 $upscope $end
$enddefinitions $end


#0
b0000000000000 #
b0000000000000000000000000000000000000000000000000000000000000000 $
b00 &
b00000000000000000000000000000000 '
b00000000000000000000000000000000 (
b0000000000000000000000000000000000000000000000000000000000000000 )
b00 +
b00000000000000000000000000000000 ,
b00000000000000000000000000000000 -
b00 .
b00 0
b00 /
b00 1
b01110001010000011000001101101010101011000001111110000000101111000111110011001010101110101010110100100001100110001010111010100010 2
b00000000000000 :
b00 ;
0<
b0111000101000001100000110110101010101100000111111000000010111100 =
b0111110011001010101110101010110100100001100110001010111010100010 ?
b00000000 9
16
08
07
0B
b0000000000000000000000000000000000000000000000000000000000000000 C
0E
1A
b0000000000000000000000000000000000000000000000000000000000000000 F
#1
b0111000101000001100000110110101010101100000111111000000010111100 $
b01 &
b00000000000000000000000001000000 '
b00000000000000000000000001000000 (
b0111110011001010101110101010110100100001100110001010111010100010 )
b01 +
b00000000000000000000000001000000 ,
b00000000000000000000000001000000 -
b10 /
b10 1
b10 ;
18
17
#2
b0000000000001 #
b10110111010111111111111101101111100111010101010000000001000100010001001000001110010101101101100011111010111101011000000111011101 2
b00000000000001 :
b1011011101011111111111110110111110011101010101000000000100010001 =
b0001001000001110010101101101100011111010111101011000000111011101 ?
b00000001 9
08
07
#3
b1011011101011111111111110110111110011101010101000000000100010001 $
b10 &
b00000000000000000000000010000000 '
b0001001000001110010101101101100011111010111101011000000111011101 )
b00 +
b00000000000000000000000010000000 ,
b11 .
b11 0
b00 /
b00 1
b00 ;
18
17
#4
b0000000000010 #
b11000010110011110101100100011101000010100001101100111100111001011111001100000000001111101010100100100000001101101011100110011101 2
b00000000000010 :
b1100001011001111010110010001110100001010000110110011110011100101 =
b1111001100000000001111101010100100100000001101101011100110011101 ?
b00000010 9
08
07
#5
b1100001011001111010110010001110100001010000110110011110011100101 $
b11 &
b00000000000000000000000011000000 '
b1111001100000000001111101010100100100000001101101011100110011101 )
b11 +
b00000000000000000000000011000000 ,
b10 /
b10 1
b10 ;
18
17
#6
b0000000000011 #
b00001101110000011010111001011010011111011011011101001101001001001010000100011000010010010100010110001111011101011000001000110111 2
b00000000000011 :
b0000110111000001101011100101101001111101101101110100110100100100 =
b1010000100011000010010010100010110001111011101011000001000110111 ?
b00000011 9
08
07
#7
b0000110111000001101011100101101001111101101101110100110100100100 $
b00 &
b00000000000000000000000100000000 '
b1010000100011000010010010100010110001111011101011000001000110111 )
b10 +
b00000000000000000000000100000000 ,
b10 .
b10 0
18
17
#8
b0000000000100 #
b11110111110101001010100011110010110101011100110111101010001000000111010101000001100001000111111000000110100100100101110000001110 2
b00000000000100 :
b1111011111010100101010001111001011010101110011011110101000100000 =
b0111010101000001100001000111111000000110100100100101110000001110 ?
b00000100 9
08
07
#9
b1111011111010100101010001111001011010101110011011110101000100000 $
b11 &
b00000000000000000000000101000000 '
b0111010101000001100001000111111000000110100100100101110000001110 )
b01 +
b00000000000000000000000101000000 ,
b00 .
b00 0
18
17
#10
b0000000000101 #
b11001111101111010110111000111000100100011000111010001001110101110101111010010100010000110101001110010011011100100100110001000011 2
b00000000000101 :
b1100111110111101011011100011100010010001100011101000100111010111 =
b0101111010010100010000110101001110010011011100100100110001000011 ?
b00000101 9
08
07
#11
b1100111110111101011011100011100010010001100011101000100111010111 $
b00000000000000000000000110000000 '
b0101111010010100010000110101001110010011011100100100110001000011 )
b00000000000000000000000110000000 ,
b11 /
b11 1
b11 ;
18
17
#12
b0000000000110 #
b10011111111010010100000010000011111010010100010101110111011100101010100010010110111110010111000110100101101100101111101000110110 2
b00000000000110 :
b1001111111101001010000001000001111101001010001010111011101110010 =
b1010100010010110111110010111000110100101101100101111101000110110 ?
b00000110 9
08
07
#13
b1001111111101001010000001000001111101001010001010111011101110010 $
b10 &
b00000000000000000000000111000000 '
b1010100010010110111110010111000110100101101100101111101000110110 )
b10 +
b00000000000000000000000111000000 ,
b10 /
b10 1
b10 ;
18
17
#14
b0000000000111 #
b01010110001000011111110011111001010001111101010110111110010110100011111101010101011011101111001100010011100101101001010001011110 2
b00000000000111 :
b0101011000100001111111001111100101000111110101011011111001011010 =
b0011111101010101011011101111001100010011100101101001010001011110 ?
b00000111 9
08
07
#15
b0101011000100001111111001111100101000111110101011011111001011010 $
b01 &
b00000000000000000000001000000000 '
b0011111101010101011011101111001100010011100101101001010001011110 )
b00 +
b00000000000000000000001000000000 ,
b10 .
b10 0
18
17
#16
b0000000001000 #
b01100000000000001010001110111001101011111110110001111000110100101110101000100001001110100000100101011101000101000001100001101110 2
b00000000001000 :
b0110000000000000101000111011100110101111111011000111100011010010 =
b1110101000100001001110100000100101011101000101000001100001101110 ?
b00001000 9
08
07
#17
b0110000000000000101000111011100110101111111011000111100011010010 $
b00000000000000000000001001000000 '
b1110101000100001001110100000100101011101000101000001100001101110 )
b11 +
b00000000000000000000001001000000 ,
b11 .
b11 0
b00 /
b00 1
b00 ;
18
17
#18
b0000000001001 #
b01110101111111100111101000101001100010101001100110110111101011011100010111101000000011000001101101110010001011111110010110011000 2
b00000000001001 :
b0111010111111110011110100010100110001010100110011011011110101101 =
b1100010111101000000011000001101101110010001011111110010110011000 ?
b00001001 9
08
07
#19
b0111010111111110011110100010100110001010100110011011011110101101 $
b00000000000000000000001010000000 '
b1100010111101000000011000001101101110010001011111110010110011000 )
b00000000000000000000001010000000 ,
b10 /
b10 1
b10 ;
18
17
#20
b0000000001010 #
b00001100110101111101110001111100111001001110100011011101000111010011011011100010101111101000001100000010011010001001001010101110 2
b00000000001010 :
b0000110011010111110111000111110011100100111010001101110100011101 =
b0011011011100010101111101000001100000010011010001001001010101110 ?
b00001010 9
08
07
#21
b0000110011010111110111000111110011100100111010001101110100011101 $
b00 &
b00000000000000000000001011000000 '
b0011011011100010101111101000001100000010011010001001001010101110 )
b00 +
b00000000000000000000001011000000 ,
b01 .
b01 0
b01 /
b01 1
b01 ;
18
17
#22
b0000000001011 #
b00101001001000111010011111110000101000100001110001101100000111110001001010111110101001010100100010001011101010000101101111000101 2
b00000000001011 :
b0010100100100011101001111111000010100010000111000110110000011111 =
b0001001010111110101001010100100010001011101010000101101111000101 ?
b00001011 9
08
07
#23
b0010100100100011101001111111000010100010000111000110110000011111 $
b00000000000000000000001100000000 '
b0001001010111110101001010100100010001011101010000101101111000101 )
b00000000000000000000001100000000 ,
b00 .
b00 0
b10 /
b10 1
b10 ;
18
17
#24
b0000000001100 #
b01001011100000001100100011111101010000000011011110111110110100011100101101100011111000011000111110101000111111110111110000101100 2
b00000000001100 :
b0100101110000000110010001111110101000000001101111011111011010001 =
b1100101101100011111000011000111110101000111111110111110000101100 ?
b00001100 9
08
07
#25
b0100101110000000110010001111110101000000001101111011111011010001 $
b01 &
b00000000000000000000001101000000 '
b1100101101100011111000011000111110101000111111110111110000101100 )
b11 +
b00000000000000000000001101000000 ,
b01 /
b01 1
b01 ;
18
17
#26
b0000000001101 #
b01111011110101000000111100111101111111110111011001110111011001000000000110100010100010010101010011011000101100101011000100011001 2
b00000000001101 :
b0111101111010100000011110011110111111111011101100111011101100100 =
b0000000110100010100010010101010011011000101100101011000100011001 ?
b00001101 9
08
07
#27
b0111101111010100000011110011110111111111011101100111011101100100 $
b00000000000000000000001110000000 '
b0000000110100010100010010101010011011000101100101011000100011001 )
b00 +
b00000000000000000000001110000000 ,
b11 .
b11 0
b00 /
b00 1
b00 ;
18
17
#28
b0000000001110 #
b11000010101010110001111100111011101110000111010111111111000111111100001111100100011110110000001110011110011101100110110111101100 2
b00000000001110 :
b1100001010101011000111110011101110111000011101011111111100011111 =
b1100001111100100011110110000001110011110011101100110110111101100 ?
b00001110 9
08
07
#29
b1100001010101011000111110011101110111000011101011111111100011111 $
b11 &
b00000000000000000000001111000000 '
b1100001111100100011110110000001110011110011101100110110111101100 )
b11 +
b00000000000000000000001111000000 ,
b10 .
b10 0
b10 /
b10 1
b10 ;
18
17
#30
b0000000001111 #
b10000011000100111111101100101100110101111100100111101111001111110011010010111101000001111101011011000010010101100110110000000101 2
b00000000001111 :
b1000001100010011111110110010110011010111110010011110111100111111 =
b0011010010111101000001111101011011000010010101100110110000000101 ?
b00001111 9
08
07
#31
b1000001100010011111110110010110011010111110010011110111100111111 $
b10 &
b00000000000000000000010000000000 '
b0011010010111101000001111101011011000010010101100110110000000101 )
b00 +
b00000000000000000000010000000000 ,
b00 /
b00 1
b00 ;
18
17
#32
b0000000010000 #
b00010101110000011000100010111110000001001011110001100011101110000000100000101011100011101111101010010010010100111000010110000100 2
b00000000010000 :
b0001010111000001100010001011111000000100101111000110001110111000 =
b0000100000101011100011101111101010010010010100111000010110000100 ?
b00010000 9
08
07
#33
b0001010111000001100010001011111000000100101111000110001110111000 $
b00 &
b00000000000000000000010001000000 '
b0000100000101011100011101111101010010010010100111000010110000100 )
b00000000000000000000010001000000 ,
b01 /
b01 1
b01 ;
18
17
#34
b0000000010001 #
b10100010001001001001111001011010110011010011001011010110110000100010000101101100001100011100111111011101100011000110000111010100 2
b00000000010001 :
b1010001000100100100111100101101011001101001100101101011011000010 =
b0010000101101100001100011100111111011101100011000110000111010100 ?
b00010001 9
08
07
#35
b1010001000100100100111100101101011001101001100101101011011000010 $
b10 &
b00000000000000000000010010000000 '
b0010000101101100001100011100111111011101100011000110000111010100 )
b00000000000000000000010010000000 ,
b11 /
b11 1
b11 ;
18
17
#36
b0000000010010 #
b00110100111010100111100001110111101100101110100000001001111100111011100000100000000100001001101111100111001011101101001111111111 2
b00000000010010 :
b0011010011101010011110000111011110110010111010000000100111110011 =
b1011100000100000000100001001101111100111001011101101001111111111 ?
b00010010 9
08
07
#37
b0011010011101010011110000111011110110010111010000000100111110011 $
b00 &
b00000000000000000000010011000000 '
b1011100000100000000100001001101111100111001011101101001111111111 )
b10 +
b00000000000000000000010011000000 ,
b10 /
b10 1
b10 ;
18
17
#38
b0000000010011 #
b01110101110100111111011010101101010010100110000110001101000001100011001110101100110000000001100110011010110111010101011100101110 2
b00000000010011 :
b0111010111010011111101101010110101001010011000011000110100000110 =
b0011001110101100110000000001100110011010110111010101011100101110 ?
b00010011 9
08
07
#39
b0111010111010011111101101010110101001010011000011000110100000110 $
b01 &
b00000000000000000000010100000000 '
b0011001110101100110000000001100110011010110111010101011100101110 )
b00 +
b00000000000000000000010100000000 ,
b01 .
b01 0
18
17
#40
b0000000010100 #
b00001111010111000011110100110101111011110000100110011001010111010001000011111000100011110110010101011100101111111010100101111001 2
b00000000010100 :
b0000111101011100001111010011010111101111000010011001100101011101 =
b0001000011111000100011110110010101011100101111111010100101111001 ?
b00010100 9
08
07
#41
b0000111101011100001111010011010111101111000010011001100101011101 $
b00 &
b00000000000000000000010101000000 '
b0001000011111000100011110110010101011100101111111010100101111001 )
b00000000000000000000010101000000 ,
b11 .
b11 0
18
17
#42
b0000000010101 #
b10100101001100101010111010101000100011011101000100111101000000101010011001000011001110101101010010011111111001111111010100010111 2
b00000000010101 :
b1010010100110010101011101010100010001101110100010011110100000010 =
b1010011001000011001110101101010010011111111001111111010100010111 ?
b00010101 9
08
07
#43
b1010010100110010101011101010100010001101110100010011110100000010 $
b10 &
b00000000000000000000010110000000 '
b1010011001000011001110101101010010011111111001111111010100010111 )
b10 +
b00000000000000000000010110000000 ,
b00 .
b00 0
18
17
#44
b0000000010110 #
b11110000001000101001111101101001101010100111111001011010100100111100101010111110000101000101011001101100111111100011001111110010 2
b00000000010110 :
b1111000000100010100111110110100110101010011111100101101010010011 =
b1100101010111110000101000101011001101100111111100011001111110010 ?
b00010110 9
08
07
#45
b1111000000100010100111110110100110101010011111100101101010010011 $
b11 &
b00000000000000000000010111000000 '
b1100101010111110000101000101011001101100111111100011001111110010 )
b11 +
b00000000000000000000010111000000 ,
b11 /
b11 1
b11 ;
18
17
#46
b0000000010111 #
b10101100001001011111010011111111010100010010000101101110001110011101101111101010011100110101001010010010010000010011010100111100 2
b00000000010111 :
b1010110000100101111101001111111101010001001000010110111000111001 =
b1101101111101010011100110101001010010010010000010011010100111100 ?
b00010111 9
08
07
#47
b1010110000100101111101001111111101010001001000010110111000111001 $
b10 &
b00000000000000000000011000000000 '
b1101101111101010011100110101001010010010010000010011010100111100 )
b00000000000000000000011000000000 ,
b10 .
b10 0
b10 /
b10 1
b10 ;
18
17
#48
b0000000011000 #
b11010011110110000011001000011110111000011011010001110111110100110000001011101100001000010100100001101101001010100100100111010010 2
b00000000011000 :
b1101001111011000001100100001111011100001101101000111011111010011 =
b0000001011101100001000010100100001101101001010100100100111010010 ?
b00011000 9
08
07
#49
b1101001111011000001100100001111011100001101101000111011111010011 $
b11 &
b00000000000000000000011001000000 '
b0000001011101100001000010100100001101101001010100100100111010010 )
b00 +
b00000000000000000000011001000000 ,
b01 .
b01 0
18
17
#50
b0000000011001 #
b11001000101010011010001101111111100111000100110111010010010001000111100011111110001101111101000011010011101010101111011110111011 2
b00000000011001 :
b1100100010101001101000110111111110011100010011011101001001000100 =
b0111100011111110001101111101000011010011101010101111011110111011 ?
b00011001 9
08
07
#51
b1100100010101001101000110111111110011100010011011101001001000100 $
b00000000000000000000011010000000 '
b0111100011111110001101111101000011010011101010101111011110111011 )
b01 +
b00000000000000000000011010000000 ,
b00 .
b00 0
18
17
#52
b0000000011010 #
b11000100101000010000111101111011101101110011100100100110111110100111111111110110101000011000110000111000011011010111010000010110 2
b00000000011010 :
b1100010010100001000011110111101110110111001110010010011011111010 =
b0111111111110110101000011000110000111000011011010111010000010110 ?
b00011010 9
08
07
#53
b1100010010100001000011110111101110110111001110010010011011111010 $
b00000000000000000000011011000000 '
b0111111111110110101000011000110000111000011011010111010000010110 )
b00000000000000000000011011000000 ,
b00 /
b00 1
b00 ;
18
17
#54
b0000000011011 #
b00111100011001001111001111111001101101000101100100011111101101100110011011000101100011101001000110111001011101100000001001001110 2
b00000000011011 :
b0011110001100100111100111111100110110100010110010001111110110110 =
b0110011011000101100011101001000110111001011101100000001001001110 ?
b00011011 9
08
07
#55
b0011110001100100111100111111100110110100010110010001111110110110 $
b00 &
b00000000000000000000011100000000 '
b0110011011000101100011101001000110111001011101100000001001001110 )
b00000000000000000000011100000000 ,
b01 .
b01 0
b11 /
b11 1
b11 ;
18
17
#56
b0000000011100 #
b01100011101011001000101000001111111101101101111000000000000011101110001101011100100001011101010010110100100101011011000110001110 2
b00000000011100 :
b0110001110101100100010100000111111110110110111100000000000001110 =
b1110001101011100100001011101010010110100100101011011000110001110 ?
b00011100 9
08
07
#57
b0110001110101100100010100000111111110110110111100000000000001110 $
b01 &
b00000000000000000000011101000000 '
b1110001101011100100001011101010010110100100101011011000110001110 )
b11 +
b00000000000000000000011101000000 ,
b00 /
b00 1
b00 ;
18
17
#58
b0000000011101 #
b00100110101001100010010110110001111111111101111011101000011101011100001001101000101111000000001000000110110110110100110001101001 2
b00000000011101 :
b0010011010100110001001011011000111111111110111101110100001110101 =
b1100001001101000101111000000001000000110110110110100110001101001 ?
b00011101 9
08
07
#59
b0010011010100110001001011011000111111111110111101110100001110101 $
b00 &
b00000000000000000000011110000000 '
b1100001001101000101111000000001000000110110110110100110001101001 )
b00000000000000000000011110000000 ,
b00 .
b00 0
b11 /
b11 1
b11 ;
18
17
#60
b0000000011110 #
b11101110011101011111110111111101101000101000100100001000000100011101000101000000110110101110110001001011000110011000011100001101 2
b00000000011110 :
b1110111001110101111111011111110110100010100010010000100000010001 =
b1101000101000000110110101110110001001011000110011000011100001101 ?
b00011110 9
08
07
#61
b1110111001110101111111011111110110100010100010010000100000010001 $
b11 &
b00000000000000000000011111000000 '
b1101000101000000110110101110110001001011000110011000011100001101 )
b00000000000000000000011111000000 ,
b11 .
b11 0
18
17
#62
b0000000011111 #
b11010110001001111111001110101100011010001110111011001111100100000011111110010101011011111110011111100011100011010010010000001000 2
b00000000011111 :
b1101011000100111111100111010110001101000111011101100111110010000 =
b0011111110010101011011111110011111100011100011010010010000001000 ?
b00011111 9
08
07
#63
b1101011000100111111100111010110001101000111011101100111110010000 $
b00000000000000000000100000000000 '
b0011111110010101011011111110011111100011100011010010010000001000 )
b00 +
b00000000000000000000100000000000 ,
b01 .
b01 0
b01 /
b01 1
b01 ;
18
17
#64
b0000000000000 #
b01000000100010010001000111110000111101110000111000000101000111010111010011010000110000101111101100001111011001101111100110101011 2
b00000000100000 :
1<
b0100000010001001000100011111000011110111000011100000010100011101 =
b0111010011010000110000101111101100001111011001101111100110101011 ?
b00100000 9
08
07
#65
b0100000010001001000100011111000011110111000011100000010100011101 $
b01 &
b00000000000000000000100001000000 '
b0111010011010000110000101111101100001111011001101111100110101011 )
b01 +
b00000000000000000000100001000000 ,
b00 .
b00 0
b10 /
b10 1
b00 ;
18
17
#66
b0000000000001 #
b11100001000011000110000010011010010100011001000010100110011110010011110010100111011011001001010011010111110000011000101111100100 2
b00000000100001 :
b1110000100001100011000001001101001010001100100001010011001111001 =
b0011110010100111011011001001010011010111110000011000101111100100 ?
b00100001 9
08
07
#67
b1110000100001100011000001001101001010001100100001010011001111001 $
b11 &
b00000000000000000000100010000000 '
b0011110010100111011011001001010011010111110000011000101111100100 )
b00 +
b00000000000000000000100010000000 ,
b11 .
b11 0
b00 /
b00 1
b11 ;
18
17
#68
b0000000000010 #
b10010011001110100100101001111111100011101100000111000010011000000111011011011100101010110000011101100111011011100001110000010100 2
b00000000100010 :
b1001001100111010010010100111111110001110110000011100001001100000 =
b0111011011011100101010110000011101100111011011100001110000010100 ?
b00100010 9
08
07
#69
b1001001100111010010010100111111110001110110000011100001001100000 $
b10 &
b00000000000000000000100011000000 '
b0111011011011100101010110000011101100111011011100001110000010100 )
b01 +
b00000000000000000000100011000000 ,
b10 /
b10 1
18
17
#70
b0000000000011 #
b10111000111101100011111000010011100001001010100011100000000100011110100001110111111101010001011011000011010001011010001111010110 2
b00000000100011 :
b1011100011110110001111100001001110000100101010001110000000010001 =
b1110100001110111111101010001011011000011010001011010001111010110 ?
b00100011 9
08
07
#71
b1011100011110110001111100001001110000100101010001110000000010001 $
b00000000000000000000100100000000 '
b1110100001110111111101010001011011000011010001011010001111010110 )
b11 +
b00000000000000000000100100000000 ,
b10 .
b10 0
b10 ;
18
17
#72
b0000000000100 #
b11011111001010100001111110001100101110011100001010110111111000010010011101010010001101110100100000000011011100010110000111110110 2
b00000000100100 :
b1101111100101010000111111000110010111001110000101011011111100001 =
b0010011101010010001101110100100000000011011100010110000111110110 ?
b00100100 9
08
07
#73
b1101111100101010000111111000110010111001110000101011011111100001 $
b11 &
b00000000000000000000100101000000 '
b0010011101010010001101110100100000000011011100010110000111110110 )
b00 +
b00000000000000000000100101000000 ,
b00 .
b00 0
b00 ;
18
17
#74
b0000000000101 #
b11100110101001110100001110011011010000010011111100101010101101110000111111001110101111100100110011101000001011001011011001111111 2
b00000000100101 :
b1110011010100111010000111001101101000001001111110010101010110111 =
b0000111111001110101111100100110011101000001011001011011001111111 ?
b00100101 9
08
07
#75
b1110011010100111010000111001101101000001001111110010101010110111 $
b00000000000000000000100110000000 '
b0000111111001110101111100100110011101000001011001011011001111111 )
b00000000000000000000100110000000 ,
b11 /
b11 1
18
17
#76
b0000000000110 #
b00010111110110011110010001111101110001101111011111011010111110011000110101110111011011101000101011011001111010000010001101110110 2
b00000000100110 :
b0001011111011001111001000111110111000110111101111101101011111001 =
b1000110101110111011011101000101011011001111010000010001101110110 ?
b00100110 9
08
07
#77
b0001011111011001111001000111110111000110111101111101101011111001 $
b00 &
b00000000000000000000100111000000 '
b1000110101110111011011101000101011011001111010000010001101110110 )
b10 +
b00000000000000000000100111000000 ,
b10 /
b10 1
18
17
#78
b0000000000111 #
b00101111101110110101110110111110001011010101110011111111011001101000101011010000100101101001101011000100110001000011010110000011 2
b00000000100111 :
b0010111110111011010111011011111000101101010111001111111101100110 =
b1000101011010000100101101001101011000100110001000011010110000011 ?
b00100111 9
08
07
#79
b0010111110111011010111011011111000101101010111001111111101100110 $
b00000000000000000000101000000000 '
b1000101011010000100101101001101011000100110001000011010110000011 )
b00000000000000000000101000000000 ,
b10 .
b10 0
b10 ;
18
17
#80
b0000000001000 #
b01100000101100111110111011010101011101111010101101001110110110011001001011010111101101000010111000000100011100101000001011100101 2
b00000000101000 :
b0110000010110011111011101101010101110111101010110100111011011001 =
b1001001011010111101101000010111000000100011100101000001011100101 ?
b00101000 9
08
07
#81
b0110000010110011111011101101010101110111101010110100111011011001 $
b01 &
b00000000000000000000101001000000 '
b1001001011010111101101000010111000000100011100101000001011100101 )
b00000000000000000000101001000000 ,
b11 .
b11 0
b00 /
b00 1
b11 ;
18
17
#82
b0000000001001 #
b11010000111100000110111111000001011110110100110011101100000001011100011110011000001110000111000111101101011111000101000000000101 2
b00000000101001 :
b1101000011110000011011111100000101111011010011001110110000000101 =
b1100011110011000001110000111000111101101011111000101000000000101 ?
b00101001 9
08
07
#83
b1101000011110000011011111100000101111011010011001110110000000101 $
b11 &
b00000000000000000000101010000000 '
b1100011110011000001110000111000111101101011111000101000000000101 )
b11 +
b00000000000000000000101010000000 ,
b10 /
b10 1
18
17
#84
b0000000001010 #
b01101000101110001110000010100000000111110100011111011010001100101100011011100111011111100000110011011000111101000000010011101110 2
b00000000101010 :
b0110100010111000111000001010000000011111010001111101101000110010 =
b1100011011100111011111100000110011011000111101000000010011101110 ?
b00101010 9
08
07
#85
b0110100010111000111000001010000000011111010001111101101000110010 $
b01 &
b00000000000000000000101011000000 '
b1100011011100111011111100000110011011000111101000000010011101110 )
b00000000000000000000101011000000 ,
b01 .
b01 0
b01 /
b01 1
b01 ;
18
17
#86
b0000000001011 #
b10110011101001111110000011111111111101111001011010011100100100011101100011100110001010001001011011001011100110110101010000001111 2
b00000000101011 :
b1011001110100111111000001111111111110111100101101001110010010001 =
b1101100011100110001010001001011011001011100110110101010000001111 ?
b00101011 9
08
07
#87
b1011001110100111111000001111111111110111100101101001110010010001 $
b10 &
b00000000000000000000101100000000 '
b1101100011100110001010001001011011001011100110110101010000001111 )
b00000000000000000000101100000000 ,
b00 .
b00 0
b10 /
b10 1
b00 ;
18
17
#88
b0000000001100 #
b10111011011110001100010010110111110110000100111101100010011101010110011011010011000000110001111011101010010001010000011100101000 2
b00000000101100 :
b1011101101111000110001001011011111011000010011110110001001110101 =
b0110011011010011000000110001111011101010010001010000011100101000 ?
b00101100 9
08
07
#89
b1011101101111000110001001011011111011000010011110110001001110101 $
b00000000000000000000101101000000 '
b0110011011010011000000110001111011101010010001010000011100101000 )
b01 +
b00000000000000000000101101000000 ,
b01 /
b01 1
18
17
#90
b0000000001101 #
b01001010000101001010011001100001000110010011111101100001111011010110010110000001101011010000001110101010111100101101011010100111 2
b00000000101101 :
b0100101000010100101001100110000100011001001111110110000111101101 =
b0110010110000001101011010000001110101010111100101101011010100111 ?
b00101101 9
08
07
#91
b0100101000010100101001100110000100011001001111110110000111101101 $
b01 &
b00000000000000000000101110000000 '
b0110010110000001101011010000001110101010111100101101011010100111 )
b00000000000000000000101110000000 ,
b11 .
b11 0
b00 /
b00 1
b11 ;
18
17
#92
b0000000001110 #
b00001011000110101111100100000000110111011001011100100001100110101111011101110100011001101101010110010001111011111111101011110100 2
b00000000101110 :
b0000101100011010111110010000000011011101100101110010000110011010 =
b1111011101110100011001101101010110010001111011111111101011110100 ?
b00101110 9
08
07
#93
b0000101100011010111110010000000011011101100101110010000110011010 $
b00 &
b00000000000000000000101111000000 '
b1111011101110100011001101101010110010001111011111111101011110100 )
b11 +
b00000000000000000000101111000000 ,
b10 .
b10 0
b10 /
b10 1
b10 ;
18
17
#94
b0000000001111 #
b00110111100110000110110000001110011000000110010110000000000101110101000000000000101001000001000111010100001111001010000000010111 2
b00000000101111 :
b0011011110011000011011000000111001100000011001011000000000010111 =
b0101000000000000101001000001000111010100001111001010000000010111 ?
b00101111 9
08
07
#95
b0011011110011000011011000000111001100000011001011000000000010111 $
b00000000000000000000110000000000 '
b0101000000000000101001000001000111010100001111001010000000010111 )
b01 +
b00000000000000000000110000000000 ,
b00 /
b00 1
18
17
#96
b0000000010000 #
b10101101111101101110000111101010100001001000110011011110111011100110100110011010010010011101001100000001101110110111111100100001 2
b00000000110000 :
b1010110111110110111000011110101010000100100011001101111011101110 =
b0110100110011010010010011101001100000001101110110111111100100001 ?
b00110000 9
08
07
#97
b1010110111110110111000011110101010000100100011001101111011101110 $
b10 &
b00000000000000000000110001000000 '
b0110100110011010010010011101001100000001101110110111111100100001 )
b00000000000000000000110001000000 ,
b01 /
b01 1
18
17
#98
b0000000010001 #
b00100001111101011110110001000100010000001111000011010110111110001111001100111001001011011101101011110010100111000100101100110011 2
b00000000110001 :
b0010000111110101111011000100010001000000111100001101011011111000 =
b1111001100111001001011011101101011110010100111000100101100110011 ?
b00110001 9
08
07
#99
b0010000111110101111011000100010001000000111100001101011011111000 $
b00 &
b00000000000000000000110010000000 '
b1111001100111001001011011101101011110010100111000100101100110011 )
b11 +
b00000000000000000000110010000000 ,
b11 /
b11 1
18
17
#100
b0000000010010 #
b00011100000101100110001110010100111001111000000110100001011100101100110010001110000111100110111110010100101001010111101011100110 2
b00000000110010 :
b0001110000010110011000111001010011100111100000011010000101110010 =
b1100110010001110000111100110111110010100101001010111101011100110 ?
b00110010 9
08
07
#101
b0001110000010110011000111001010011100111100000011010000101110010 $
b00000000000000000000110011000000 '
b1100110010001110000111100110111110010100101001010111101011100110 )
b00000000000000000000110011000000 ,
b10 /
b10 1
18
17
#102
b0000000010011 #
b00011101110100001110111100011011101001000011100000001111101101001111111101100001000111001101010001100111111111000010101111111111 2
b00000000110011 :
b0001110111010000111011110001101110100100001110000000111110110100 =
b1111111101100001000111001101010001100111111111000010101111111111 ?
b00110011 9
08
07
#103
b0001110111010000111011110001101110100100001110000000111110110100 $
b00000000000000000000110100000000 '
b1111111101100001000111001101010001100111111111000010101111111111 )
b00000000000000000000110100000000 ,
b01 .
b01 0
b01 ;
18
17
#104
b0000000010100 #
b10000001111110001101001011011011000010001011010101000111011011010100101111111010101000110111101011000001110010110101010101010011 2
b00000000110100 :
b1000000111111000110100101101101100001000101101010100011101101101 =
b0100101111111010101000110111101011000001110010110101010101010011 ?
b00110100 9
08
07
#105
b1000000111111000110100101101101100001000101101010100011101101101 $
b10 &
b00000000000000000000110101000000 '
b0100101111111010101000110111101011000001110010110101010101010011 )
b01 +
b00000000000000000000110101000000 ,
b11 .
b11 0
b11 ;
18
17
