testsuite/verilator_sim/gearbox/gb_40_66/Vsonic_gearbox_40_66.vcd
$version Generated by VerilatedVcd $end
$date Wed Nov 30 09:36:37 2011
 $end
$timescale 1ns $end

 $scope module TOP $end
  $var wire  1 + clk_in $end
  $var wire 40 - data_in [39:0] $end
  $var wire 66 / data_out [65:0] $end
  $var wire  1 2 data_valid $end
  $var wire  1 , reset $end
  $scope module v $end
   $var wire  1 + clk_in $end
   $var wire 40 - data_in [39:0] $end
   $var wire 66 / data_out [65:0] $end
   $var wire  1 2 data_valid $end
   $var wire  1 , reset $end
   $var wire 66 $ sr0 [65:0] $end
   $var wire 66 ' sr1 [65:0] $end
   $var wire  7 # state [6:0] $end
   $var wire  1 * valid $end
  $upscope $end
 $upscope $end
$enddefinitions $end


#0
b0000000 #
b000000000000000000000000000000000000000000000000000000000000000000 $
b000000000000000000000000000000000000000000000000000000000000000000 '
0*
0+
1,
b0101010101010101010101010101010111100001 -
b000000000000000000000000000000000000000000000000000000000000000000 /
02
#1
1+
#2
0+
b1111001010101000011100000000000001011011 -
#3
1+
#4
0+
b1001000011010001001110001000001111100011 -
#5
1+
#6
0+
b1011100000101011000101100010101101111011 -
#7
1+
#8
0+
b1001010111100010001100000010111000000010 -
#9
1+
#10
0+
b0010100100100100101010111101101110110100 -
#11
b0000001 #
b000000000000000000000000000010100100100100101010111101101110110100 '
1+
0,
#12
0+
b0011101110110110110001001011001111111001 -
#13
b0000010 #
b000000000000000000000000000000000000000000000000000000111011101101 $
b101100010010110011111110010010100100100100101010111101101110110100 '
1*
1+
#14
0+
b0101001011100110101110001111010111000110 -
#15
b0000011 #
b000000000000000000000000000000000000000000000000000000000000000000 $
b101100010010010100101110011010111000111101011100011000111011101101 '
0*
1+
b101100010010110011111110010010100100100100101010111101101110110100 /
12
#16
0+
b1100101010110001000110001101101100111111 -
#17
b0000100 #
b000000000000000000000000000000000000001100101010110001000110001101 $
b101100111111010100101110011010111000111101011100011000111011101101 '
1*
1+
02
#18
0+
b0010011001111010010000011100101100011000 -
#19
b0000101 #
b000000000000000000000000000000000000000000000000000000000000000000 $
b100110011110100100000111001011000110001100101010110001000110001101 '
1+
b101100111111010100101110011010111000111101011100011000111011101101 /
12
#20
0+
b1001110110001000100011110011110100010011 -
#21
b0000110 #
b100110011110100100000111100111011000100010001111001111010001001100 '
0*
1+
b100110011110100100000111001011000110001100101010110001000110001101 /
#22
0+
b1111101011110001100001111111011101100011 -
#23
b0000111 #
b000000000000000000000000000000000000000000000000001111101011110001 $
b100001111111011101100011100111011000100010001111001111010001001100 '
1*
1+
02
#24
0+
b0011010100111000100000110000001001111100 -
#25
b0001000 #
b000000000000000000000000000000000000000000000000000000000000000000 $
b100001111100110101001110001000001100000010011111001111101011110001 '
0*
1+
b100001111111011101100011100111011000100010001111001111010001001100 /
12
#26
0+
b1001001010010010000010010100111011000010 -
#27
b0001001 #
b000000000000000000000000000000000000100100101001001000001001010011 $
b101100001000110101001110001000001100000010011111001111101011110001 '
1*
1+
02
#28
0+
b1100100010101101111100110010010011000000 -
#29
b0001010 #
b000000000000000000000000000000000000000000000000000000000000001100 $
b100010101101111100110010010011000000100100101001001000001001010011 '
1+
b101100001000110101001110001000001100000010011111001111101011110001 /
12
#30
0+
b0111000000000100111011001111001100100010 -
#31
b0001011 #
b000000000000000000000000000000000000000000000000000000000000000000 $
b000000000000000000000001110000000001001110110011110011001000101100 '
0*
1+
b100010101101111100110010010011000000100100101001001000001001010011 /
#32
0+
b1110001010110110101011100011000001111101 -
#33
b0001100 #
b000000000000000000000000000000000000000000000000111000101011011010 $
b101110001100000111110101110000000001001110110011110011001000101100 '
1*
1+
02
#34
0+
b1001111000010000100001010010111010111001 -
#35
b0001101 #
b000000000000000000000000000000000000000000000000000000000000000000 $
b101110001001111000010000100001010010111010111001111000101011011010 '
0*
1+
b101110001100000111110101110000000001001110110011110011001000101100 /
12
#36
0+
b0101100011111111101000000100010110001010 -
#37
b0001110 #
b000000000000000000000000000000000001011000111111111010000001000101 $
b100010101001111000010000100001010010111010111001111000101011011010 '
1*
1+
02
#38
0+
b0111001001011011010000001111101110101010 -
#39
b0001111 #
b000000000000000000000000000000000000000000000000000000000000011100 $
b100101101101000000111110111010101001011000111111111010000001000101 '
1+
b100010101001111000010000100001010010111010111001111000101011011010 /
12
#40
0+
b1110111111011000111101001011010001100110 -
#41
b0010000 #
b000000000000000000000000000000000000000000000000000000000000000000 $
b100101101101000000111110111111011000111101001011010001100110011100 '
0*
1+
b100101101101000000111110111010101001011000111111111010000001000101 /
#42
0+
b1000011111110100000110110111111101011011 -
#43
b0010001 #
b000000000000000000000000000000000000000000000010000111111101000001 $
b101101111111010110111110111111011000111101001011010001100110011100 '
1*
1+
02
#44
0+
b1101011101011100111100110011000000011011 -
#45
b0010010 #
b000000000000000000000000000000000000000000000000000000000000000000 $
b101101110101110101110011110011001100000001101110000111111101000001 '
0*
1+
b101101111111010110111110111111011000111101001011010001100110011100 /
12
#46
0+
b1101000110110110000100000001001010101110 -
#47
b0010011 #
b000000000000000000000000000000001101000110110110000100000001001010 $
b101110110101110101110011110011001100000001101110000111111101000001 '
1*
1+
02
#48
0+
b1001011110011100111010011011000000011110 -
#49
b0010100 #
b000000000000000000000000000000000000000000000000000000000010010111 $
b100111001110100110110000000111101101000110110110000100000001001010 '
1+
b101110110101110101110011110011001100000001101110000111111101000001 /
12
#50
0+
b1110000010000001000001100100110001101010 -
#51
b0010101 #
b000000000000000000000000000000000000000000000000000000000000000000 $
b100111001110100110111000001000000100000110010011000110101010010111 '
0*
1+
b100111001110100110110000000111101101000110110110000100000001001010 /
#52
0+
b0111000100010100011010100100100111001010 -
#53
b0010110 #
b000000000000000000000000000000000000000000000111000100010100011010 $
b100100100111001010111000001000000100000110010011000110101010010111 '
1*
1+
02
#54
0+
b1101110011110010011110100100011101011101 -
#55
b0010111 #
b000000000000000000000000000000000000000000000000000000000000000000 $
b100111011100111100100111101001000111010111010111000100010100011010 '
0*
1+
b100100100111001010111000001000000100000110010011000110101010010111 /
12
#56
0+
b0100111011010010000100001011110011101011 -
#57
b0011000 #
b000000000000000000000000000000010011101101001000010000101111001110 $
b101111011100111100100111101001000111010111010111000100010100011010 '
1*
1+
02
#58
0+
b1001100000101001001101101110001000110011 -
#59
b0011001 #
b000000000000000000000000000000010011101101001000010000101001100000 $
b101001001101101110001000110011010011101101001000010000101111001110 '
1+
b101111011100111100100111101001000111010111010111000100010100011010 /
12
#60
0+
b1110111100111101100101011010010100001011 -
#61
b0011010 #
b000000000000000000000000000000000000000000000000000000000000000000 $
b101001001101101111101111001111011001010110100101000010111001100000 '
0*
1+
b101001001101101110001000110011010011101101001000010000101111001110 /
#62
0+
b1011110100010011101001011011111110011011 -
#63
b0011011 #
b000000000000000000000000000000000000000000101111010001001110100101 $
b101111111001101111101111001111011001010110100101000010111001100000 '
1*
1+
02
#64
0+
b1111110101000011010111100011110111011110 -
#65
b0011100 #
b000000000000000000000000000000000000000000000000000000000000000000 $
b101111110101000011010111100011110111011110101111010001001110100101 '
0*
1+
b101111111001101111101111001111011001010110100101000010111001100000 /
12
#66
0+
b1111110110111011100010110111001001010010 -
#67
b0011101 #
b000000000000000000000000000011111101101110111000101101110010010100 $
1*
1+
02
#68
0+
b0000111101101000010000101010100111011100 -
#69
b0011110 #
b000000000000000000000000000011111101101110111000101101000011110110 $
b100001000010101010011101110011111101101110111000101101110010010100 '
1+
b101111110101000011010111100011110111011110101111010001001110100101 /
12
#70
0+
b1011111010101110001110011110101101010010 -
#71
b0011111 #
b000000000000000000000000000000000000000000000000000000000000000000 $
b100001000010101011111010101110001110011110101101010010000011110110 '
0*
1+
b100001000010101010011101110011111101101110111000101101110010010100 /
#72
0+
b1110111100100101110111110110101100101110 -
#73
b0100000 #
b000000000000000000000000000000000000000011101111001001011101111101 $
b101011001011101011111010101110001110011110101101010010000011110110 '
1*
1+
02
#74
0+
b1000010000101101110010011101000111110011 -
#75
b0000000 #
b000000000000000000000000000000000000000000000000000000000000000000 $
b100001000010110111001001110100011111001111101111001001011101111101 '
1+
b101011001011101011111010101110001110011110101101010010000011110110 /
12
#76
0+
b0010011001110110100111000110000110000011 -
#77
b0000001 #
b000000000000000000000000000010011001110110100111000110000110000011 '
0*
1+
b100001000010110111001001110100011111001111101111001001011101111101 /
#78
0+
b0110101000101010011101000100011100101001 -
#79
b0000010 #
b000000000000000000000000000000000000000000000000000001101010001010 $
b100111010001000111001010010010011001110110100111000110000110000011 '
1*
1+
02
#80
0+
b0011110110101110101111100010100111011111 -
#81
b0000011 #
b000000000000000000000000000000000000000000000000000000000000000000 $
b100111010001001111011010111010111110001010011101111101101010001010 '
0*
1+
b100111010001000111001010010010011001110110100111000110000110000011 /
12
#82
0+
b0001101010110011111010011010100010011000 -
#83
b0000100 #
b000000000000000000000000000000000000000001101010110011111010011010 $
b100010011000001111011010111010111110001010011101111101101010001010 '
1*
1+
02
#84
0+
b0110100011110011011001000000100001001000 -
#85
b0000101 #
b000000000000000000000000000000000000000000000000000000000000000001 $
b101000111100110110010000001000010010000001101010110011111010011010 '
1+
b100010011000001111011010111010111110001010011101111101101010001010 /
12
#86
0+
b0111110010101111110001001111011010100010 -
#87
b0000110 #
b000000000000000000000000000000000000000000000000000000000000000000 $
b101000111100110110010000011111001010111111000100111101101010001001 '
0*
1+
b101000111100110110010000001000010010000001101010110011111010011010 /
#88
0+
b1000010000000100101001111111101000101001 -
#89
b0000111 #
b000000000000000000000000000000000000000000000000001000010000000100 $
b101001111111101000101001011111001010111111000100111101101010001001 '
1*
1+
02
#90
0+
b1000101010010110111011010000101010011101 -
#91
b0001000 #
b000000000000000000000000000000000000000000000000000000000000000000 $
b101001111110001010100101101110110100001010100111011000010000000100 '
0*
1+
b101001111111101000101001011111001010111111000100111101101010001001 /
12
#92
0+
b0000110101000000110000101011001001100100 -
#93
b0001001 #
b000000000000000000000000000000000000000011010100000011000010101100 $
b100110010010001010100101101110110100001010100111011000010000000100 '
1*
1+
02
#94
0+
b0100100010111110111111010010000101101011 -
#95
b0001010 #
b000000000000000000000000000000000000000000000000000000000000000100 $
b100010111110111111010010000101101011000011010100000011000010101100 '
1+
b100110010010001010100101101110110100001010100111011000010000000100 /
12
#96
0+
b0101000001111000010010010000010101011001 -
#97
b0001011 #
b000000000000000000000000000000000000000000000000000000000000000000 $
b000000000000000000000001010000011110000100100100000101010110010100 '
0*
1+
b100010111110111111010010000101101011000011010100000011000010101100 /
#98
0+
b1111110100101000011000101100101001110000 -
#99
b0001100 #
b000000000000000000000000000000000000000000000000111111010010100001 $
b100010110010100111000001010000011110000100100100000101010110010100 '
1*
1+
02
#100
0+
b0101111001111111001011101101110101101001 -
#101
b0001101 #
b000000000000000000000000000000000000000000000000000000000000000000 $
b100010110101111001111111001011101101110101101001111111010010100001 '
0*
1+
b100010110010100111000001010000011110000100100100000101010110010100 /
12
#102
0+
b0110011100011101111101100101101110011001 -
#103
b0001110 #
b000000000000000000000000000000000001100111000111011111011001011011 $
b100110010101111001111111001011101101110101101001111111010010100001 '
1*
1+
02
#104
0+
b0110111011010011010101111111001001110111 -
#105
b0001111 #
b000000000000000000000000000000000000000000000000000000000000011011 $
b101101001101010111111100100111011101100111000111011111011001011011 '
1+
b100110010101111001111111001011101101110101101001111111010010100001 /
12
#106
0+
b0001000001010101000010010101100111111001 -
#107
b0010000 #
b000000000000000000000000000000000000000000000000000000000000000000 $
b101101001101010111110001000001010101000010010101100111111001011011 '
0*
1+
b101101001101010111111100100111011101100111000111011111011001011011 /
#108
0+
b1010011000110110000110011111000100010101 -
#109
b0010001 #
b000000000000000000000000000000000000000000000010100110001101100001 $
b100111110001000101010001000001010101000010010101100111111001011011 '
1*
1+
02
#110
0+
b1110111101011001000110011101010001011001 -
#111
b0010010 #
b000000000000000000000000000000000000000000000000000000000000000000 $
b100111111011110101100100011001110101000101100110100110001101100001 '
0*
1+
b100111110001000101010001000001010101000010010101100111111001011011 /
12
#112
0+
b0000111111111001111001111100011000100111 -
#113
b0010011 #
b000000000000000000000000000000000000111111111001111001111100011000 $
1*
1+
02
#114
0+
b0101011010101001100000011101101000010010 -
#115
b0010100 #
b000000000000000000000000000000000000000000000000000000000001010110 $
b101010011000000111011010000100100000111111111001111001111100011000 '
1+
b100111111011110101100100011001110101000101100110100110001101100001 /
12
#116
0+
b0000011011001011000110110111110010001100 -
#117
b0010101 #
b000000000000000000000000000000000000000000000000000000000000000000 $
b101010011000000111000001101100101100011011011111001000110001010110 '
0*
1+
b101010011000000111011010000100100000111111111001111001111100011000 /
#118
0+
b0110111010001110001111101101011011101111 -
#119
b0010110 #
b000000000000000000000000000000000000000000000110111010001110001111 $
b101101011011101111000001101100101100011011011111001000110001010110 '
1*
1+
02
#120
0+
b1000101011001101000011110001110110110111 -
#121
b0010111 #
b000000000000000000000000000000000000000000000000000000000000000000 $
b101110001010110011010000111100011101101101110110111010001110001111 '
0*
1+
b101101011011101111000001101100101100011011011111001000110001010110 /
12
#122
0+
b1011011100000010010110111111000010011011 -
#123
b0011000 #
b000000000000000000000000000000101101110000001001011011111100001001 $
1*
1+
02
#124
0+
b1101111101100000110101100010011111111100 -
#125
b0011001 #
b000000000000000000000000000000101101110000001001011011111101111101 $
b100000110101100010011111111100101101110000001001011011111100001001 '
1+
b101110001010110011010000111100011101101101110110111010001110001111 /
12
#126
0+
b0100000011010010101010111011001110010000 -
#127
b0011010 #
b000000000000000000000000000000000000000000000000000000000000000000 $
b100000110101100001000000110100101010101110110011100100001101111101 '
0*
1+
b100000110101100010011111111100101101110000001001011011111100001001 /
#128
0+
b0000001110100100011011011010100101001000 -
#129
b0011011 #
b000000000000000000000000000000000000000000000000111010010001101101 $
b101010010100100001000000110100101010101110110011100100001101111101 '
1*
1+
02
#130
0+
b1000001101110101100000001110111010001010 -
#131
b0011100 #
b000000000000000000000000000000000000000000000000000000000000000000 $
b101000001101110101100000001110111010001010000000111010010001101101 '
0*
1+
b101010010100100001000000110100101010101110110011100100001101111101 /
12
#132
0+
b1110110011100011011111010011111110000110 -
#133
b0011101 #
b000000000000000000000000000011101100111000110111110100111111100001 $
1*
1+
02
#134
0+
b0100100100001011011011100110110001011011 -
#135
b0011110 #
b000000000000000000000000000011101100111000110111110100010010010000 $
b101101101110011011000101101111101100111000110111110100111111100001 '
1+
b101000001101110101100000001110111010001010000000111010010001101101 /
12
#136
0+
b1101000111000000000100010111010111010011 -
#137
b0011111 #
b000000000000000000000000000000000000000000000000000000000000000000 $
b101101101110011101000111000000000100010111010111010011010010010000 '
0*
1+
b101101101110011011000101101111101100111000110111110100111111100001 /
#138
0+
b1011100000010001100110100010110111011100 -
#139
b0100000 #
b000000000000000000000000000000000000000010111000000100011001101000 $
b101101110111001101000111000000000100010111010111010011010010010000 '
1*
1+
02
#140
0+
b1011101011011000110011011000101011110101 -
#141
b0000000 #
b000000000000000000000000000000000000000000000000000000000000000000 $
b101110101101100011001101100010101111010110111000000100011001101000 '
1+
b101101110111001101000111000000000100010111010111010011010010010000 /
12
#142
0+
b0001111000101100111100011010010011001011 -
#143
b0000001 #
b000000000000000000000000000001111000101100111100011010010011001011 '
0*
1+
b101110101101100011001101100010101111010110111000000100011001101000 /
#144
0+
b1100011011001010011000010100101011011101 -
#145
b0000010 #
b000000000000000000000000000000000000000000000000000011000110110010 $
b100110000101001010110111010001111000101100111100011010010011001011 '
1*
1+
02
#146
0+
b0011101100000001110101111011011110010001 -
#147
b0000011 #
b000000000000000000000000000000000000000000000000000000000000000000 $
b100110000101001110110000000111010111101101111001000111000110110010 '
0*
1+
b100110000101001010110111010001111000101100111100011010010011001011 /
12
#148
0+
b1000111000001001110100000101100000111110 -
#149
b0000100 #
b000000000000000000000000000000000000001000111000001001110100000101 $
b100000111110001110110000000111010111101101111001000111000110110010 '
1*
1+
02
#150
0+
b1110010101100100000110001001101111110010 -
#151
b0000101 #
b000000000000000000000000000000000000000000000000000000000000000011 $
b100101011001000001100010011011111100101000111000001001110100000101 '
1+
b100000111110001110110000000111010111101101111001000111000110110010 /
12
#152
0+
b1110111010111010100101001001101001110100 -
#153
b0000110 #
b000000000000000000000000000000000000000000000000000000000000000000 $
b100101011001000001100010111011101011101010010100100110100111010011 '
0*
1+
b100101011001000001100010011011111100101000111000001001110100000101 /
#154
0+
b1010011011100011100101010001010100110101 -
#155
b0000111 #
b000000000000000000000000000000000000000000000000001010011011100011 $
b100101010001010100110101111011101011101010010100100110100111010011 '
1*
1+
02
#156
0+
b1011010100010100110000011111010111110001 -
#157
b0001000 #
b000000000000000000000000000000000000000000000000000000000000000000 $
b100101010010110101000101001100000111110101111100011010011011100011 '
0*
1+
b100101010001010100110101111011101011101010010100100110100111010011 /
12
#158
0+
b1011110110110010010110010110001001001101 -
#159
b0001001 #
b000000000000000000000000000000000000101111011011001001011001011000 $
b100100110110110101000101001100000111110101111100011010011011100011 '
1*
1+
02
#160
0+
b1001101110000101001000110011000100011011 -
#161
b0001010 #
b000000000000000000000000000000000000000000000000000000000000001001 $
b101110000101001000110011000100011011101111011011001001011001011000 '
1+
b100100110110110101000101001100000111110101111100011010011011100011 /
12
#162
0+
b1101111100001000111111100010101010010001 -
#163
b0001011 #
b000000000000000000000000000000000000000000000000000000000000000000 $
b000000000000000000000011011111000010001111111000101010100100011001 '
0*
1+
b101110000101001000110011000100011011101111011011001001011001011000 /
#164
0+
b1001000100110101101010100010111000101001 -
#165
b0001100 #
b000000000000000000000000000000000000000000000000100100010011010110 $
b101010001011100010100111011111000010001111111000101010100100011001 '
1*
1+
02
#166
0+
b1110011000110100010001111110001011010001 -
#167
b0001101 #
b000000000000000000000000000000000000000000000000000000000000000000 $
b101010001110011000110100010001111110001011010001100100010011010110 '
0*
1+
b101010001011100010100111011111000010001111111000101010100100011001 /
12
#168
0+
b1000010001110000101000101110010110110010 -
#169
b0001110 #
b000000000000000000000000000000000010000100011100001010001011100101 $
b101100101110011000110100010001111110001011010001100100010011010110 '
1*
1+
02
#170
0+
b1110001010011111010001100010100110010110 -
#171
b0001111 #
b000000000000000000000000000000000000000000000000000000000000111000 $
b101001111101000110001010011001011010000100011100001010001011100101 '
1+
b101100101110011000110100010001111110001011010001100100010011010110 /
12
#172
0+
b0100101101110011001101001101100011101111 -
#173
b0010000 #
b000000000000000000000000000000000000000000000000000000000000000000 $
b101001111101000110000100101101110011001101001101100011101111111000 '
0*
1+
b101001111101000110001010011001011010000100011100001010001011100101 /
#174
0+
b1100100001101011000010010000010101011111 -
#175
b0010001 #
b000000000000000000000000000000000000000000000011001000011010110000 $
b100100000101010111110100101101110011001101001101100011101111111000 '
1*
1+
02
#176
0+
b0001011100110011001101011000111010101110 -
#177
b0010010 #
b000000000000000000000000000000000000000000000000000000000000000000 $
b100100000101110011001100110101100011101010111011001000011010110000 '
0*
1+
b100100000101010111110100101101110011001101001101100011101111111000 /
12
#178
0+
b0011101010000010110010011001011000101000 -
#179
b0010011 #
b000000000000000000000000000000000011101010000010110010011001011000 $
b101000000101110011001100110101100011101010111011001000011010110000 '
1*
1+
02
#180
0+
b1101100110010100111010010111010010101111 -
#181
b0010100 #
b000000000000000000000000000000000000000000000000000000000011011001 $
b100101001110100101110100101011110011101010000010110010011001011000 '
1+
b101000000101110011001100110101100011101010111011001000011010110000 /
12
#182
0+
b1100101111011010000110010111011001000100 -
#183
b0010101 #
b000000000000000000000000000000000000000000000000000000000000000000 $
b100101001110100101110010111101101000011001011101100100010011011001 '
0*
1+
b100101001110100101110100101011110011101010000010110010011001011000 /
#184
0+
b1101010000000000101100101110110001011101 -
#185
b0010110 #
b000000000000000000000000000000000000000000001101010000000000101100 $
b101110110001011101110010111101101000011001011101100100010011011001 '
1*
1+
02
#186
0+
b0110010000100001011001011011100111000010 -
#187
b0010111 #
b000000000000000000000000000000000000000000000000000000000000000000 $
b101101100100001000010110010110111001110000101101010000000000101100 '
0*
1+
b101110110001011101110010111101101000011001011101100100010011011001 /
12
#188
0+
b1100000010011101110101010001000010011011 -
#189
b0011000 #
b000000000000000000000000000000110000001001110111010101000100001001 $
1*
1+
02
#190
0+
b1101111001101111000111111011100100111011 -
#191
b0011001 #
b000000000000000000000000000000110000001001110111010101001101111001 $
b101111000111111011100100111011110000001001110111010101000100001001 '
1+
b101101100100001000010110010110111001110000101101010000000000101100 /
12
#192
0+
b1101100110100001010011111111011111100110 -
#193
b0011010 #
b000000000000000000000000000000000000000000000000000000000000000000 $
b101111000111111011011001101000010100111111110111111001101101111001 '
0*
1+
b101111000111111011100100111011110000001001110111010101000100001001 /
#194
0+
b0111010100000100110001011000111110001111 -
#195
b0011011 #
b000000000000000000000000000000000000000000011101010000010011000101 $
b100011111000111111011001101000010100111111110111111001101101111001 '
1*
1+
02
#196
0+
b1001101001001001101011010011010000111011 -
#197
b0011100 #
b000000000000000000000000000000000000000000000000000000000000000000 $
b101001101001001001101011010011010000111011011101010000010011000101 '
0*
1+
b100011111000111111011001101000010100111111110111111001101101111001 /
12
#198
0+
b0000001100110000001100011110000011101110 -
#199
b0011101 #
b000000000000000000000000000000000011001100000011000111100000111011 $
1*
1+
02
#200
0+
b0101101101011011011010011001000000101101 -
#201
b0011110 #
b000000000000000000000000000000000011001100000011000111010110110101 $
b101101101001100100000010110100000011001100000011000111100000111011 '
1+
b101001101001001001101011010011010000111011011101010000010011000101 /
12
#202
0+
b0010011100101111011100000111000000001010 -
#203
b0011111 #
b000000000000000000000000000000000000000000000000000000000000000000 $
b101101101001100010011100101111011100000111000000001010010110110101 '
0*
1+
b101101101001100100000010110100000011001100000011000111100000111011 /
#204
0+
b0100010110010010110010010010011001110000 -
#205
b0100000 #
b000000000000000000000000000000000000000001000101100100101100100100 $
b100110011100000010011100101111011100000111000000001010010110110101 '
1*
1+
02
#206
0+
b1000100010100011101010110111001101011010 -
#207
b0000000 #
b000000000000000000000000000000000000000000000000000000000000000000 $
b100010001010001110101011011100110101101001000101100100101100100100 '
1+
b100110011100000010011100101111011100000111000000001010010110110101 /
12
#208
0+
b0001010101000000110000111000111110100001 -
#209
b0000001 #
b000000000000000000000000000001010101000000110000111000111110100001 '
0*
1+
b100010001010001110101011011100110101101001000101100100101100100100 /
#210
0+
b1111001010100110110100110111100011011110 -
#211
b0000010 #
b000000000000000000000000000000000000000000000000000011110010101001 $
b101101001101111000110111100001010101000000110000111000111110100001 '
1*
1+
02
#212
0+
b1000001000010110100000110110010101010100 -
#213
b0000011 #
b000000000000000000000000000000000000000000000000000000000000000000 $
b101101001101100000100001011010000011011001010101010011110010101001 '
0*
1+
b101101001101111000110111100001010101000000110000111000111110100001 /
12
#214
0+
b1011000100001011001010101011100011100111 -
#215
b0000100 #
b000000000000000000000000000000000000001011000100001011001010101011 $
b100011100111100000100001011010000011011001010101010011110010101001 '
1*
1+
02
#216
0+
b0010000101101000111111100111101100110100 -
#217
b0000101 #
b000000000000000000000000000000000000000000000000000000000000000000 $
b100001011010001111111001111011001101001011000100001011001010101011 '
1+
b100011100111100000100001011010000011011001010101010011110010101001 /
12
#218
0+
b0110100010101111001110101010101111010111 -
#219
b0000110 #
b100001011010001111111001011010001010111100111010101010111101011100 '
0*
1+
b100001011010001111111001111011001101001011000100001011001010101011 /
#220
0+
b0100100111010010100011010100110100101010 -
#221
b0000111 #
b000000000000000000000000000000000000000000000000000100100111010010 $
b100011010100110100101010011010001010111100111010101010111101011100 '
1*
1+
02
#222
0+
b1100011100001101100010010010010010010100 -
#223
b0001000 #
b000000000000000000000000000000000000000000000000000000000000000000 $
b100011010111000111000011011000100100100100100101000100100111010010 '
0*
1+
b100011010100110100101010011010001010111100111010101010111101011100 /
12
#224
0+
b1101010010010110100101100011001000111010 -
#225
b0001001 #
b000000000000000000000000000000000000110101001001011010010110001100 $
b100011101011000111000011011000100100100100100101000100100111010010 '
1*
1+
02
#226
0+
b1011101001010000001100111011100001100001 -
#227
b0001010 #
b000000000000000000000000000000000000000000000000000000000000001011 $
b101001010000001100111011100001100001110101001001011010010110001100 '
1+
b100011101011000111000011011000100100100100100101000100100111010010 /
12
#228
0+
b1100010000110101011110011010101000101001 -
#229
b0001011 #
b000000000000000000000000000000000000000000000000000000000000000000 $
b000000000000000000000011000100001101010111100110101010001010011011 '
0*
1+
b101001010000001100111011100001100001110101001001011010010110001100 /
#230
0+
b1101111101000101001010010111001100100100 -
#231
b0001100 #
b000000000000000000000000000000000000000000000000110111110100010100 $
b101001011100110010010011000100001101010111100110101010001010011011 '
1*
1+
02
#232
0+
b1111010011011100110100001110101100010011 -
#233
b0001101 #
b000000000000000000000000000000000000000000000000000000000000000000 $
b101001011111010011011100110100001110101100010011110111110100010100 '
0*
1+
b101001011100110010010011000100001101010111100110101010001010011011 /
12
#234
0+
b1101000100111101101010000001000110010001 -
#235
b0001110 #
b000000000000000000000000000000000011010001001111011010100000010001 $
b100100011111010011011100110100001110101100010011110111110100010100 '
1*
1+
02
#236
0+
b1110011011101011111100100111110101011001 -
#237
b0001111 #
b000000000000000000000000000000000000000000000000000000000000111001 $
b101110101111110010011111010101100111010001001111011010100000010001 '
1+
b100100011111010011011100110100001110101100010011110111110100010100 /
12
#238
0+
b0000110011010110101010010010010110100001 -
#239
b0010000 #
b000000000000000000000000000000000000000000000000000000000000000000 $
b101110101111110010010000110011010110101010010010010110100001111001 '
0*
1+
b101110101111110010011111010101100111010001001111011010100000010001 /
#240
0+
b1001100011110100110110111110110010110011 -
#241
b0010001 #
b000000000000000000000000000000000000000000000010011000111101001101 $
b101111101100101100110000110011010110101010010010010110100001111001 '
1*
1+
02
#242
0+
b1101000111100010000111000010011100101111 -
#243
b0010010 #
b000000000000000000000000000000000000000000000000000000000000000000 $
b101111110100011110001000011100001001110010111110011000111101001101 '
0*
1+
b101111101100101100110000110011010110101010010010010110100001111001 /
12
#244
0+
b0010110110111000100011111100110011100111 -
#245
b0010011 #
b000000000000000000000000000000000010110110111000100011111100110011 $
b100111110100011110001000011100001001110010111110011000111101001101 '
1*
1+
02
#246
0+
b1001001010100010001101100011010011000010 -
#247
b0010100 #
b000000000000000000000000000000000000000000000000000000000010010010 $
b101000100011011000110100110000100010110110111000100011111100110011 '
1+
b100111110100011110001000011100001001110010111110011000111101001101 /
12
#248
0+
b0001101000110001011101101000010100111010 -
#249
b0010101 #
b000000000000000000000000000000000000000000000000000000000000000000 $
b101000100011011000000110100011000101110110100001010011101010010010 '
0*
1+
b101000100011011000110100110000100010110110111000100011111100110011 /
#250
0+
b1000100011100001100010100011101010001111 -
#251
b0010110 #
b000000000000000000000000000000000000000000001000100011100001100010 $
b100011101010001111000110100011000101110110100001010011101010010010 '
1*
1+
02
#252
0+
b0010011100111100110101010000101011010001 -
#253
b0010111 #
b000000000000000000000000000000000000000000000000000000000000000000 $
b100000100111001111001101010100001010110100011000100011100001100010 '
0*
1+
b100011101010001111000110100011000101110110100001010011101010010010 /
12
#254
0+
b0100110110010111100000011011100010101010 -
#255
b0011000 #
b000000000000000000000000000000010011011001011110000001101110001010 $
b101000100111001111001101010100001010110100011000100011100001100010 '
1*
1+
02
#256
0+
b1000111011101010111000011101110011111010 -
#257
b0011001 #
b000000000000000000000000000000010011011001011110000001101000111011 $
b101010111000011101110011111010010011011001011110000001101110001010 '
1+
b101000100111001111001101010100001010110100011000100011100001100010 /
12
#258
0+
b0001011110110110101010111110110011000000 -
#259
b0011010 #
b000000000000000000000000000000000000000000000000000000000000000000 $
b101010111000011100010111101101101010101111101100110000001000111011 '
0*
1+
b101010111000011101110011111010010011011001011110000001101110001010 /
#260
0+
b1010100010011001011010001000000001000011 -
#261
b0011011 #
b000000000000000000000000000000000000000000101010001001100101101000 $
b100000000100001100010111101101101010101111101100110000001000111011 '
1*
1+
02
#262
0+
b1100000001111011101101110100101011011100 -
#263
b0011100 #
b000000000000000000000000000000000000000000000000000000000000000000 $
b101100000001111011101101110100101011011100101010001001100101101000 '
0*
1+
b100000000100001100010111101101101010101111101100110000001000111011 /
12
#264
0+
b0001000010111010011110001100010011111010 -
#265
b0011101 #
b000000000000000000000000000000010000101110100111100011000100111110 $
1*
1+
02
#266
0+
b1110111000001010000110001010000100000110 -
#267
b0011110 #
b000000000000000000000000000000010000101110100111100011111011100000 $
b101000011000101000010000011000010000101110100111100011000100111110 '
1+
b101100000001111011101101110100101011011100101010001001100101101000 /
12
#268
0+
b0110111010010111001000110010101011111000 -
#269
b0011111 #
b000000000000000000000000000000000000000000000000000000000000000000 $
b101000011000100110111010010111001000110010101011111000111011100000 '
0*
1+
b101000011000101000010000011000010000101110100111100011000100111110 /
#270
0+
b1110001101001101010001001110111001011110 -
#271
b0100000 #
b000000000000000000000000000000000000000011100011010011010100010011 $
b101110010111100110111010010111001000110010101011111000111011100000 '
1*
1+
02
#272
0+
b1010110001001110100010010001100010000011 -
#273
b0000000 #
b000000000000000000000000000000000000000000000000000000000000000000 $
b101011000100111010001001000110001000001111100011010011010100010011 '
1+
b101110010111100110111010010111001000110010101011111000111011100000 /
12
#274
0+
b1111101000100111000111010011010111101010 -
#275
b0000001 #
b000000000000000000000000001111101000100111000111010011010111101010 '
0*
1+
b101011000100111010001001000110001000001111100011010011010100010011 /
#276
0+
b1100011111001110000100100110101100101001 -
#277
b0000010 #
b000000000000000000000000000000000000000000000000000011000111110011 $
b100001001001101011001010011111101000100111000111010011010111101010 '
1*
1+
02
#278
0+
b1000100110011100011111111011010011000110 -
#279
b0000011 #
b000000000000000000000000000000000000000000000000000000000000000000 $
b100001001001100010011001110001111111101101001100011011000111110011 '
0*
1+
b100001001001101011001010011111101000100111000111010011010111101010 /
12
#280
0+
b0110101100000111111100000100100110000010 -
