testsuite/verilator_sim/circ_buf/calc_address/Vsonic_calc_address.vcd
$version Generated by VerilatedVcd $end
$date Fri Nov 25 16:50:23 2011
 $end
$timescale 1ns $end

 $scope module TOP $end
  $var wire 14 * addr_out [13:0] $end
  $var wire  1 & clk_in $end
  $var wire  1 ) ena $end
  $var wire  1 ( incr $end
  $var wire  1 ' reset $end
  $scope module v $end
   $var wire 14 * addr_out [13:0] $end
   $var wire  1 & clk_in $end
   $var wire  1 ) ena $end
   $var wire  1 ( incr $end
   $var wire 14 % next_address [13:0] $end
   $var wire  1 ' reset $end
   $scope module sta $end
    $var wire  1 & clk $end
    $var wire 14 % ext_read_addr [13:0] $end
    $var wire 14 $ ext_read_addr_r [13:0] $end
    $var wire 14 * int_read_addr [13:0] $end
    $var wire  6 # pgn [5:0] $end
    $var wire  1 ' reset $end
   $upscope $end
  $upscope $end
 $upscope $end
$enddefinitions $end


#0
b000000 #
b00000000000000 $
b00000000000000 %
1(
1)
0&
1'
b00000000000000 *
#1
b000001 #
1&
#2
0&
#3
1&
b00000000010000 *
#4
0&
#5
1&
#6
0&
#7
1&
#8
0&
#9
1&
#10
0&
#11
b00000000000001 %
1&
0'
#12
0&
#13
b00000000000001 $
b00000000000010 %
1&
#14
0&
#15
b00000000000010 $
b00000000000011 %
1&
b00000000010001 *
#16
0&
#17
b00000000000011 $
b00000000000100 %
1&
b00000000010010 *
#18
0&
#19
b00000000000100 $
b00000000000101 %
1&
b00000000010011 *
#20
0&
#21
b00000000000101 $
b00000000000110 %
1&
b00000000010100 *
#22
0&
#23
b00000000000110 $
b00000000000111 %
1&
b00000000010101 *
#24
0&
#25
b00000000000111 $
b00000000001000 %
1&
b00000000010110 *
#26
0&
#27
b00000000001000 $
b00000000001001 %
1&
b00000000010111 *
#28
0&
#29
b00000000001001 $
b00000000001010 %
1&
b00000000011000 *
#30
0&
#31
b00000000001010 $
b00000000001011 %
1&
b00000000011001 *
#32
0&
#33
b00000000001011 $
b00000000001100 %
1&
b00000000011010 *
#34
0&
#35
b00000000001100 $
b00000000001101 %
1&
b00000000011011 *
#36
0&
#37
b00000000001101 $
b00000000001110 %
1&
b00000000011100 *
#38
0&
#39
b00000000001110 $
b00000000001111 %
1&
b00000000011101 *
#40
0&
#41
b00000000001111 $
b00000000010000 %
1&
b00000000011110 *
#42
0&
#43
b00000000010000 $
b00000000010001 %
1&
b00000000011111 *
#44
0&
#45
b00000000010001 $
b00000000010010 %
1&
b00000000100000 *
#46
0&
#47
b00000000010010 $
b00000000010011 %
1&
b00000000100001 *
#48
0&
#49
b00000000010011 $
b00000000010100 %
1&
b00000000100010 *
#50
0&
#51
b00000000010100 $
b00000000010101 %
1&
b00000000100011 *
#52
0&
#53
b00000000010101 $
b00000000010110 %
1&
b00000000100100 *
#54
0&
#55
b00000000010110 $
b00000000010111 %
1&
b00000000100101 *
#56
0&
#57
b00000000010111 $
b00000000011000 %
1&
b00000000100110 *
#58
0&
#59
b00000000011000 $
b00000000011001 %
1&
b00000000100111 *
#60
0&
#61
b00000000011001 $
b00000000011010 %
1&
b00000000101000 *
#62
0&
#63
b00000000011010 $
b00000000011011 %
1&
b00000000101001 *
#64
0&
#65
b00000000011011 $
b00000000011100 %
1&
b00000000101010 *
#66
0&
#67
b00000000011100 $
b00000000011101 %
1&
b00000000101011 *
#68
0&
#69
b00000000011101 $
b00000000011110 %
1&
b00000000101100 *
#70
0&
#71
b00000000011110 $
b00000000011111 %
1&
b00000000101101 *
#72
0&
#73
b00000000011111 $
b00000000100000 %
1&
b00000000101110 *
#74
0&
#75
b00000000100000 $
b00000000100001 %
1&
b00000000101111 *
#76
0&
#77
b00000000100001 $
b00000000100010 %
1&
b00000000110000 *
#78
0&
#79
b00000000100010 $
b00000000100011 %
1&
b00000000110001 *
#80
0&
#81
b00000000100011 $
b00000000100100 %
1&
b00000000110010 *
#82
0&
#83
b00000000100100 $
b00000000100101 %
1&
b00000000110011 *
#84
0&
#85
b00000000100101 $
b00000000100110 %
1&
b00000000110100 *
#86
0&
#87
b00000000100110 $
b00000000100111 %
1&
b00000000110101 *
#88
0&
#89
b00000000100111 $
b00000000101000 %
1&
b00000000110110 *
#90
0&
#91
b00000000101000 $
b00000000101001 %
1&
b00000000110111 *
#92
0&
#93
b00000000101001 $
b00000000101010 %
1&
b00000000111000 *
#94
0&
#95
b00000000101010 $
b00000000101011 %
1&
b00000000111001 *
#96
0&
#97
b00000000101011 $
b00000000101100 %
1&
b00000000111010 *
#98
0&
#99
b00000000101100 $
b00000000101101 %
1&
b00000000111011 *
#100
0&
#101
b00000000101101 $
b00000000101110 %
1&
b00000000111100 *
#102
0&
#103
b00000000101110 $
b00000000101111 %
1&
b00000000111101 *
#104
0&
#105
b00000000101111 $
b00000000110000 %
1&
b00000000111110 *
#106
0&
#107
b00000000110000 $
b00000000110001 %
1&
b00000000111111 *
#108
0&
#109
b00000000110001 $
b00000000110010 %
1&
b00000001000000 *
#110
0&
#111
b00000000110010 $
b00000000110011 %
1&
b00000001000001 *
#112
0&
#113
b00000000110011 $
b00000000110100 %
1&
b00000001000010 *
#114
0&
#115
b00000000110100 $
b00000000110101 %
1&
b00000001000011 *
#116
0&
#117
b00000000110101 $
b00000000110110 %
1&
b00000001000100 *
#118
0&
#119
b00000000110110 $
b00000000110111 %
1&
b00000001000101 *
#120
0&
#121
b00000000110111 $
b00000000111000 %
1&
b00000001000110 *
#122
0&
#123
b00000000111000 $
b00000000111001 %
1&
b00000001000111 *
#124
0&
#125
b00000000111001 $
b00000000111010 %
1&
b00000001001000 *
#126
0&
#127
b00000000111010 $
b00000000111011 %
1&
b00000001001001 *
#128
0&
#129
b00000000111011 $
b00000000111100 %
1&
b00000001001010 *
#130
0&
#131
b00000000111100 $
b00000000111101 %
1&
b00000001001011 *
#132
0&
#133
b00000000111101 $
b00000000111110 %
1&
b00000001001100 *
#134
0&
#135
b00000000111110 $
b00000000111111 %
1&
b00000001001101 *
#136
0&
#137
b00000000111111 $
b00000001000000 %
1&
b00000001001110 *
#138
0&
#139
b00000001000000 $
b00000001000001 %
1&
b00000001001111 *
#140
0&
#141
b00000001000001 $
b00000001000010 %
1&
b00000001010000 *
#142
0&
#143
b00000001000010 $
b00000001000011 %
1&
b00000001010001 *
#144
0&
#145
b00000001000011 $
b00000001000100 %
1&
b00000001010010 *
#146
0&
#147
b00000001000100 $
b00000001000101 %
1&
b00000001010011 *
#148
0&
#149
b00000001000101 $
b00000001000110 %
1&
b00000001010100 *
#150
0&
#151
b00000001000110 $
b00000001000111 %
1&
b00000001010101 *
#152
0&
#153
b00000001000111 $
b00000001001000 %
1&
b00000001010110 *
#154
0&
#155
b00000001001000 $
b00000001001001 %
1&
b00000001010111 *
#156
0&
#157
b00000001001001 $
b00000001001010 %
1&
b00000001011000 *
#158
0&
#159
b00000001001010 $
b00000001001011 %
1&
b00000001011001 *
#160
0&
#161
b00000001001011 $
b00000001001100 %
1&
b00000001011010 *
#162
0&
#163
b00000001001100 $
b00000001001101 %
1&
b00000001011011 *
#164
0&
#165
b00000001001101 $
b00000001001110 %
1&
b00000001011100 *
#166
0&
#167
b00000001001110 $
b00000001001111 %
1&
b00000001011101 *
#168
0&
#169
b00000001001111 $
b00000001010000 %
1&
b00000001011110 *
#170
0&
#171
b00000001010000 $
b00000001010001 %
1&
b00000001011111 *
#172
0&
#173
b00000001010001 $
b00000001010010 %
1&
b00000001100000 *
#174
0&
#175
b00000001010010 $
b00000001010011 %
1&
b00000001100001 *
#176
0&
#177
b00000001010011 $
b00000001010100 %
1&
b00000001100010 *
#178
0&
#179
b00000001010100 $
b00000001010101 %
1&
b00000001100011 *
#180
0&
#181
b00000001010101 $
b00000001010110 %
1&
b00000001100100 *
#182
0&
#183
b00000001010110 $
b00000001010111 %
1&
b00000001100101 *
#184
0&
#185
b00000001010111 $
b00000001011000 %
1&
b00000001100110 *
#186
0&
#187
b00000001011000 $
b00000001011001 %
1&
b00000001100111 *
#188
0&
#189
b00000001011001 $
b00000001011010 %
1&
b00000001101000 *
#190
0&
#191
b00000001011010 $
b00000001011011 %
1&
b00000001101001 *
#192
0&
#193
b00000001011011 $
b00000001011100 %
1&
b00000001101010 *
#194
0&
#195
b00000001011100 $
b00000001011101 %
1&
b00000001101011 *
#196
0&
#197
b00000001011101 $
b00000001011110 %
1&
b00000001101100 *
#198
0&
#199
b00000001011110 $
b00000001011111 %
1&
b00000001101101 *
#200
0&
#201
b00000001011111 $
b00000001100000 %
1&
b00000001101110 *
#202
0&
#203
b00000001100000 $
b00000001100001 %
1&
b00000001101111 *
#204
0&
#205
b00000001100001 $
b00000001100010 %
1&
b00000001110000 *
#206
0&
#207
b00000001100010 $
b00000001100011 %
1&
b00000001110001 *
#208
0&
#209
b00000001100011 $
b00000001100100 %
1&
b00000001110010 *
#210
0&
#211
b00000001100100 $
b00000001100101 %
1&
b00000001110011 *
#212
0&
#213
b00000001100101 $
b00000001100110 %
1&
b00000001110100 *
#214
0&
#215
b00000001100110 $
b00000001100111 %
1&
b00000001110101 *
#216
0&
#217
b00000001100111 $
b00000001101000 %
1&
b00000001110110 *
#218
0&
#219
b00000001101000 $
b00000001101001 %
1&
b00000001110111 *
#220
0&
#221
b00000001101001 $
b00000001101010 %
1&
b00000001111000 *
#222
0&
#223
b00000001101010 $
b00000001101011 %
1&
b00000001111001 *
#224
0&
#225
b00000001101011 $
b00000001101100 %
1&
b00000001111010 *
#226
0&
#227
b00000001101100 $
b00000001101101 %
1&
b00000001111011 *
#228
0&
#229
b00000001101101 $
b00000001101110 %
1&
b00000001111100 *
#230
0&
#231
b00000001101110 $
b00000001101111 %
1&
b00000001111101 *
#232
0&
#233
b00000001101111 $
b00000001110000 %
1&
b00000001111110 *
#234
0&
#235
b00000001110000 $
b00000001110001 %
1&
b00000001111111 *
#236
0&
#237
b00000001110001 $
b00000001110010 %
1&
b00000010000000 *
#238
0&
#239
b00000001110010 $
b00000001110011 %
1&
b00000010000001 *
#240
0&
#241
b00000001110011 $
b00000001110100 %
1&
b00000010000010 *
#242
0&
#243
b00000001110100 $
b00000001110101 %
1&
b00000010000011 *
#244
0&
#245
b00000001110101 $
b00000001110110 %
1&
b00000010000100 *
#246
0&
#247
b00000001110110 $
b00000001110111 %
1&
b00000010000101 *
#248
0&
#249
b00000001110111 $
b00000001111000 %
1&
b00000010000110 *
#250
0&
#251
b00000001111000 $
b00000001111001 %
1&
b00000010000111 *
#252
0&
#253
b00000001111001 $
b00000001111010 %
1&
b00000010001000 *
#254
0&
#255
b00000001111010 $
b00000001111011 %
1&
b00000010001001 *
#256
0&
#257
b00000001111011 $
b00000001111100 %
1&
b00000010001010 *
#258
0&
#259
b00000001111100 $
b00000001111101 %
1&
b00000010001011 *
#260
0&
#261
b00000001111101 $
b00000001111110 %
1&
b00000010001100 *
#262
0&
#263
b00000001111110 $
b00000001111111 %
1&
b00000010001101 *
#264
0&
#265
b00000001111111 $
b00000010000000 %
1&
b00000010001110 *
#266
0&
#267
b00000010000000 $
b00000010000001 %
1&
b00000010001111 *
#268
0&
#269
b00000010000001 $
b00000010000010 %
1&
b00000010010000 *
#270
0&
#271
b00000010000010 $
b00000010000011 %
1&
b00000010010001 *
#272
0&
#273
b00000010000011 $
b00000010000100 %
1&
b00000010010010 *
#274
0&
#275
b00000010000100 $
b00000010000101 %
1&
b00000010010011 *
#276
0&
#277
b00000010000101 $
b00000010000110 %
1&
b00000010010100 *
#278
0&
#279
b00000010000110 $
b00000010000111 %
1&
b00000010010101 *
#280
0&
#281
b00000010000111 $
b00000010001000 %
1&
b00000010010110 *
#282
0&
#283
b00000010001000 $
b00000010001001 %
1&
b00000010010111 *
#284
0&
#285
b00000010001001 $
b00000010001010 %
1&
b00000010011000 *
#286
0&
#287
b00000010001010 $
b00000010001011 %
1&
b00000010011001 *
#288
0&
#289
b00000010001011 $
b00000010001100 %
1&
b00000010011010 *
#290
0&
#291
b00000010001100 $
b00000010001101 %
1&
b00000010011011 *
#292
0&
#293
b00000010001101 $
b00000010001110 %
1&
b00000010011100 *
#294
0&
#295
b00000010001110 $
b00000010001111 %
1&
b00000010011101 *
#296
0&
#297
b00000010001111 $
b00000010010000 %
1&
b00000010011110 *
#298
0&
#299
b00000010010000 $
b00000010010001 %
1&
b00000010011111 *
#300
0&
#301
b00000010010001 $
b00000010010010 %
1&
b00000010100000 *
#302
0&
#303
b00000010010010 $
b00000010010011 %
1&
b00000010100001 *
#304
0&
#305
b00000010010011 $
b00000010010100 %
1&
b00000010100010 *
#306
0&
#307
b00000010010100 $
b00000010010101 %
1&
b00000010100011 *
#308
0&
#309
b00000010010101 $
b00000010010110 %
1&
b00000010100100 *
#310
0&
#311
b00000010010110 $
b00000010010111 %
1&
b00000010100101 *
#312
0&
#313
b00000010010111 $
b00000010011000 %
1&
b00000010100110 *
#314
0&
#315
b00000010011000 $
b00000010011001 %
1&
b00000010100111 *
#316
0&
#317
b00000010011001 $
b00000010011010 %
1&
b00000010101000 *
#318
0&
#319
b00000010011010 $
b00000010011011 %
1&
b00000010101001 *
#320
0&
#321
b00000010011011 $
b00000010011100 %
1&
b00000010101010 *
#322
0&
#323
b00000010011100 $
b00000010011101 %
1&
b00000010101011 *
#324
0&
#325
b00000010011101 $
b00000010011110 %
1&
b00000010101100 *
#326
0&
#327
b00000010011110 $
b00000010011111 %
1&
b00000010101101 *
#328
0&
#329
b00000010011111 $
b00000010100000 %
1&
b00000010101110 *
#330
0&
#331
b00000010100000 $
b00000010100001 %
1&
b00000010101111 *
#332
0&
#333
b00000010100001 $
b00000010100010 %
1&
b00000010110000 *
#334
0&
#335
b00000010100010 $
b00000010100011 %
1&
b00000010110001 *
#336
0&
#337
b00000010100011 $
b00000010100100 %
1&
b00000010110010 *
#338
0&
#339
b00000010100100 $
b00000010100101 %
1&
b00000010110011 *
#340
0&
#341
b00000010100101 $
b00000010100110 %
1&
b00000010110100 *
#342
0&
#343
b00000010100110 $
b00000010100111 %
1&
b00000010110101 *
#344
0&
#345
b00000010100111 $
b00000010101000 %
1&
b00000010110110 *
#346
0&
#347
b00000010101000 $
b00000010101001 %
1&
b00000010110111 *
#348
0&
#349
b00000010101001 $
b00000010101010 %
1&
b00000010111000 *
#350
0&
#351
b00000010101010 $
b00000010101011 %
1&
b00000010111001 *
#352
0&
#353
b00000010101011 $
b00000010101100 %
1&
b00000010111010 *
#354
0&
#355
b00000010101100 $
b00000010101101 %
1&
b00000010111011 *
#356
0&
#357
b00000010101101 $
b00000010101110 %
1&
b00000010111100 *
#358
0&
#359
b00000010101110 $
b00000010101111 %
1&
b00000010111101 *
#360
0&
#361
b00000010101111 $
b00000010110000 %
1&
b00000010111110 *
#362
0&
#363
b00000010110000 $
b00000010110001 %
1&
b00000010111111 *
#364
0&
#365
b00000010110001 $
b00000010110010 %
1&
b00000011000000 *
#366
0&
#367
b00000010110010 $
b00000010110011 %
1&
b00000011000001 *
#368
0&
#369
b00000010110011 $
b00000010110100 %
1&
b00000011000010 *
#370
0&
#371
b00000010110100 $
b00000010110101 %
1&
b00000011000011 *
#372
0&
#373
b00000010110101 $
b00000010110110 %
1&
b00000011000100 *
#374
0&
#375
b00000010110110 $
b00000010110111 %
1&
b00000011000101 *
#376
0&
#377
b00000010110111 $
b00000010111000 %
1&
b00000011000110 *
#378
0&
#379
b00000010111000 $
b00000010111001 %
1&
b00000011000111 *
#380
0&
#381
b00000010111001 $
b00000010111010 %
1&
b00000011001000 *
#382
0&
#383
b00000010111010 $
b00000010111011 %
1&
b00000011001001 *
#384
0&
#385
b00000010111011 $
b00000010111100 %
1&
b00000011001010 *
#386
0&
#387
b00000010111100 $
b00000010111101 %
1&
b00000011001011 *
#388
0&
#389
b00000010111101 $
b00000010111110 %
1&
b00000011001100 *
#390
0&
#391
b00000010111110 $
b00000010111111 %
1&
b00000011001101 *
#392
0&
#393
b00000010111111 $
b00000011000000 %
1&
b00000011001110 *
#394
0&
#395
b00000011000000 $
b00000011000001 %
1&
b00000011001111 *
#396
0&
#397
b00000011000001 $
b00000011000010 %
1&
b00000011010000 *
#398
0&
#399
b00000011000010 $
b00000011000011 %
1&
b00000011010001 *
#400
0&
#401
b00000011000011 $
b00000011000100 %
1&
b00000011010010 *
#402
0&
#403
b00000011000100 $
b00000011000101 %
1&
b00000011010011 *
#404
0&
#405
b00000011000101 $
b00000011000110 %
1&
b00000011010100 *
#406
0&
#407
b00000011000110 $
b00000011000111 %
1&
b00000011010101 *
#408
0&
#409
b00000011000111 $
b00000011001000 %
1&
b00000011010110 *
#410
0&
#411
b00000011001000 $
b00000011001001 %
1&
b00000011010111 *
#412
0&
#413
b00000011001001 $
b00000011001010 %
1&
b00000011011000 *
#414
0&
#415
b00000011001010 $
b00000011001011 %
1&
b00000011011001 *
#416
0&
#417
b00000011001011 $
b00000011001100 %
1&
b00000011011010 *
#418
0&
#419
b00000011001100 $
b00000011001101 %
1&
b00000011011011 *
#420
0&
#421
b00000011001101 $
b00000011001110 %
1&
b00000011011100 *
#422
0&
#423
b00000011001110 $
b00000011001111 %
1&
b00000011011101 *
#424
0&
#425
b00000011001111 $
b00000011010000 %
1&
b00000011011110 *
#426
0&
#427
b00000011010000 $
b00000011010001 %
1&
b00000011011111 *
#428
0&
#429
b00000011010001 $
b00000011010010 %
1&
b00000011100000 *
#430
0&
#431
b00000011010010 $
b00000011010011 %
1&
b00000011100001 *
#432
0&
#433
b00000011010011 $
b00000011010100 %
1&
b00000011100010 *
#434
0&
#435
b00000011010100 $
b00000011010101 %
1&
b00000011100011 *
#436
0&
#437
b00000011010101 $
b00000011010110 %
1&
b00000011100100 *
#438
0&
#439
b00000011010110 $
b00000011010111 %
1&
b00000011100101 *
#440
0&
#441
b00000011010111 $
b00000011011000 %
1&
b00000011100110 *
#442
0&
#443
b00000011011000 $
b00000011011001 %
1&
b00000011100111 *
#444
0&
#445
b00000011011001 $
b00000011011010 %
1&
b00000011101000 *
#446
0&
#447
b00000011011010 $
b00000011011011 %
1&
b00000011101001 *
#448
0&
#449
b00000011011011 $
b00000011011100 %
1&
b00000011101010 *
#450
0&
#451
b00000011011100 $
b00000011011101 %
1&
b00000011101011 *
#452
0&
#453
b00000011011101 $
b00000011011110 %
1&
b00000011101100 *
#454
0&
#455
b00000011011110 $
b00000011011111 %
1&
b00000011101101 *
#456
0&
#457
b00000011011111 $
b00000011100000 %
1&
b00000011101110 *
#458
0&
#459
b00000011100000 $
b00000011100001 %
1&
b00000011101111 *
#460
0&
#461
b00000011100001 $
b00000011100010 %
1&
b00000011110000 *
#462
0&
#463
b00000011100010 $
b00000011100011 %
1&
b00000011110001 *
#464
0&
#465
b00000011100011 $
b00000011100100 %
1&
b00000011110010 *
#466
0&
#467
b00000011100100 $
b00000011100101 %
1&
b00000011110011 *
#468
0&
#469
b00000011100101 $
b00000011100110 %
1&
b00000011110100 *
#470
0&
#471
b00000011100110 $
b00000011100111 %
1&
b00000011110101 *
#472
0&
#473
b00000011100111 $
b00000011101000 %
1&
b00000011110110 *
#474
0&
#475
b00000011101000 $
b00000011101001 %
1&
b00000011110111 *
#476
0&
#477
b00000011101001 $
b00000011101010 %
1&
b00000011111000 *
#478
0&
#479
b00000011101010 $
b00000011101011 %
1&
b00000011111001 *
#480
0&
#481
b00000011101011 $
b00000011101100 %
1&
b00000011111010 *
#482
0&
#483
b00000011101100 $
b00000011101101 %
1&
b00000011111011 *
#484
0&
#485
b00000011101101 $
b00000011101110 %
1&
b00000011111100 *
#486
0&
#487
b00000011101110 $
b00000011101111 %
1&
b00000011111101 *
#488
0&
#489
b00000011101111 $
b00000011110000 %
1&
b00000011111110 *
#490
0&
#491
b00000011110000 $
b00000011110001 %
1&
b00000011111111 *
#492
0&
#493
b00000011110001 $
b00000011110010 %
1&
b00000100000000 *
#494
0&
#495
b00000011110010 $
b00000011110011 %
1&
b00000100000001 *
#496
0&
#497
b00000011110011 $
b00000011110100 %
1&
b00000100000010 *
#498
0&
#499
b00000011110100 $
b00000011110101 %
1&
b00000100000011 *
#500
0&
#501
b00000011110101 $
b00000011110110 %
1&
b00000100000100 *
#502
0&
#503
b00000011110110 $
b00000011110111 %
1&
b00000100000101 *
#504
0&
#505
b00000011110111 $
b00000011111000 %
1&
b00000100000110 *
#506
0&
#507
b00000011111000 $
b00000011111001 %
1&
b00000100000111 *
#508
0&
#509
b00000011111001 $
b00000011111010 %
1&
b00000100001000 *
#510
0&
#511
b00000011111010 $
b00000011111011 %
1&
b00000100001001 *
#512
0&
#513
b00000011111011 $
b00000011111100 %
1&
b00000100001010 *
#514
0&
#515
b00000011111100 $
b00000011111101 %
1&
b00000100001011 *
#516
0&
#517
b00000011111101 $
b00000011111110 %
1&
b00000100001100 *
#518
0&
#519
b00000011111110 $
b00000011111111 %
1&
b00000100001101 *
#520
0&
#521
b00000011111111 $
b00000100000000 %
1&
b00000100001110 *
#522
0&
#523
b00000100000000 $
b00000100000001 %
1&
b00000100001111 *
#524
0&
#525
b00000100000001 $
b00000100000010 %
1&
b00000100010000 *
#526
0&
#527
b00000100000010 $
b00000100000011 %
1&
b00000100010001 *
#528
0&
#529
b00000100000011 $
b00000100000100 %
1&
b00000100010010 *
#530
0&
#531
b00000100000100 $
b00000100000101 %
1&
b00000100010011 *
#532
0&
#533
b00000100000101 $
b00000100000110 %
1&
b00000100010100 *
#534
0&
#535
b00000100000110 $
b00000100000111 %
1&
b00000100010101 *
#536
0&
#537
b00000100000111 $
b00000100001000 %
1&
b00000100010110 *
#538
0&
#539
b00000100001000 $
b00000100001001 %
1&
b00000100010111 *
#540
0&
#541
b00000100001001 $
b00000100001010 %
1&
b00000100011000 *
#542
0&
#543
b00000100001010 $
b00000100001011 %
1&
b00000100011001 *
#544
0&
#545
b00000100001011 $
b00000100001100 %
1&
b00000100011010 *
#546
0&
#547
b00000100001100 $
b00000100001101 %
1&
b00000100011011 *
#548
0&
#549
b00000100001101 $
b00000100001110 %
1&
b00000100011100 *
#550
0&
#551
b00000100001110 $
b00000100001111 %
1&
b00000100011101 *
#552
0&
#553
b00000100001111 $
b00000100010000 %
1&
b00000100011110 *
#554
0&
#555
b00000100010000 $
b00000100010001 %
1&
b00000100011111 *
#556
0&
#557
b00000100010001 $
b00000100010010 %
1&
b00000100100000 *
#558
0&
#559
b00000100010010 $
b00000100010011 %
1&
b00000100100001 *
#560
0&
#561
b00000100010011 $
b00000100010100 %
1&
b00000100100010 *
#562
0&
#563
b00000100010100 $
b00000100010101 %
1&
b00000100100011 *
#564
0&
#565
b00000100010101 $
b00000100010110 %
1&
b00000100100100 *
#566
0&
#567
b00000100010110 $
b00000100010111 %
1&
b00000100100101 *
#568
0&
#569
b00000100010111 $
b00000100011000 %
1&
b00000100100110 *
#570
0&
#571
b00000100011000 $
b00000100011001 %
1&
b00000100100111 *
#572
0&
#573
b00000100011001 $
b00000100011010 %
1&
b00000100101000 *
#574
0&
#575
b00000100011010 $
b00000100011011 %
1&
b00000100101001 *
#576
0&
#577
b00000100011011 $
b00000100011100 %
1&
b00000100101010 *
#578
0&
#579
b00000100011100 $
b00000100011101 %
1&
b00000100101011 *
#580
0&
#581
b00000100011101 $
b00000100011110 %
1&
b00000100101100 *
#582
0&
#583
b00000100011110 $
b00000100011111 %
1&
b00000100101101 *
#584
0&
#585
b00000100011111 $
b00000100100000 %
1&
b00000100101110 *
#586
0&
#587
b00000100100000 $
b00000100100001 %
1&
b00000100101111 *
#588
0&
#589
b00000100100001 $
b00000100100010 %
1&
b00000100110000 *
#590
0&
#591
b00000100100010 $
b00000100100011 %
1&
b00000100110001 *
#592
0&
#593
b00000100100011 $
b00000100100100 %
1&
b00000100110010 *
#594
0&
#595
b00000100100100 $
b00000100100101 %
1&
b00000100110011 *
#596
0&
#597
b00000100100101 $
b00000100100110 %
1&
b00000100110100 *
#598
0&
#599
b00000100100110 $
b00000100100111 %
1&
b00000100110101 *
#600
0&
#601
b00000100100111 $
b00000100101000 %
1&
b00000100110110 *
#602
0&
#603
b00000100101000 $
b00000100101001 %
1&
b00000100110111 *
#604
0&
#605
b00000100101001 $
b00000100101010 %
1&
b00000100111000 *
#606
0&
#607
b00000100101010 $
b00000100101011 %
1&
b00000100111001 *
#608
0&
#609
b00000100101011 $
b00000100101100 %
1&
b00000100111010 *
#610
0&
#611
b00000100101100 $
b00000100101101 %
1&
b00000100111011 *
#612
0&
#613
b00000100101101 $
b00000100101110 %
1&
b00000100111100 *
#614
0&
#615
b00000100101110 $
b00000100101111 %
1&
b00000100111101 *
#616
0&
#617
b00000100101111 $
b00000100110000 %
1&
b00000100111110 *
#618
0&
#619
b00000100110000 $
b00000100110001 %
1&
b00000100111111 *
#620
0&
#621
b00000100110001 $
b00000100110010 %
1&
b00000101000000 *
#622
0&
#623
b00000100110010 $
b00000100110011 %
1&
b00000101000001 *
#624
0&
#625
b00000100110011 $
b00000100110100 %
1&
b00000101000010 *
#626
0&
#627
b00000100110100 $
b00000100110101 %
1&
b00000101000011 *
#628
0&
#629
b00000100110101 $
b00000100110110 %
1&
b00000101000100 *
#630
0&
#631
b00000100110110 $
b00000100110111 %
1&
b00000101000101 *
#632
0&
#633
b00000100110111 $
b00000100111000 %
1&
b00000101000110 *
#634
0&
#635
b00000100111000 $
b00000100111001 %
1&
b00000101000111 *
#636
0&
#637
b00000100111001 $
b00000100111010 %
1&
b00000101001000 *
#638
0&
#639
b00000100111010 $
b00000100111011 %
1&
b00000101001001 *
#640
0&
#641
b00000100111011 $
b00000100111100 %
1&
b00000101001010 *
#642
0&
#643
b00000100111100 $
b00000100111101 %
1&
b00000101001011 *
#644
0&
#645
b00000100111101 $
b00000100111110 %
1&
b00000101001100 *
#646
0&
#647
b00000100111110 $
b00000100111111 %
1&
b00000101001101 *
#648
0&
#649
b00000100111111 $
b00000101000000 %
1&
b00000101001110 *
#650
0&
#651
b00000101000000 $
b00000101000001 %
1&
b00000101001111 *
#652
0&
#653
b00000101000001 $
b00000101000010 %
1&
b00000101010000 *
#654
0&
#655
b00000101000010 $
b00000101000011 %
1&
b00000101010001 *
#656
0&
#657
b00000101000011 $
b00000101000100 %
1&
b00000101010010 *
#658
0&
#659
b00000101000100 $
b00000101000101 %
1&
b00000101010011 *
#660
0&
#661
b00000101000101 $
b00000101000110 %
1&
b00000101010100 *
#662
0&
#663
b00000101000110 $
b00000101000111 %
1&
b00000101010101 *
#664
0&
#665
b00000101000111 $
b00000101001000 %
1&
b00000101010110 *
#666
0&
#667
b00000101001000 $
b00000101001001 %
1&
b00000101010111 *
#668
0&
#669
b00000101001001 $
b00000101001010 %
1&
b00000101011000 *
#670
0&
#671
b00000101001010 $
b00000101001011 %
1&
b00000101011001 *
#672
0&
#673
b00000101001011 $
b00000101001100 %
1&
b00000101011010 *
#674
0&
#675
b00000101001100 $
b00000101001101 %
1&
b00000101011011 *
#676
0&
#677
b00000101001101 $
b00000101001110 %
1&
b00000101011100 *
#678
0&
#679
b00000101001110 $
b00000101001111 %
1&
b00000101011101 *
#680
0&
#681
b00000101001111 $
b00000101010000 %
1&
b00000101011110 *
#682
0&
#683
b00000101010000 $
b00000101010001 %
1&
b00000101011111 *
#684
0&
#685
b00000101010001 $
b00000101010010 %
1&
b00000101100000 *
#686
0&
#687
b00000101010010 $
b00000101010011 %
1&
b00000101100001 *
#688
0&
#689
b00000101010011 $
b00000101010100 %
1&
b00000101100010 *
#690
0&
#691
b00000101010100 $
b00000101010101 %
1&
b00000101100011 *
#692
0&
#693
b00000101010101 $
b00000101010110 %
1&
b00000101100100 *
#694
0&
#695
b00000101010110 $
b00000101010111 %
1&
b00000101100101 *
#696
0&
#697
b00000101010111 $
b00000101011000 %
1&
b00000101100110 *
#698
0&
#699
b00000101011000 $
b00000101011001 %
1&
b00000101100111 *
#700
0&
#701
b00000101011001 $
b00000101011010 %
1&
b00000101101000 *
#702
0&
#703
b00000101011010 $
b00000101011011 %
1&
b00000101101001 *
#704
0&
#705
b00000101011011 $
b00000101011100 %
1&
b00000101101010 *
#706
0&
#707
b00000101011100 $
b00000101011101 %
1&
b00000101101011 *
#708
0&
#709
b00000101011101 $
b00000101011110 %
1&
b00000101101100 *
#710
0&
#711
b00000101011110 $
b00000101011111 %
1&
b00000101101101 *
#712
0&
#713
b00000101011111 $
b00000101100000 %
1&
b00000101101110 *
#714
0&
#715
b00000101100000 $
b00000101100001 %
1&
b00000101101111 *
#716
0&
#717
b00000101100001 $
b00000101100010 %
1&
b00000101110000 *
#718
0&
#719
b00000101100010 $
b00000101100011 %
1&
b00000101110001 *
#720
0&
#721
b00000101100011 $
b00000101100100 %
1&
b00000101110010 *
#722
0&
#723
b00000101100100 $
b00000101100101 %
1&
b00000101110011 *
#724
0&
#725
b00000101100101 $
b00000101100110 %
1&
b00000101110100 *
#726
0&
#727
b00000101100110 $
b00000101100111 %
1&
b00000101110101 *
#728
0&
#729
b00000101100111 $
b00000101101000 %
1&
b00000101110110 *
#730
0&
#731
b00000101101000 $
b00000101101001 %
1&
b00000101110111 *
#732
0&
#733
b00000101101001 $
b00000101101010 %
1&
b00000101111000 *
#734
0&
#735
b00000101101010 $
b00000101101011 %
1&
b00000101111001 *
#736
0&
#737
b00000101101011 $
b00000101101100 %
1&
b00000101111010 *
#738
0&
#739
b00000101101100 $
b00000101101101 %
1&
b00000101111011 *
#740
0&
#741
b00000101101101 $
b00000101101110 %
1&
b00000101111100 *
#742
0&
#743
b00000101101110 $
b00000101101111 %
1&
b00000101111101 *
#744
0&
#745
b00000101101111 $
b00000101110000 %
1&
b00000101111110 *
#746
0&
#747
b00000101110000 $
b00000101110001 %
1&
b00000101111111 *
#748
0&
#749
b00000101110001 $
b00000101110010 %
1&
b00000110000000 *
#750
0&
