testsuite/verilator_sim/circ_buf/dpram/Vsonic_dpram_async_2_64.vcd
$version Generated by VerilatedVcd $end
$date Fri Nov 18 16:06:29 2011
 $end
$timescale 1ns $end

 $scope module TOP $end
  $var wire  2 , data [1:0] $end
  $var wire  1 - inclock $end
  $var wire  1 . outclock $end
  $var wire 64 2 q [63:0] $end
  $var wire 10 / rdaddress [9:0] $end
  $var wire 15 0 wraddress [14:0] $end
  $var wire  1 1 wren $end
  $scope module v $end
   $var wire  2 , data [1:0] $end
   $var wire  1 - inclock $end
   $var wire  1 . outclock $end
   $var wire 64 2 q [63:0] $end
   $var wire 10 / rdaddress [9:0] $end
   $var wire 64 # sub_wire0 [63:0] $end
   $var wire 15 0 wraddress [14:0] $end
   $var wire  1 1 wren $end
   $scope module altsyncram_component $end
    $var wire 15 0 address_a [14:0] $end
    $var wire 10 / address_b [9:0] $end
    $var wire  1 - clock0 $end
    $var wire  1 . clock1 $end
    $var wire  1 4 cs_a $end
    $var wire  1 4 cs_b $end
    $var wire  2 , data_a [1:0] $end
    $var wire  2 6 data_a_out [1:0] $end
    $var wire 64 % data_b_out [63:0] $end
    $var wire 32 + i5 [31:0] $end
    $var wire  1 4 oe_a $end
    $var wire  1 4 oe_b $end
    $var wire 32 * port_a_bit_count_low [31:0] $end
    $var wire 64 % q_b [63:0] $end
    $var wire  2 ' temp_wa [1:0] $end
    $var wire 64 ( temp_wb [63:0] $end
    $var wire  1 1 wren_a $end
    $var wire  1 5 wren_b $end
   $upscope $end
  $upscope $end
 $upscope $end
$enddefinitions $end


#0
b0000000000000000000000000000000000000000000000000000000000000000 #
b0000000000000000000000000000000000000000000000000000000000000000 %
b00 '
b0000000000000000000000000000000000000000000000000000000000000000 (
b00000000000000000000000000000000 *
b00000000000000000000000000000000 +
b0000000000000000000000000000000000000000000000000000000000000000 2
b000000000000000 0
11
b0000000000 /
0-
0.
b11 ,
05
14
b00 6
#1
b11 '
b0000000000000000000000000000000000000000000000000000000000000011 (
b00000000000000000000000000000010 *
b00000000000000000000000000000010 +
1-
1.
#2
b000000000000001 0
0-
0.
b00 ,
#3
b0000000000000000000000000000000000000000000000000000000000000011 #
b0000000000000000000000000000000000000000000000000000000000000011 %
b00 '
b00000000000000000000000000000100 *
b0000000000000000000000000000000000000000000000000000000000000011 2
1-
1.
#4
b000000000000010 0
0-
0.
#5
b00000000000000000000000000000110 *
1-
1.
#6
b000000000000011 0
0-
0.
b01 ,
#7
b01 '
b0000000000000000000000000000000000000000000000000000000001000011 (
b00000000000000000000000000001000 *
1-
1.
#8
b000000000000100 0
0-
0.
b10 ,
#9
b0000000000000000000000000000000000000000000000000000000001000011 #
b0000000000000000000000000000000000000000000000000000000001000011 %
b10 '
b0000000000000000000000000000000000000000000000000000001001000011 (
b00000000000000000000000000001010 *
b0000000000000000000000000000000000000000000000000000000001000011 2
1-
1.
#10
b000000000000101 0
0-
0.
b11 ,
#11
b0000000000000000000000000000000000000000000000000000001001000011 #
b0000000000000000000000000000000000000000000000000000001001000011 %
b11 '
b0000000000000000000000000000000000000000000000000000111001000011 (
b00000000000000000000000000001100 *
b0000000000000000000000000000000000000000000000000000001001000011 2
1-
1.
#12
b000000000000110 0
0-
0.
b00 ,
#13
b0000000000000000000000000000000000000000000000000000111001000011 #
b0000000000000000000000000000000000000000000000000000111001000011 %
b00 '
b00000000000000000000000000001110 *
b0000000000000000000000000000000000000000000000000000111001000011 2
1-
1.
#14
b000000000000111 0
0-
0.
b11 ,
#15
b11 '
b0000000000000000000000000000000000000000000000001100111001000011 (
b00000000000000000000000000010000 *
1-
1.
#16
b000000000001000 0
0-
0.
b10 ,
#17
b0000000000000000000000000000000000000000000000001100111001000011 #
b0000000000000000000000000000000000000000000000001100111001000011 %
b10 '
b0000000000000000000000000000000000000000000000101100111001000011 (
b00000000000000000000000000010010 *
b0000000000000000000000000000000000000000000000001100111001000011 2
1-
1.
#18
b000000000001001 0
0-
0.
#19
b0000000000000000000000000000000000000000000000101100111001000011 #
b0000000000000000000000000000000000000000000000101100111001000011 %
b0000000000000000000000000000000000000000000010101100111001000011 (
b00000000000000000000000000010100 *
b0000000000000000000000000000000000000000000000101100111001000011 2
1-
1.
#20
b000000000001010 0
0-
0.
b00 ,
#21
b0000000000000000000000000000000000000000000010101100111001000011 #
b0000000000000000000000000000000000000000000010101100111001000011 %
b00 '
b00000000000000000000000000010110 *
b0000000000000000000000000000000000000000000010101100111001000011 2
1-
1.
#22
b000000000001011 0
0-
0.
b11 ,
#23
b11 '
b0000000000000000000000000000000000000000110010101100111001000011 (
b00000000000000000000000000011000 *
1-
1.
#24
b000000000001100 0
0-
0.
b10 ,
#25
b0000000000000000000000000000000000000000110010101100111001000011 #
b0000000000000000000000000000000000000000110010101100111001000011 %
b10 '
b0000000000000000000000000000000000000010110010101100111001000011 (
b00000000000000000000000000011010 *
b0000000000000000000000000000000000000000110010101100111001000011 2
1-
1.
#26
b000000000001101 0
0-
0.
#27
b0000000000000000000000000000000000000010110010101100111001000011 #
b0000000000000000000000000000000000000010110010101100111001000011 %
b0000000000000000000000000000000000001010110010101100111001000011 (
b00000000000000000000000000011100 *
b0000000000000000000000000000000000000010110010101100111001000011 2
1-
1.
#28
b000000000001110 0
0-
0.
b11 ,
#29
b0000000000000000000000000000000000001010110010101100111001000011 #
b0000000000000000000000000000000000001010110010101100111001000011 %
b11 '
b0000000000000000000000000000000000111010110010101100111001000011 (
b00000000000000000000000000011110 *
b0000000000000000000000000000000000001010110010101100111001000011 2
1-
1.
#30
b000000000001111 0
0-
0.
b00 ,
#31
b0000000000000000000000000000000000111010110010101100111001000011 #
b0000000000000000000000000000000000111010110010101100111001000011 %
b00 '
b00000000000000000000000000100000 *
b0000000000000000000000000000000000111010110010101100111001000011 2
1-
1.
#32
b000000000010000 0
0-
0.
b11 ,
#33
b11 '
b0000000000000000000000000000001100111010110010101100111001000011 (
b00000000000000000000000000100010 *
1-
1.
#34
b000000000010001 0
0-
0.
b10 ,
#35
b0000000000000000000000000000001100111010110010101100111001000011 #
b0000000000000000000000000000001100111010110010101100111001000011 %
b10 '
b0000000000000000000000000000101100111010110010101100111001000011 (
b00000000000000000000000000100100 *
b0000000000000000000000000000001100111010110010101100111001000011 2
1-
1.
#36
b000000000010010 0
0-
0.
#37
b0000000000000000000000000000101100111010110010101100111001000011 #
b0000000000000000000000000000101100111010110010101100111001000011 %
b0000000000000000000000000010101100111010110010101100111001000011 (
b00000000000000000000000000100110 *
b0000000000000000000000000000101100111010110010101100111001000011 2
1-
1.
#38
b000000000010011 0
0-
0.
b11 ,
#39
b0000000000000000000000000010101100111010110010101100111001000011 #
b0000000000000000000000000010101100111010110010101100111001000011 %
b11 '
b0000000000000000000000001110101100111010110010101100111001000011 (
b00000000000000000000000000101000 *
b0000000000000000000000000010101100111010110010101100111001000011 2
1-
1.
#40
b000000000010100 0
0-
0.
#41
b0000000000000000000000001110101100111010110010101100111001000011 #
b0000000000000000000000001110101100111010110010101100111001000011 %
b0000000000000000000000111110101100111010110010101100111001000011 (
b00000000000000000000000000101010 *
b0000000000000000000000001110101100111010110010101100111001000011 2
1-
1.
#42
b000000000010101 0
0-
0.
#43
b0000000000000000000000111110101100111010110010101100111001000011 #
b0000000000000000000000111110101100111010110010101100111001000011 %
b0000000000000000000011111110101100111010110010101100111001000011 (
b00000000000000000000000000101100 *
b0000000000000000000000111110101100111010110010101100111001000011 2
1-
1.
#44
b000000000010110 0
0-
0.
b00 ,
#45
b0000000000000000000011111110101100111010110010101100111001000011 #
b0000000000000000000011111110101100111010110010101100111001000011 %
b00 '
b00000000000000000000000000101110 *
b0000000000000000000011111110101100111010110010101100111001000011 2
1-
1.
#46
b000000000010111 0
0-
0.
b10 ,
#47
b10 '
b0000000000000000100011111110101100111010110010101100111001000011 (
b00000000000000000000000000110000 *
1-
1.
#48
b000000000011000 0
0-
0.
b11 ,
#49
b0000000000000000100011111110101100111010110010101100111001000011 #
b0000000000000000100011111110101100111010110010101100111001000011 %
b11 '
b0000000000000011100011111110101100111010110010101100111001000011 (
b00000000000000000000000000110010 *
b0000000000000000100011111110101100111010110010101100111001000011 2
1-
1.
#50
b000000000011001 0
0-
0.
b10 ,
#51
b0000000000000011100011111110101100111010110010101100111001000011 #
b0000000000000011100011111110101100111010110010101100111001000011 %
b10 '
b0000000000001011100011111110101100111010110010101100111001000011 (
b00000000000000000000000000110100 *
b0000000000000011100011111110101100111010110010101100111001000011 2
1-
1.
#52
b000000000011010 0
0-
0.
b00 ,
#53
b0000000000001011100011111110101100111010110010101100111001000011 #
b0000000000001011100011111110101100111010110010101100111001000011 %
b00 '
b00000000000000000000000000110110 *
b0000000000001011100011111110101100111010110010101100111001000011 2
1-
1.
#54
b000000000011011 0
0-
0.
b10 ,
#55
b10 '
b0000000010001011100011111110101100111010110010101100111001000011 (
b00000000000000000000000000111000 *
1-
1.
#56
b000000000011100 0
0-
0.
b00 ,
#57
b0000000010001011100011111110101100111010110010101100111001000011 #
b0000000010001011100011111110101100111010110010101100111001000011 %
b00 '
b00000000000000000000000000111010 *
b0000000010001011100011111110101100111010110010101100111001000011 2
1-
1.
#58
b000000000011101 0
0-
0.
#59
b00000000000000000000000000111100 *
1-
1.
#60
b000000000011110 0
0-
0.
b01 ,
#61
b01 '
b0001000010001011100011111110101100111010110010101100111001000011 (
b00000000000000000000000000111110 *
1-
1.
#62
b000000000011111 0
0-
0.
#63
b0001000010001011100011111110101100111010110010101100111001000011 #
b0001000010001011100011111110101100111010110010101100111001000011 %
b0101000010001011100011111110101100111010110010101100111001000011 (
b00000000000000000000000001000000 *
b0001000010001011100011111110101100111010110010101100111001000011 2
1-
1.
#64
b000000000100000 0
0-
0.
b10 ,
#65
b0101000010001011100011111110101100111010110010101100111001000011 #
b0101000010001011100011111110101100111010110010101100111001000011 %
b10 '
b0000000000000000000000000000000000000000000000000000000000000010 (
b00000000000000000000000001000010 *
b0101000010001011100011111110101100111010110010101100111001000011 2
1-
1.
#66
b000000000100001 0
0-
0.
b01 ,
#67
b01 '
b0000000000000000000000000000000000000000000000000000000000000110 (
b00000000000000000000000001000100 *
1-
1.
#68
b000000000100010 0
0-
0.
b11 ,
#69
b11 '
b0000000000000000000000000000000000000000000000000000000000110110 (
b00000000000000000000000001000110 *
1-
1.
#70
b000000000100011 0
0-
0.
b00 ,
#71
b00 '
b00000000000000000000000001001000 *
1-
1.
#72
b000000000100100 0
0-
0.
b01 ,
#73
b01 '
b0000000000000000000000000000000000000000000000000000000100110110 (
b00000000000000000000000001001010 *
1-
1.
#74
b000000000100101 0
0-
0.
#75
b0000000000000000000000000000000000000000000000000000010100110110 (
b00000000000000000000000001001100 *
1-
1.
#76
b000000000100110 0
0-
0.
#77
b0000000000000000000000000000000000000000000000000001010100110110 (
b00000000000000000000000001001110 *
1-
1.
#78
b000000000100111 0
0-
0.
#79
b0000000000000000000000000000000000000000000000000101010100110110 (
b00000000000000000000000001010000 *
1-
1.
#80
b000000000101000 0
0-
0.
b11 ,
#81
b11 '
b0000000000000000000000000000000000000000000000110101010100110110 (
b00000000000000000000000001010010 *
1-
1.
#82
b000000000101001 0
0-
0.
b00 ,
#83
b00 '
b00000000000000000000000001010100 *
1-
1.
#84
b000000000101010 0
0-
0.
b01 ,
#85
b01 '
b0000000000000000000000000000000000000000000100110101010100110110 (
b00000000000000000000000001010110 *
1-
1.
#86
b000000000101011 0
0-
0.
b10 ,
#87
b10 '
b0000000000000000000000000000000000000000100100110101010100110110 (
b00000000000000000000000001011000 *
1-
1.
#88
b000000000101100 0
0-
0.
b11 ,
#89
b11 '
b0000000000000000000000000000000000000011100100110101010100110110 (
b00000000000000000000000001011010 *
1-
1.
#90
b000000000101101 0
0-
0.
#91
b0000000000000000000000000000000000001111100100110101010100110110 (
b00000000000000000000000001011100 *
1-
1.
#92
b000000000101110 0
0-
0.
b10 ,
#93
b10 '
b0000000000000000000000000000000000101111100100110101010100110110 (
b00000000000000000000000001011110 *
1-
1.
#94
b000000000101111 0
0-
0.
b00 ,
#95
b00 '
b00000000000000000000000001100000 *
1-
1.
#96
b000000000110000 0
0-
0.
b01 ,
#97
b01 '
b0000000000000000000000000000000100101111100100110101010100110110 (
b00000000000000000000000001100010 *
1-
1.
#98
b000000000110001 0
0-
0.
b11 ,
#99
b11 '
b0000000000000000000000000000110100101111100100110101010100110110 (
b00000000000000000000000001100100 *
1-
1.
#100
b000000000110010 0
0-
0.
b01 ,
#101
b01 '
b0000000000000000000000000001110100101111100100110101010100110110 (
b00000000000000000000000001100110 *
1-
1.
#102
b000000000110011 0
0-
0.
b10 ,
#103
b10 '
b0000000000000000000000001001110100101111100100110101010100110110 (
b00000000000000000000000001101000 *
1-
1.
#104
b000000000110100 0
0-
0.
b00 ,
#105
b00 '
b00000000000000000000000001101010 *
1-
1.
#106
b000000000110101 0
0-
0.
b11 ,
#107
b11 '
b0000000000000000000011001001110100101111100100110101010100110110 (
b00000000000000000000000001101100 *
1-
1.
#108
b000000000110110 0
0-
0.
b00 ,
#109
b00 '
b00000000000000000000000001101110 *
1-
1.
#110
b000000000110111 0
0-
0.
b10 ,
#111
b10 '
b0000000000000000100011001001110100101111100100110101010100110110 (
b00000000000000000000000001110000 *
1-
1.
#112
b000000000111000 0
0-
0.
b11 ,
#113
b11 '
b0000000000000011100011001001110100101111100100110101010100110110 (
b00000000000000000000000001110010 *
1-
1.
#114
b000000000111001 0
0-
0.
b00 ,
#115
b00 '
b00000000000000000000000001110100 *
1-
1.
#116
b000000000111010 0
0-
0.
b11 ,
#117
b11 '
b0000000000110011100011001001110100101111100100110101010100110110 (
b00000000000000000000000001110110 *
1-
1.
#118
b000000000111011 0
0-
0.
b01 ,
#119
b01 '
b0000000001110011100011001001110100101111100100110101010100110110 (
b00000000000000000000000001111000 *
1-
1.
#120
b000000000111100 0
0-
0.
b00 ,
#121
b00 '
b00000000000000000000000001111010 *
1-
1.
#122
b000000000111101 0
0-
0.
b10 ,
#123
b10 '
b0000100001110011100011001001110100101111100100110101010100110110 (
b00000000000000000000000001111100 *
1-
1.
#124
b000000000111110 0
0-
0.
b11 ,
#125
b11 '
b0011100001110011100011001001110100101111100100110101010100110110 (
b00000000000000000000000001111110 *
1-
1.
#126
b000000000111111 0
0-
0.
b01 ,
#127
b01 '
b0111100001110011100011001001110100101111100100110101010100110110 (
b00000000000000000000000010000000 *
1-
1.
#128
b000000001000000 0
b0000000001 /
0-
0.
#129
b0111100001110011100011001001110100101111100100110101010100110110 #
b0111100001110011100011001001110100101111100100110101010100110110 %
b0000000000000000000000000000000000000000000000000000000000000001 (
b00000000000000000000000010000010 *
b0111100001110011100011001001110100101111100100110101010100110110 2
1-
1.
#130
b000000001000001 0
0-
0.
b10 ,
#131
b10 '
b0000000000000000000000000000000000000000000000000000000000001001 (
b00000000000000000000000010000100 *
1-
1.
#132
b000000001000010 0
0-
0.
b01 ,
#133
b01 '
b0000000000000000000000000000000000000000000000000000000000011001 (
b00000000000000000000000010000110 *
1-
1.
#134
b000000001000011 0
0-
0.
#135
b0000000000000000000000000000000000000000000000000000000001011001 (
b00000000000000000000000010001000 *
1-
1.
#136
b000000001000100 0
0-
0.
b11 ,
#137
b11 '
b0000000000000000000000000000000000000000000000000000001101011001 (
b00000000000000000000000010001010 *
1-
1.
#138
b000000001000101 0
0-
0.
b01 ,
#139
b01 '
b0000000000000000000000000000000000000000000000000000011101011001 (
b00000000000000000000000010001100 *
1-
1.
#140
b000000001000110 0
0-
0.
b00 ,
#141
b00 '
b00000000000000000000000010001110 *
1-
1.
#142
b000000001000111 0
0-
0.
#143
b00000000000000000000000010010000 *
1-
1.
#144
b000000001001000 0
0-
0.
#145
b00000000000000000000000010010010 *
1-
1.
#146
b000000001001001 0
0-
0.
b11 ,
#147
b11 '
b0000000000000000000000000000000000000000000011000000011101011001 (
b00000000000000000000000010010100 *
1-
1.
#148
b000000001001010 0
0-
0.
b00 ,
#149
b00 '
b00000000000000000000000010010110 *
1-
1.
#150
b000000001001011 0
0-
0.
b01 ,
#151
b01 '
b0000000000000000000000000000000000000000010011000000011101011001 (
b00000000000000000000000010011000 *
1-
1.
#152
b000000001001100 0
0-
0.
b10 ,
#153
b10 '
b0000000000000000000000000000000000000010010011000000011101011001 (
b00000000000000000000000010011010 *
1-
1.
#154
b000000001001101 0
0-
0.
#155
b0000000000000000000000000000000000001010010011000000011101011001 (
b00000000000000000000000010011100 *
1-
1.
#156
b000000001001110 0
0-
0.
b11 ,
#157
b11 '
b0000000000000000000000000000000000111010010011000000011101011001 (
b00000000000000000000000010011110 *
1-
1.
#158
b000000001001111 0
0-
0.
#159
b0000000000000000000000000000000011111010010011000000011101011001 (
b00000000000000000000000010100000 *
1-
1.
#160
b000000001010000 0
0-
0.
b01 ,
#161
b01 '
b0000000000000000000000000000000111111010010011000000011101011001 (
b00000000000000000000000010100010 *
1-
1.
#162
b000000001010001 0
0-
0.
#163
b0000000000000000000000000000010111111010010011000000011101011001 (
b00000000000000000000000010100100 *
1-
1.
#164
b000000001010010 0
0-
0.
b10 ,
#165
b10 '
b0000000000000000000000000010010111111010010011000000011101011001 (
b00000000000000000000000010100110 *
1-
1.
#166
b000000001010011 0
0-
0.
#167
b0000000000000000000000001010010111111010010011000000011101011001 (
b00000000000000000000000010101000 *
1-
1.
#168
b000000001010100 0
0-
0.
#169
b0000000000000000000000101010010111111010010011000000011101011001 (
b00000000000000000000000010101010 *
1-
1.
#170
b000000001010101 0
0-
0.
b00 ,
#171
b00 '
b00000000000000000000000010101100 *
1-
1.
#172
b000000001010110 0
0-
0.
b11 ,
#173
b11 '
b0000000000000000001100101010010111111010010011000000011101011001 (
b00000000000000000000000010101110 *
1-
1.
#174
b000000001010111 0
0-
0.
#175
b0000000000000000111100101010010111111010010011000000011101011001 (
b00000000000000000000000010110000 *
1-
1.
#176
b000000001011000 0
0-
0.
b01 ,
#177
b01 '
b0000000000000001111100101010010111111010010011000000011101011001 (
b00000000000000000000000010110010 *
1-
1.
#178
b000000001011001 0
0-
0.
b11 ,
#179
b11 '
b0000000000001101111100101010010111111010010011000000011101011001 (
b00000000000000000000000010110100 *
1-
1.
#180
b000000001011010 0
0-
0.
b00 ,
#181
b00 '
b00000000000000000000000010110110 *
1-
1.
#182
b000000001011011 0
0-
0.
b10 ,
#183
b10 '
b0000000010001101111100101010010111111010010011000000011101011001 (
b00000000000000000000000010111000 *
1-
1.
#184
b000000001011100 0
0-
0.
b11 ,
#185
b11 '
b0000001110001101111100101010010111111010010011000000011101011001 (
b00000000000000000000000010111010 *
1-
1.
#186
b000000001011101 0
0-
0.
b00 ,
#187
b00 '
b00000000000000000000000010111100 *
1-
1.
#188
b000000001011110 0
0-
0.
b01 ,
#189
b01 '
b0001001110001101111100101010010111111010010011000000011101011001 (
b00000000000000000000000010111110 *
1-
1.
#190
b000000001011111 0
0-
0.
b11 ,
#191
b11 '
b1101001110001101111100101010010111111010010011000000011101011001 (
b00000000000000000000000011000000 *
1-
1.
#192
b000000001100000 0
0-
0.
#193
b0000000000000000000000000000000000000000000000000000000000000011 (
b00000000000000000000000011000010 *
1-
1.
#194
b000000001100001 0
0-
0.
#195
b0000000000000000000000000000000000000000000000000000000000001111 (
b00000000000000000000000011000100 *
1-
1.
#196
b000000001100010 0
0-
0.
#197
b0000000000000000000000000000000000000000000000000000000000111111 (
b00000000000000000000000011000110 *
1-
1.
#198
b000000001100011 0
0-
0.
b00 ,
#199
b00 '
b00000000000000000000000011001000 *
1-
1.
#200
b000000001100100 0
0-
0.
#201
b00000000000000000000000011001010 *
1-
1.
#202
b000000001100101 0
0-
0.
b11 ,
#203
b11 '
b0000000000000000000000000000000000000000000000000000110000111111 (
b00000000000000000000000011001100 *
1-
1.
#204
b000000001100110 0
0-
0.
b00 ,
#205
b00 '
b00000000000000000000000011001110 *
1-
1.
#206
b000000001100111 0
0-
0.
#207
b00000000000000000000000011010000 *
1-
1.
#208
b000000001101000 0
0-
0.
b01 ,
#209
b01 '
b0000000000000000000000000000000000000000000000010000110000111111 (
b00000000000000000000000011010010 *
1-
1.
#210
b000000001101001 0
0-
0.
b10 ,
#211
b10 '
b0000000000000000000000000000000000000000000010010000110000111111 (
b00000000000000000000000011010100 *
1-
1.
#212
b000000001101010 0
0-
0.
#213
b0000000000000000000000000000000000000000001010010000110000111111 (
b00000000000000000000000011010110 *
1-
1.
#214
b000000001101011 0
0-
0.
b11 ,
#215
b11 '
b0000000000000000000000000000000000000000111010010000110000111111 (
b00000000000000000000000011011000 *
1-
1.
#216
b000000001101100 0
0-
0.
#217
b0000000000000000000000000000000000000011111010010000110000111111 (
b00000000000000000000000011011010 *
1-
1.
#218
b000000001101101 0
0-
0.
b01 ,
#219
b01 '
b0000000000000000000000000000000000000111111010010000110000111111 (
b00000000000000000000000011011100 *
1-
1.
#220
b000000001101110 0
0-
0.
b11 ,
#221
b11 '
b0000000000000000000000000000000000110111111010010000110000111111 (
b00000000000000000000000011011110 *
1-
1.
#222
b000000001101111 0
0-
0.
b01 ,
#223
b01 '
b0000000000000000000000000000000001110111111010010000110000111111 (
b00000000000000000000000011100000 *
1-
1.
#224
b000000001110000 0
0-
0.
b00 ,
#225
b00 '
b00000000000000000000000011100010 *
1-
1.
#226
b000000001110001 0
0-
0.
b01 ,
#227
b01 '
b0000000000000000000000000000010001110111111010010000110000111111 (
b00000000000000000000000011100100 *
1-
1.
#228
b000000001110010 0
0-
0.
b00 ,
#229
b00 '
b00000000000000000000000011100110 *
1-
1.
#230
b000000001110011 0
0-
0.
b01 ,
#231
b01 '
b0000000000000000000000000100010001110111111010010000110000111111 (
b00000000000000000000000011101000 *
1-
1.
#232
b000000001110100 0
0-
0.
b11 ,
#233
b11 '
b0000000000000000000000110100010001110111111010010000110000111111 (
b00000000000000000000000011101010 *
1-
1.
#234
b000000001110101 0
0-
0.
#235
b0000000000000000000011110100010001110111111010010000110000111111 (
b00000000000000000000000011101100 *
1-
1.
#236
b000000001110110 0
0-
0.
b01 ,
#237
b01 '
b0000000000000000000111110100010001110111111010010000110000111111 (
b00000000000000000000000011101110 *
1-
1.
#238
b000000001110111 0
0-
0.
b00 ,
#239
b00 '
b00000000000000000000000011110000 *
1-
1.
#240
b000000001111000 0
0-
0.
b11 ,
#241
b11 '
b0000000000000011000111110100010001110111111010010000110000111111 (
b00000000000000000000000011110010 *
1-
1.
#242
b000000001111001 0
0-
0.
b10 ,
#243
b10 '
b0000000000001011000111110100010001110111111010010000110000111111 (
b00000000000000000000000011110100 *
1-
1.
#244
b000000001111010 0
0-
0.
#245
b0000000000101011000111110100010001110111111010010000110000111111 (
b00000000000000000000000011110110 *
1-
1.
#246
b000000001111011 0
0-
0.
#247
b0000000010101011000111110100010001110111111010010000110000111111 (
b00000000000000000000000011111000 *
1-
1.
#248
b000000001111100 0
0-
0.
b00 ,
#249
b00 '
b00000000000000000000000011111010 *
1-
1.
#250
b000000001111101 0
0-
0.
b01 ,
#251
b01 '
b0000010010101011000111110100010001110111111010010000110000111111 (
b00000000000000000000000011111100 *
1-
1.
#252
b000000001111110 0
0-
0.
b10 ,
#253
b10 '
b0010010010101011000111110100010001110111111010010000110000111111 (
b00000000000000000000000011111110 *
1-
1.
#254
b000000001111111 0
0-
0.
b11 ,
#255
b11 '
b1110010010101011000111110100010001110111111010010000110000111111 (
b00000000000000000000000100000000 *
1-
1.
#256
b000000010000000 0
b0000000010 /
0-
0.
b10 ,
#257
b1101001110001101111100101010010111111010010011000000011101011001 #
b1101001110001101111100101010010111111010010011000000011101011001 %
b10 '
b0000000000000000000000000000000000000000000000000000000000000010 (
b00000000000000000000000100000010 *
b1101001110001101111100101010010111111010010011000000011101011001 2
1-
1.
#258
b000000010000001 0
0-
0.
b01 ,
#259
b01 '
b0000000000000000000000000000000000000000000000000000000000000110 (
b00000000000000000000000100000100 *
1-
1.
#260
b000000010000010 0
0-
0.
#261
b0000000000000000000000000000000000000000000000000000000000010110 (
b00000000000000000000000100000110 *
1-
1.
#262
b000000010000011 0
0-
0.
b11 ,
#263
b11 '
b0000000000000000000000000000000000000000000000000000000011010110 (
b00000000000000000000000100001000 *
1-
1.
#264
b000000010000100 0
0-
0.
b01 ,
#265
b01 '
b0000000000000000000000000000000000000000000000000000000111010110 (
b00000000000000000000000100001010 *
1-
1.
#266
b000000010000101 0
0-
0.
b10 ,
#267
b10 '
b0000000000000000000000000000000000000000000000000000100111010110 (
b00000000000000000000000100001100 *
1-
1.
#268
b000000010000110 0
0-
0.
#269
b0000000000000000000000000000000000000000000000000010100111010110 (
b00000000000000000000000100001110 *
1-
1.
#270
b000000010000111 0
0-
0.
#271
b0000000000000000000000000000000000000000000000001010100111010110 (
b00000000000000000000000100010000 *
1-
1.
#272
b000000010001000 0
0-
0.
b00 ,
#273
b00 '
b00000000000000000000000100010010 *
1-
1.
#274
b000000010001001 0
0-
0.
b10 ,
#275
b10 '
b0000000000000000000000000000000000000000000010001010100111010110 (
b00000000000000000000000100010100 *
1-
1.
#276
b000000010001010 0
0-
0.
b01 ,
#277
b01 '
b0000000000000000000000000000000000000000000110001010100111010110 (
b00000000000000000000000100010110 *
1-
1.
#278
b000000010001011 0
0-
0.
b00 ,
#279
b00 '
b00000000000000000000000100011000 *
1-
1.
#280
b000000010001100 0
0-
0.
b11 ,
#281
b11 '
b0000000000000000000000000000000000000011000110001010100111010110 (
b00000000000000000000000100011010 *
1-
1.
#282
b000000010001101 0
0-
0.
#283
b0000000000000000000000000000000000001111000110001010100111010110 (
b00000000000000000000000100011100 *
1-
1.
#284
b000000010001110 0
0-
0.
b01 ,
#285
b01 '
b0000000000000000000000000000000000011111000110001010100111010110 (
b00000000000000000000000100011110 *
1-
1.
#286
b000000010001111 0
0-
0.
b00 ,
#287
b00 '
b00000000000000000000000100100000 *
1-
1.
#288
b000000010010000 0
0-
0.
#289
b00000000000000000000000100100010 *
1-
1.
#290
b000000010010001 0
0-
0.
#291
b00000000000000000000000100100100 *
1-
1.
#292
b000000010010010 0
0-
0.
b10 ,
#293
b10 '
b0000000000000000000000000010000000011111000110001010100111010110 (
b00000000000000000000000100100110 *
1-
1.
#294
b000000010010011 0
0-
0.
b01 ,
#295
b01 '
b0000000000000000000000000110000000011111000110001010100111010110 (
b00000000000000000000000100101000 *
1-
1.
#296
b000000010010100 0
0-
0.
b00 ,
#297
b00 '
b00000000000000000000000100101010 *
1-
1.
#298
b000000010010101 0
0-
0.
b01 ,
#299
b01 '
b0000000000000000000001000110000000011111000110001010100111010110 (
b00000000000000000000000100101100 *
1-
1.
#300
b000000010010110 0
0-
0.
#301
b0000000000000000000101000110000000011111000110001010100111010110 (
b00000000000000000000000100101110 *
1-
1.
#302
b000000010010111 0
0-
0.
b10 ,
#303
b10 '
b0000000000000000100101000110000000011111000110001010100111010110 (
b00000000000000000000000100110000 *
1-
1.
#304
b000000010011000 0
0-
0.
b00 ,
#305
b00 '
b00000000000000000000000100110010 *
1-
1.
#306
b000000010011001 0
0-
0.
b11 ,
#307
b11 '
b0000000000001100100101000110000000011111000110001010100111010110 (
b00000000000000000000000100110100 *
1-
1.
#308
b000000010011010 0
0-
0.
b10 ,
#309
b10 '
b0000000000101100100101000110000000011111000110001010100111010110 (
b00000000000000000000000100110110 *
1-
1.
#310
b000000010011011 0
0-
0.
b01 ,
#311
b01 '
b0000000001101100100101000110000000011111000110001010100111010110 (
b00000000000000000000000100111000 *
1-
1.
#312
b000000010011100 0
0-
0.
b10 ,
#313
b10 '
b0000001001101100100101000110000000011111000110001010100111010110 (
b00000000000000000000000100111010 *
1-
1.
#314
b000000010011101 0
0-
0.
#315
b0000101001101100100101000110000000011111000110001010100111010110 (
b00000000000000000000000100111100 *
1-
1.
#316
b000000010011110 0
0-
0.
b11 ,
#317
b11 '
b0011101001101100100101000110000000011111000110001010100111010110 (
b00000000000000000000000100111110 *
1-
1.
#318
b000000010011111 0
0-
0.
b00 ,
#319
b00 '
b00000000000000000000000101000000 *
1-
1.
#320
b000000010100000 0
0-
0.
b10 ,
#321
b10 '
b0000000000000000000000000000000000000000000000000000000000000010 (
b00000000000000000000000101000010 *
1-
1.
#322
b000000010100001 0
0-
0.
b00 ,
#323
b00 '
b00000000000000000000000101000100 *
1-
1.
#324
b000000010100010 0
0-
0.
b01 ,
#325
b01 '
b0000000000000000000000000000000000000000000000000000000000010010 (
b00000000000000000000000101000110 *
1-
1.
#326
b000000010100011 0
0-
0.
b11 ,
#327
b11 '
b0000000000000000000000000000000000000000000000000000000011010010 (
b00000000000000000000000101001000 *
1-
1.
#328
b000000010100100 0
0-
0.
#329
b0000000000000000000000000000000000000000000000000000001111010010 (
b00000000000000000000000101001010 *
1-
1.
#330
b000000010100101 0
0-
0.
b10 ,
#331
b10 '
b0000000000000000000000000000000000000000000000000000101111010010 (
b00000000000000000000000101001100 *
1-
1.
#332
b000000010100110 0
0-
0.
b01 ,
#333
b01 '
b0000000000000000000000000000000000000000000000000001101111010010 (
b00000000000000000000000101001110 *
1-
1.
#334
b000000010100111 0
0-
0.
b10 ,
#335
b10 '
b0000000000000000000000000000000000000000000000001001101111010010 (
b00000000000000000000000101010000 *
1-
1.
#336
b000000010101000 0
0-
0.
b00 ,
#337
b00 '
b00000000000000000000000101010010 *
1-
1.
#338
b000000010101001 0
0-
0.
b11 ,
#339
b11 '
b0000000000000000000000000000000000000000000011001001101111010010 (
b00000000000000000000000101010100 *
1-
1.
#340
b000000010101010 0
0-
0.
b10 ,
#341
b10 '
b0000000000000000000000000000000000000000001011001001101111010010 (
b00000000000000000000000101010110 *
1-
1.
#342
b000000010101011 0
0-
0.
b01 ,
