testsuite/verilator_sim/gearbox/gb_66_40/Vsonic_gb_66_40_testbench.vcd
$version Generated by VerilatedVcd $end
$date Sun Nov 27 22:16:18 2011
 $end
$timescale 1ns $end

 $scope module TOP $end
  $var wire  1 6 clk_in $end
  $var wire 66 3 data_in [65:0] $end
  $var wire 40 9 data_out [39:0] $end
  $var wire  1 8 ena $end
  $var wire  1 ; rd_req_out $end
  $var wire  1 7 reset $end
  $scope module v $end
   $var wire  1 6 clk_in $end
   $var wire 66 3 data_in [65:0] $end
   $var wire 66 0 data_in_delayed [65:0] $end
   $var wire 40 9 data_out [39:0] $end
   $var wire  1 8 ena $end
   $var wire  1 ; rd_req_out $end
   $var wire  1 7 reset $end
   $scope module gearbox $end
    $var wire  1 6 clk_in $end
    $var wire 66 0 data_in [65:0] $end
    $var wire 40 9 data_out [39:0] $end
    $var wire  1 8 ena $end
    $var wire  1 * rd_req $end
    $var wire  1 ; rd_req_out $end
    $var wire  1 - rd_req_r $end
    $var wire  1 . rd_req_rr $end
    $var wire  1 / rd_req_rrr $end
    $var wire  1 7 reset $end
    $var wire 66 $ sr0 [65:0] $end
    $var wire 66 ' sr1 [65:0] $end
    $var wire  7 # state [6:0] $end
    $var wire  7 + state_r [6:0] $end
    $var wire  7 , state_rr [6:0] $end
   $upscope $end
  $upscope $end
 $upscope $end
$enddefinitions $end


#0
b0000000 #
b000000000000000000000000000000000000000000000000000000000000000000 $
b000000000000000000000000000000000000000000000000000000000000000000 '
0*
b0000000 +
b0000000 ,
0-
0.
0/
b000000000000000000000000000000000000000000000000000000000000000000 0
b000000000000000000000000000000000000000000000000000000000000000000 3
06
17
18
b0000000000000000000000000000000000000000 9
0;
#1
16
#2
06
#3
16
#4
06
#5
16
#6
06
#7
16
#8
06
#9
16
#10
06
#11
b0000001 #
1*
16
07
1;
#12
b000111000000000000010110110101010101010101010101010101010111100001 3
06
#13
b0000010 #
b0000001 +
1-
b000111000000000000010110110101010101010101010101010101010111100001 0
16
#14
b101101111011100100001101000100111000100000111110001111110010101010 3
06
#15
b0000011 #
b000111000000000000010110110101010101010101010101010101010111100001 $
0*
b0000010 +
b0000001 ,
1.
b101101111011100100001101000100111000100000111110001111110010101010 0
16
0;
#16
06
#17
b0000100 #
b101101111011100100001101000100111000100000111110001111110010101010 $
b000111000000000000010110110101010101010101010101010101010111100001 '
1*
b0000011 +
b0000010 ,
0-
1/
16
b0101011110000100000000000000000000000000 9
1;
#18
b010101111000100011000000101110000000101011100000101011000101100010 3
06
#19
b0000101 #
b0000100 +
b0000011 ,
1-
0.
b010101111000100011000000101110000000101011100000101011000101100010 0
16
b0000000101101101010101010101010101010101 9
#20
b110001001011001111111001001010010010010010101011110110111011010010 3
06
#21
b0000110 #
b010101111000100011000000101110000000101011100000101011000101100010 $
b101101111011100100001101000100111000100000111110001111110010101010 '
0*
b0000101 +
b0000100 ,
1.
0/
b110001001011001111111001001010010010010010101011110110111011010010 0
16
b0000111110001111110010101010000111000000 9
0;
#22
06
#23
b0000111 #
b110001001011001111111001001010010010010010101011110110111011010010 $
b010101111000100011000000101110000000101011100000101011000101100010 '
1*
b0000110 +
b0000101 ,
0-
1/
16
b1010110111101110010000110100010011100010 9
1;
#24
b110011111101010010111001101011100011110101110001100011101110110110 3
06
#25
b0001000 #
0*
b0000111 +
b0000110 ,
1-
0.
b110011111101010010111001101011100011110101110001100011101110110110 0
16
b1011100000001010111000001010110001011000 9
0;
#26
06
#27
b0001001 #
b110011111101010010111001101011100011110101110001100011101110110110 $
b110001001011001111111001001010010010010010101011110110111011010010 '
1*
b0001000 +
b0000111 ,
0-
1.
0/
16
b0110111011010010010101111000100011000000 9
1;
#28
b011001111010010000011100101100011000110010101011000100011000110110 3
06
#29
b0001010 #
b0001001 +
b0001000 ,
1-
0.
1/
b011001111010010000011100101100011000110010101011000100011000110110 0
16
b1100111111100100101001001001001010101111 9
#30
b000111111101110110001110011101100010001000111100111101000100110010 3
06
#31
b0001011 #
b011001111010010000011100101100011000110010101011000100011000110110 $
b110011111101010010111001101011100011110101110001100011101110110110 '
0*
b0001010 +
b0001001 ,
1.
0/
b000111111101110110001110011101100010001000111100111101000100110010 0
16
b1101011100011000111011101101101100010010 9
0;
#32
06
#33
b0001100 #
b000111111101110110001110011101100010001000111100111101000100110010 $
b011001111010010000011100101100011000110010101011000100011000110110 '
1*
b0001011 +
b0001010 ,
0-
1/
16
b0110110011111101010010111001101011100011 9
1;
#34
b110000100011010100111000100000110000001001111100111110101111000110 3
06
#35
b0001101 #
0*
b0001100 +
b0001011 ,
1-
0.
b110000100011010100111000100000110000001001111100111110101111000110 0
16
b0010110001100011001010101100010001100011 9
0;
#36
06
#37
b0001110 #
b110000100011010100111000100000110000001001111100111110101111000110 $
b000111111101110110001110011101100010001000111100111101000100110010 '
1*
b0001101 +
b0001100 ,
0-
1.
0/
16
b1111010001001100100110011110100100000111 9
1;
#38
b001010110111110011001001001100000010010010100100100000100101001110 3
06
#39
b0001111 #
b0001110 +
b0001101 ,
1-
0.
1/
b001010110111110011001001001100000010010010100100100000100101001110 0
16
b1101110110001110011101100010001000111100 9
#40
b111000110000011111010111000000000100111011001111001100100010110010 3
06
#41
b0010000 #
b001010110111110011001001001100000010010010100100100000100101001110 $
b110000100011010100111000100000110000001001111100111110101111000110 '
0*
b0001111 +
b0001110 ,
1.
0/
b111000110000011111010111000000000100111011001111001100100010110010 0
16
b0000100111110011111010111100011000011111 9
0;
#42
06
#43
b0010001 #
b111000110000011111010111000000000100111011001111001100100010110010 $
b001010110111110011001001001100000010010010100100100000100101001110 '
1*
b0010000 +
b0001111 ,
0-
1/
16
b0011101100001000110101001110001000001100 9
1;
#44
b001010100111100001000010000101001011101011100111100010101101101010 3
06
#45
b0010010 #
0*
b0010001 +
b0010000 ,
1-
0.
b001010100111100001000010000101001011101011100111100010101101101010 0
16
b1001001100000010010010100100100000100101 9
0;
#46
06
#47
b0010011 #
b001010100111100001000010000101001011101011100111100010101101101010 $
b111000110000011111010111000000000100111011001111001100100010110010 '
1*
b0010010 +
b0010001 ,
0-
1.
0/
16
b1100110010001011001000101011011111001100 9
1;
#48
b010110110100000011111011101010100101100011111111101000000100010110 3
06
#49
b0010100 #
b0010011 +
b0010010 ,
1-
0.
1/
b010110110100000011111011101010100101100011111111101000000100010110 0
16
b1100000111110101110000000001001110110011 9
#50
b110111111101011011111011111101100011110100101101000110011001110010 3
06
#51
b0010101 #
b010110110100000011111011101010100101100011111111101000000100010110 $
b001010100111100001000010000101001011101011100111100010101101101010 '
0*
b0010100 +
b0010011 ,
1.
0/
b110111111101011011111011111101100011110100101101000110011001110010 0
16
b1011101011100111100010101101101010111000 9
0;
#52
06
#53
b0010110 #
b110111111101011011111011111101100011110100101101000110011001110010 $
b010110110100000011111011101010100101100011111111101000000100010110 '
1*
b0010101 +
b0010100 ,
0-
1/
16
b0001011000101010011110000100001000010100 9
1;
#54
b111011010111010111001111001100110000000110111000011111110100000110 3
06
#55
b0010111 #
0*
b0010110 +
b0010101 ,
1-
0.
b111011010111010111001111001100110000000110111000011111110100000110 0
16
b1110111010101001011000111111111010000001 9
0;
#56
06
#57
b0011000 #
b111011010111010111001111001100110000000110111000011111110100000110 $
b110111111101011011111011111101100011110100101101000110011001110010 '
1*
b0010111 +
b0010110 ,
0-
1.
0/
16
b1101000110011001110010010110110100000011 9
1;
#58
b011100111010011011000000011110110100011011011000010000000100101010 3
06
#59
b0011001 #
b0011000 +
b0010111 ,
1-
0.
1/
b011100111010011011000000011110110100011011011000010000000100101010 0
16
b1111110101101111101111110110001111010010 9
#60
b010010011100101011100000100000010000011001001100011010101001011110 3
06
#61
b0011010 #
b011100111010011011000000011110110100011011011000010000000100101010 $
b111011010111010111001111001100110000000110111000011111110100000110 '
0*
b0011001 +
b0011000 ,
1.
0/
b010010011100101011100000100000010000011001001100011010101001011110 0
16
b1100000001101110000111111101000001101101 9
0;
#62
06
#63
b0011011 #
b010010011100101011100000100000010000011001001100011010101001011110 $
b011100111010011011000000011110110100011011011000010000000100101010 '
1*
b0011010 +
b0011001 ,
0-
1/
16
b0100101010111011010111010111001111001100 9
1;
#64
b111101110011110010011110100100011101011101011100010001010001101010 3
06
#65
b0011100 #
0*
b0011011 +
b0011010 ,
1-
0.
b111101110011110010011110100100011101011101011100010001010001101010 0
16
b1100000001111011010001101101100001000000 9
0;
#66
06
#67
b0011101 #
b111101110011110010011110100100011101011101011100010001010001101010 $
b010010011100101011100000100000010000011001001100011010101001011110 '
1*
b0011100 +
b0011011 ,
0-
1.
0/
16
b0011000110101010010111100111001110100110 9
1;
#68
b100100110110111000100011001101001110110100100001000010111100111010 3
06
#69
b0011110 #
b0011101 +
b0011100 ,
1-
0.
1/
b100100110110111000100011001101001110110100100001000010111100111010 0
16
b0010011100101011100000100000010000011001 9
#70
b111111100110111110111100111101100101011010010100001011100110000010 3
06
#71
b0011111 #
b100100110110111000100011001101001110110100100001000010111100111010 $
b111101110011110010011110100100011101011101011100010001010001101010 '
0*
b0011110 +
b0011101 ,
1.
0/
b111111100110111110111100111101100101011010010100001011100110000010 0
16
b0001110101110101110001000101000110101001 9
0;
#72
06
#73
b0100000 #
b111111100110111110111100111101100101011010010100001011100110000010 $
b100100110110111000100011001101001110110100100001000010111100111010 '
1*
b0011111 +
b0011110 ,
0-
1/
16
b1111001110101111011100111100100111101001 9
1;
#74
b111111010100001101011110001111011101111010111101000100111010010110 3
06
#75
b0000000 #
0*
b0100000 +
b0011111 ,
1-
0.
b111111010100001101011110001111011101111010111101000100111010010110 0
16
b1000100011001101001110110100100001000010 9
0;
#76
06
#77
b0000001 #
b111111010100001101011110001111011101111010111101000100111010010110 $
b111111100110111110111100111101100101011010010100001011100110000010 '
1*
b0000000 +
b0100000 ,
0-
1.
0/
16
b1001010000101110011000001010010011011011 9
1;
#78
b000100001010101001110111001111110110111011100010110111001001010010 3
06
#79
b0000010 #
b0000001 +
b0000000 ,
1-
0.
1/
b000100001010101001110111001111110110111011100010110111001001010010 0
16
b1111111001101111101111001111011001010110 9
#80
b101100101110101111101010111000111001111010110101001000001111011010 3
06
#81
b0000011 #
b000100001010101001110111001111110110111011100010110111001001010010 $
b111111010100001101011110001111011101111010111101000100111010010110 '
0*
b0000010 +
b0000001 ,
1.
0/
b101100101110101111101010111000111001111010110101001000001111011010 0
16
b1111011101111010111101000100111010010110 9
0;
#82
06
#83
b0000100 #
b101100101110101111101010111000111001111010110101001000001111011010 $
b000100001010101001110111001111110110111011100010110111001001010010 '
1*
b0000011 +
b0000010 ,
0-
1/
16
b1100100101001011111101010000110101111000 9
1;
#84
b000100001011011100100111010001111100111110111100100101110111110110 3
06
#85
b0000101 #
b0000100 +
b0000011 ,
1-
0.
b000100001011011100100111010001111100111110111100100101110111110110 0
16
b1010011101110011111101101110111000101101 9
#86
b011101000100011100101001001001100111011010011100011000011000001110 3
06
#87
b0000110 #
b000100001011011100100111010001111100111110111100100101110111110110 $
b101100101110101111101010111000111001111010110101001000001111011010 '
0*
b0000101 +
b0000100 ,
1.
0/
b011101000100011100101001001001100111011010011100011000011000001110 0
16
b1010110101001000001111011010000100001010 9
0;
#88
06
#89
b0000111 #
b011101000100011100101001001001100111011010011100011000011000001110 $
b000100001011011100100111010001111100111110111100100101110111110110 '
1*
b0000110 +
b0000101 ,
0-
1/
16
b1010110010111010111110101011100011100111 9
1;
#90
b001001100000111101101011101011111000101001110111110110101000101010 3
06
#91
b0001000 #
0*
b0000111 +
b0000110 ,
1-
0.
b001001100000111101101011101011111000101001110111110110101000101010 0
16
b0100011111001111101111001001011101111101 9
0;
#92
06
#93
b0001001 #
b001001100000111101101011101011111000101001110111110110101000101010 $
b011101000100011100101001001001100111011010011100011000011000001110 '
1*
b0001000 +
b0000111 ,
0-
1.
0/
16
b1000011000001110000100001011011100100111 9
1;
#94
b100011110011011001000000100001001000000110101011001111101001101010 3
06
#95
b0001010 #
b0001001 +
b0001000 ,
1-
0.
1/
b100011110011011001000000100001001000000110101011001111101001101010 0
16
b0001110010100100100110011101101001110001 9
#96
b100111111110100010100101111100101011111100010011110110101000100110 3
06
#97
b0001011 #
b100011110011011001000000100001001000000110101011001111101001101010 $
b001001100000111101101011101011111000101001110111110110101000101010 '
0*
b0001010 +
b0001001 ,
1.
0/
b100111111110100010100101111100101011111100010011110110101000100110 0
16
b1010011101111101101010001010100111010001 9
0;
#98
06
#99
b0001100 #
b100111111110100010100101111100101011111100010011110110101000100110 $
b100011110011011001000000100001001000000110101011001111101001101010 '
1*
b0001011 +
b0001010 ,
0-
1/
16
b1010001001100000111101101011101011111000 9
1;
#100
b011001001000101010010110111011010000101010011101100001000000010010 3
06
#101
b0001101 #
0*
b0001100 +
b0001011 ,
1-
0.
b011001001000101010010110111011010000101010011101100001000000010010 0
16
b0010000100100000011010101100111110100110 9
0;
#102
06
#103
b0001110 #
b011001001000101010010110111011010000101010011101100001000000010010 $
b100111111110100010100101111100101011111100010011110110101000100110 '
1*
b0001101 +
b0001100 ,
0-
1.
0/
16
b1101101010001001101000111100110110010000 9
1;
#104
b001011111011111101001000010110101100001101010000001100001010110010 3
06
#105
b0001111 #
b0001110 +
b0001101 ,
1-
0.
1/
b001011111011111101001000010110101100001101010000001100001010110010 0
16
b1110100010100101111100101011111100010011 9
#106
b001011001010011100000101000001111000010010010000010101011001010010 3
06
#107
b0010000 #
b001011111011111101001000010110101100001101010000001100001010110010 $
b011001001000101010010110111011010000101010011101100001000000010010 '
0*
b0001111 +
b0001110 ,
1.
0/
b001011001010011100000101000001111000010010010000010101011001010010 0
16
b0010101001110110000100000001001010011111 9
0;
#108
06
#109
b0010001 #
b001011001010011100000101000001111000010010010000010101011001010010 $
b001011111011111101001000010110101100001101010000001100001010110010 '
1*
b0010000 +
b0001111 ,
0-
1/
16
b1100100110010010001010100101101110110100 9
1;
#110
b011001010111100111111100101110110111010110100111111101001010000110 3
06
#111
b0010010 #
0*
b0010001 +
b0010000 ,
1-
0.
b011001010111100111111100101110110111010110100111111101001010000110 0
16
b1000010110101100001101010000001100001010 9
0;
#112
06
#113
b0010011 #
b011001010111100111111100101110110111010110100111111101001010000110 $
b001011001010011100000101000001111000010010010000010101011001010010 '
1*
b0010010 +
b0010001 ,
0-
1.
0/
16
b0001010101100101001000101111101111110100 9
1;
#114
b110100110101011111110010011101110110011100011101111101100101101110 3
06
#115
b0010100 #
b0010011 +
b0010010 ,
1-
0.
1/
b110100110101011111110010011101110110011100011101111101100101101110 0
16
b0010100111000001010000011110000100100100 9
#116
b011111000100010101000100000101010100001001010110011111100101101110 3
06
#117
b0010101 #
b110100110101011111110010011101110110011100011101111101100101101110 $
b011001010111100111111100101110110111010110100111111101001010000110 '
0*
b0010100 +
b0010011 ,
1.
0/
b011111000100010101000100000101010100001001010110011111100101101110 0
16
b0111010110100111111101001010000110001011 9
0;
#118
06
#119
b0010110 #
b011111000100010101000100000101010100001001010110011111100101101110 $
b110100110101011111110010011101110110011100011101111101100101101110 '
1*
b0010101 +
b0010100 ,
0-
1/
16
b0110111001100101011110011111110010111011 9
1;
#120
b011111101111010110010001100111010100010110011010011000110110000110 3
06
#121
b0010111 #
0*
b0010110 +
b0010101 ,
1-
0.
b011111101111010110010001100111010100010110011010011000110110000110 0
16
b1100100111011101100111000111011111011001 9
0;
#122
06
#123
b0011000 #
b011111101111010110010001100111010100010110011010011000110110000110 $
b011111000100010101000100000101010100001001010110011111100101101110 '
1*
b0010111 +
b0010110 ,
0-
1.
0/
16
b0110011111100101101110110100110101011111 9
1;
#124
b101001100000011101101000010010000011111111100111100111110001100010 3
06
#125
b0011001 #
b0011000 +
b0010111 ,
1-
0.
1/
b101001100000011101101000010010000011111111100111100111110001100010 0
16
b1100010001010100010000010101010000100101 9
#126
b110101101110111100000110110010110001101101111100100011000101011010 3
06
#127
b0011010 #
b101001100000011101101000010010000011111111100111100111110001100010 $
b011111101111010110010001100111010100010110011010011000110110000110 '
0*
b0011001 +
b0011000 ,
1.
0/
b110101101110111100000110110010110001101101111100100011000101011010 0
16
b0101000101100110100110001101100001100111 9
0;
#128
06
#129
b0011011 #
b110101101110111100000110110010110001101101111100100011000101011010 $
b101001100000011101101000010010000011111111100111100111110001100010 '
1*
b0011010 +
b0011001 ,
0-
1/
16
b0001100010011111101111010110010001100111 9
1;
#130
b111000101011001101000011110001110110110111011011101000111000111110 3
06
#131
b0011100 #
0*
b0011011 +
b0011010 ,
1-
0.
b111000101011001101000011110001110110110111011011101000111000111110 0
16
b0110100001001000001111111110011110011111 9
0;
#132
06
#133
b0011101 #
b111000101011001101000011110001110110110111011011101000111000111110 $
b110101101110111100000110110010110001101101111100100011000101011010 '
1*
b0011100 +
b0011011 ,
0-
1.
0/
16
b1111001000110001010110101010011000000111 9
1;
#134
b000011010110001001111111110010110111000000100101101111110000100110 3
06
#135
b0011110 #
b0011101 +
b0011100 ,
1-
0.
1/
b000011010110001001111111110010110111000000100101101111110000100110 0
16
b0101101110111100000110110010110001101101 9
#136
b101001010010000100000011010010101010111011001110010000110111110110 3
06
#137
b0011111 #
b000011010110001001111111110010110111000000100101101111110000100110 $
b111000101011001101000011110001110110110111011011101000111000111110 '
0*
b0011110 +
b0011101 ,
1.
0/
b101001010010000100000011010010101010111011001110010000110111110110 0
16
b0111011011011101101110100011100011111011 9
0;
#138
06
#139
b0100000 #
b101001010010000100000011010010101010111011001110010000110111110110 $
b000011010110001001111111110010110111000000100101101111110000100110 '
1*
b0011111 +
b0011110 ,
0-
1/
16
b1100001001101110001010110011010000111100 9
1;
#140
b100000110111010110000000111011101000101000000011101001000110110110 3
06
#141
b0000000 #
0*
b0100000 +
b0011111 ,
1-
0.
b100000110111010110000000111011101000101000000011101001000110110110 0
16
b1001111111110010110111000000100101101111 9
0;
#142
06
#143
b0000001 #
b100000110111010110000000111011101000101000000011101001000110110110 $
b101001010010000100000011010010101010111011001110010000110111110110 '
1*
b0000000 +
b0100000 ,
0-
1.
0/
16
b1100111001000011011111011000001101011000 9
1;
#144
b110110111001101100010110111110110011100011011111010011111110000110 3
06
#145
b0000010 #
b0000001 +
b0000000 ,
1-
0.
1/
b110110111001101100010110111110110011100011011111010011111110000110 0
16
b1010010100100001000000110100101010101110 9
#146
b110111011100110100011100000000010001011101011101001101001001000010 3
06
#147
b0000011 #
b110110111001101100010110111110110011100011011111010011111110000110 $
b100000110111010110000000111011101000101000000011101001000110110110 '
0*
b0000010 +
b0000001 ,
1.
0/
b110111011100110100011100000000010001011101011101001101001001000010 0
16
b1011101000101000000011101001000110110110 9
0;
#148
06
#149
b0000100 #
b110111011100110100011100000000010001011101011101001101001001000010 $
b110110111001101100010110111110110011100011011111010011111110000110 '
1*
b0000011 +
b0000010 ,
0-
1/
16
b1111111000011010000011011101011000000011 9
1;
#150
b111010110110001100110110001010111101011011100000010001100110100010 3
06
#151
b0000101 #
b0000100 +
b0000011 ,
1-
0.
b111010110110001100110110001010111101011011100000010001100110100010 0
16
b1011000101101111101100111000110111110100 9
#152
b011000010100101011011101000111100010110011110001101001001100101110 3
06
#153
b0000110 #
b111010110110001100110110001010111101011011100000010001100110100010 $
b110111011100110100011100000000010001011101011101001101001001000010 '
0*
b0000101 +
b0000100 ,
1.
0/
b011000010100101011011101000111100010110011110001101001001100101110 0
16
b1101011101001101001001000010110110111001 9
0;
#154
06
#155
b0000111 #
b011000010100101011011101000111100010110011110001101001001100101110 $
b111010110110001100110110001010111101011011100000010001100110100010 '
1*
b0000110 +
b0000101 ,
0-
1/
16
b1011011101110011010001110000000001000101 9
1;
#156
b000011111000111011000000011101011110110111100100011100011011001010 3
06
#157
b0001000 #
0*
b0000111 +
b0000110 ,
1-
0.
b000011111000111011000000011101011110110111100100011100011011001010 0
16
b0010101111010110111000000100011001101000 9
0;
#158
06
#159
b0001001 #
b000011111000111011000000011101011110110111100100011100011011001010 $
b011000010100101011011101000111100010110011110001101001001100101110 '
1*
b0001000 +
b0000111 ,
0-
1.
0/
16
b1001001100101110111010110110001100110110 9
1;
#160
b010101100100000110001001101111110010100011100000100111010000010110 3
06
#161
b0001010 #
b0001001 +
b0001000 ,
1-
0.
1/
b010101100100000110001001101111110010100011100000100111010000010110 0
16
b0010101101110100011110001011001111000110 9
#162
b010101000101010011010111101110101110101001010010011010011101001110 3
06
#163
b0001011 #
b010101100100000110001001101111110010100011100000100111010000010110 $
b000011111000111011000000011101011110110111100100011100011011001010 '
0*
b0001010 +
b0001001 ,
1.
0/
b010101000101010011010111101110101110101001010010011010011101001110 0
16
b1101111001000111000110110010100110000101 9
0;
#164
06
#165
b0001100 #
b010101000101010011010111101110101110101001010010011010011101001110 $
b010101100100000110001001101111110010100011100000100111010000010110 '
1*
b0001011 +
b0001010 ,
0-
1/
16
b0110000011111000111011000000011101011110 9
1;
#166
b010011011011010100010100110000011111010111110001101001101110001110 3
06
#167
b0001101 #
0*
b0001100 +
b0001011 ,
1-
0.
b010011011011010100010100110000011111010111110001101001101110001110 0
16
b0110111111001010001110000010011101000001 9
0;
#168
06
#169
b0001110 #
b010011011011010100010100110000011111010111110001101001101110001110 $
b010101000101010011010111101110101110101001010010011010011101001110 '
1*
b0001101 +
b0001100 ,
0-
1.
0/
16
b0110100111010011100101011001000001100010 9
1;
#170
b111000010100100011001100010001101110111101101100100101100101100010 3
06
#171
b0001111 #
b0001110 +
b0001101 ,
1-
0.
1/
b111000010100100011001100010001101110111101101100100101100101100010 0
16
b0101010011010111101110101110101001010010 9
#172
b101000101110001010011101111100001000111111100010101010010001100110 3
06
#173
b0010000 #
b111000010100100011001100010001101110111101101100100101100101100010 $
b010011011011010100010100110000011111010111110001101001101110001110 '
0*
b0001111 +
b0001110 ,
1.
0/
b101000101110001010011101111100001000111111100010101010010001100110 0
16
b1101011111000110100110111000111001010100 9
0;
#174
06
#175
b0010001 #
b101000101110001010011101111100001000111111100010101010010001100110 $
b111000010100100011001100010001101110111101101100100101100101100010 '
1*
b0010000 +
b0001111 ,
0-
1/
16
b1000100100110110110101000101001100000111 9
1;
#176
b110010111001100011010001000111111000101101000110010001001101011010 3
06
#177
b0010010 #
0*
b0010001 +
b0010000 ,
1-
0.
b110010111001100011010001000111111000101101000110010001001101011010 0
16
b1100010001101110111101101100100101100101 9
0;
#178
06
#179
b0010011 #
b110010111001100011010001000111111000101101000110010001001101011010 $
b101000101110001010011101111100001000111111100010101010010001100110 '
1*
b0010010 +
b0010001 ,
0-
1.
0/
16
b1010101001000110011011100001010010001100 9
1;
#180
b100111110100011000101001100101101000010001110000101000101110010110 3
06
#181
b0010100 #
b0010011 +
b0010010 ,
1-
0.
1/
b100111110100011000101001100101101000010001110000101000101110010110 0
16
b1011100010100111011111000010001111111000 9
#182
b010000010101011111010010110111001100110100110110001110111111100010 3
06
#183
b0010101 #
b100111110100011000101001100101101000010001110000101000101110010110 $
b110010111001100011010001000111111000101101000110010001001101011010 '
0*
b0010100 +
b0010011 ,
1.
0/
b010000010101011111010010110111001100110100110110001110111111100010 0
16
b1000101101000110010001001101011010101000 9
0;
#184
06
#185
b0010110 #
b010000010101011111010010110111001100110100110110001110111111100010 $
b100111110100011000101001100101101000010001110000101000101110010110 '
1*
b0010101 +
b0010100 ,
0-
1/
16
b1001011011001011100110001101000100011111 9
1;
#186
b100000010111001100110011010110001110101011101100100001101011000010 3
06
#187
b0010111 #
0*
b0010110 +
b0010101 ,
1-
0.
b100000010111001100110011010110001110101011101100100001101011000010 0
16
b1010011001011010000100011100001010001011 9
0;
#188
06
#189
b0011000 #
b100000010111001100110011010110001110101011101100100001101011000010 $
b010000010101011111010010110111001100110100110110001110111111100010 '
1*
b0010111 +
b0010110 ,
0-
1.
0/
16
b0110001110111111100010100111110100011000 9
1;
#190
b010100111010010111010010101111001110101000001011001001100101100010 3
06
#191
b0011001 #
b0011000 +
b0010111 ,
1-
0.
1/
b010100111010010111010010101111001110101000001011001001100101100010 0
16
b0001010101111101001011011100110011010011 9
#192
b111011000101110111001011110110100001100101110110010001001101100110 3
06
#193
b0011010 #
b010100111010010111010010101111001110101000001011001001100101100010 $
b100000010111001100110011010110001110101011101100100001101011000010 '
0*
b0011001 +
b0011000 ,
1.
0/
b111011000101110111001011110110100001100101110110010001001101100110 0
16
b0011101010111011001000011010110000100100 9
0;
#194
06
#195
b0011011 #
b111011000101110111001011110110100001100101110110010001001101100110 $
b010100111010010111010010101111001110101000001011001001100101100010 '
1*
b0011010 +
b0011001 ,
0-
1/
16
b0101100010100000010111001100110011010110 9
1;
#196
b110110010000100001011001011011100111000010110101000000000010110010 3
06
#197
b0011100 #
0*
b0011011 +
b0011010 ,
1-
0.
b110110010000100001011001011011100111000010110101000000000010110010 0
16
b1101001010111100111010100000101100100110 9
0;
#198
06
#199
b0011101 #
b110110010000100001011001011011100111000010110101000000000010110010 $
b111011000101110111001011110110100001100101110110010001001101100110 '
1*
b0011100 +
b0011011 ,
0-
1.
0/
16
b1101100100010011011001100101001110100101 9
1;
#200
b111100011111101110010011101111000000100111011101010100010000100110 3
06
#201
b0011110 #
b0011101 +
b0011100 ,
1-
0.
1/
b111100011111101110010011101111000000100111011101010100010000100110 0
16
b1011000101110111001011110110100001100101 9
#202
b001111100011111101100110100001010011111111011111100110110111100110 3
06
#203
b0011111 #
b111100011111101110010011101111000000100111011101010100010000100110 $
b110110010000100001011001011011100111000010110101000000000010110010 '
0*
b0011110 +
b0011101 ,
1.
0/
b001111100011111101100110100001010011111111011111100110110111100110 0
16
b1110011100001011010100000000001011001011 9
0;
#204
06
#205
b0100000 #
b001111100011111101100110100001010011111111011111100110110111100110 $
b111100011111101110010011101111000000100111011101010100010000100110 '
1*
b0011111 +
b0011110 ,
0-
1/
16
b0100001001101101100100001000010110010110 9
1;
#206
b100110100100100110101101001101000011101101110101000001001100010110 3
06
#207
b0000000 #
0*
b0100000 +
b0011111 ,
1-
0.
b100110100100100110101101001101000011101101110101000001001100010110 0
16
b1110010011101111000000100111011101010100 9
0;
#208
06
#209
b0000001 #
b100110100100100110101101001101000011101101110101000001001100010110 $
b001111100011111101100110100001010011111111011111100110110111100110 '
1*
b0000000 +
b0100000 ,
0-
1.
0/
16
b1101111110011011011110011011110001111110 9
1;
#210
b110110100110010000001011010000001100110000001100011110000011101110 3
06
#211
b0000010 #
b0000001 +
b0000000 ,
1-
0.
1/
b110110100110010000001011010000001100110000001100011110000011101110 0
16
b0011111000111111011001101000010100111111 9
#212
b011001110000001001110010111101110000011100000000101001011011010110 3
06
#213
b0000011 #
b110110100110010000001011010000001100110000001100011110000011101110 $
b100110100100100110101101001101000011101101110101000001001100010110 '
0*
b0000010 +
b0000001 ,
1.
0/
b011001110000001001110010111101110000011100000000101001011011010110 0
16
b1101000011101101110101000001001100010110 9
0;
#214
06
#215
b0000100 #
b011001110000001001110010111101110000011100000000101001011011010110 $
b110110100110010000001011010000001100110000001100011110000011101110 '
1*
b0000011 +
b0000010 ,
0-
1/
16
b1000001110111010011010010010011010110100 9
1;
#216
b001000101000111010101101110011010110100100010110010010110010010010 3
06
#217
b0000101 #
b0000100 +
b0000011 ,
1-
0.
b001000101000111010101101110011010110100100010110010010110010010010 0
16
b0100000010110100000011001100000011000111 9
#218
b110100110111100011011110000101010100000011000011100011111010000110 3
06
#219
b0000110 #
b001000101000111010101101110011010110100100010110010010110010010010 $
b011001110000001001110010111101110000011100000000101001011011010110 '
0*
b0000101 +
b0000100 ,
1.
0/
b110100110111100011011110000101010100000011000011100011111010000110 0
16
b1100000000101001011011010110110110100110 9
0;
#220
06
#221
b0000111 #
b110100110111100011011110000101010100000011000011100011111010000110 $
b001000101000111010101101110011010110100100010110010010110010010010 '
1*
b0000110 +
b0000101 ,
0-
1/
16
b1001100111000000100111001011110111000001 9
1;
#222
b001110011110000010000101101000001101100101010101001111001010100110 3
06
#223
b0001000 #
0*
b0000111 +
b0000110 ,
1-
0.
b001110011110000010000101101000001101100101010101001111001010100110 0
16
b1100110101101001000101100100101100100100 9
0;
#224
06
#225
b0001001 #
b001110011110000010000101101000001101100101010101001111001010100110 $
b110100110111100011011110000101010100000011000011100011111010000110 '
1*
b0001000 +
b0000111 ,
0-
1.
0/
16
b0011111010000110001000101000111010101101 9
1;
#226
b000101101000111111100111101100110100101100010000101100101010101110 3
06
#227
b0001010 #
b0001001 +
b0001000 ,
1-
0.
1/
b000101101000111111100111101100110100101100010000101100101010101110 0
16
b1110001101111000010101010000001100001110 9
#228
b001101010011010010101001101000101011110011101010101011110101110010 3
06
#229
b0001011 #
b000101101000111111100111101100110100101100010000101100101010101110 $
b001110011110000010000101101000001101100101010101001111001010100110 '
0*
b0001010 +
b0001001 ,
1.
0/
b001101010011010010101001101000101011110011101010101011110101110010 0
16
b1001010101010011110010101001101101001101 9
0;
#230
06
#231
b0001100 #
b001101010011010010101001101000101011110011101010101011110101110010 $
b000101101000111111100111101100110100101100010000101100101010101110 '
1*
b0001011 +
b0001010 ,
0-
1/
16
b1110001110011110000010000101101000001101 9
1;
#232
b001110101100011100001101100010010010010010010100010010011101001010 3
06
#233
b0001101 #
0*
b0001100 +
b0001011 ,
1-
0.
b001110101100011100001101100010010010010010010100010010011101001010 0
16
b1110110011010010110001000010110010101010 9
0;
#234
06
#235
b0001110 #
b001110101100011100001101100010010010010010010100010010011101001010 $
b001101010011010010101001101000101011110011101010101011110101110010 '
1*
b0001101 +
b0001100 ,
0-
1.
0/
16
b1010111101011100100001011010001111111001 9
1;
#236
b100101000000110011101110000110000111010100100101101001011000110010 3
06
#237
b0001111 #
b0001110 +
b0001101 ,
1-
0.
1/
b100101000000110011101110000110000111010100100101101001011000110010 0
16
b0011010010101001101000101011110011101010 9
#238
b100101110011001001001100010000110101011110011010101000101001101110 3
06
