testsuite/verilator_sim/gearbox/gb_66_40/Vsonic_gearbox_66_40.vcd
$version Generated by VerilatedVcd $end
$date Sun Nov 27 21:59:24 2011
 $end
$timescale 1ns $end

 $scope module TOP $end
  $var wire  1 3 clk_in $end
  $var wire 66 0 data_in [65:0] $end
  $var wire 40 6 data_out [39:0] $end
  $var wire  1 5 ena $end
  $var wire  1 8 rd_req_out $end
  $var wire  1 4 reset $end
  $scope module v $end
   $var wire  1 3 clk_in $end
   $var wire 66 0 data_in [65:0] $end
   $var wire 40 6 data_out [39:0] $end
   $var wire  1 5 ena $end
   $var wire  1 * rd_req $end
   $var wire  1 8 rd_req_out $end
   $var wire  1 - rd_req_r $end
   $var wire  1 . rd_req_rr $end
   $var wire  1 / rd_req_rrr $end
   $var wire  1 4 reset $end
   $var wire 66 $ sr0 [65:0] $end
   $var wire 66 ' sr1 [65:0] $end
   $var wire  7 # state [6:0] $end
   $var wire  7 + state_r [6:0] $end
   $var wire  7 , state_rr [6:0] $end
  $upscope $end
 $upscope $end
$enddefinitions $end


#0
b0000000 #
b000000000000000000000000000000000000000000000000000000000000000000 $
b000000000000000000000000000000000000000000000000000000000000000000 '
0*
b0000000 +
b0000000 ,
0-
0.
0/
b000000000000000000000000000000000000000000000000000000000000000000 0
03
14
15
b0000000000000000000000000000000000000000 6
08
#1
13
#2
03
#3
13
#4
03
#5
13
#6
03
#7
13
#8
03
#9
13
#10
03
#11
b0000001 #
1*
13
04
18
#12
b000111000000000000010110110101010101010101010101010101010111100001 0
03
#13
b0000010 #
b0000001 +
1-
13
#14
b101101111011100100001101000100111000100000111110001111110010101010 0
03
#15
b0000011 #
b101101111011100100001101000100111000100000111110001111110010101010 $
0*
b0000010 +
b0000001 ,
1.
13
08
#16
03
#17
b0000100 #
b101101111011100100001101000100111000100000111110001111110010101010 '
1*
b0000011 +
b0000010 ,
0-
1/
13
b1111001010101000000000000000000000000000 6
18
#18
b010101111000100011000000101110000000101011100000101011000101100010 0
03
#19
b0000101 #
b0000100 +
b0000011 ,
1-
0.
13
b1001000011010001001110001000001111100011 6
#20
b110001001011001111111001001010010010010010101011110110111011010010 0
03
#21
b0000110 #
b110001001011001111111001001010010010010010101011110110111011010010 $
0*
b0000101 +
b0000100 ,
1.
0/
13
b0000111110001111110010101010101101111011 6
08
#22
03
#23
b0000111 #
b110001001011001111111001001010010010010010101011110110111011010010 '
1*
b0000110 +
b0000101 ,
0-
1/
13
b1010110111101110010000110100010011100010 6
18
#24
b110011111101010010111001101011100011110101110001100011101110110110 0
03
#25
b0001000 #
0*
b0000111 +
b0000110 ,
1-
0.
13
b0010100100100100101010111101101110110100 6
08
#26
03
#27
b0001001 #
b110011111101010010111001101011100011110101110001100011101110110110 $
1*
b0001000 +
b0000111 ,
0-
1.
0/
13
b0110111011010010110001001011001111111001 6
18
#28
b011001111010010000011100101100011000110010101011000100011000110110 0
03
#29
b0001010 #
b0001001 +
b0001000 ,
1-
0.
1/
13
b1100111111100100101001001001001010101111 6
#30
b000111111101110110001110011101100010001000111100111101000100110010 0
03
#31
b0001011 #
b000111111101110110001110011101100010001000111100111101000100110010 $
b110011111101010010111001101011100011110101110001100011101110110110 '
0*
b0001010 +
b0001001 ,
1.
0/
13
b1101011100011000111011101101101100010010 6
08
#32
03
#33
b0001100 #
b000111111101110110001110011101100010001000111100111101000100110010 '
1*
b0001011 +
b0001010 ,
0-
1/
13
b0010110011111101010010111001101011100011 6
18
#34
b110000100011010100111000100000110000001001111100111110101111000110 0
03
#35
b0001101 #
0*
b0001100 +
b0001011 ,
1-
0.
13
b1001110110001000100011110011110100010011 6
08
#36
03
#37
b0001110 #
b110000100011010100111000100000110000001001111100111110101111000110 $
1*
b0001101 +
b0001100 ,
0-
1.
0/
13
b1111010001001100100001111111011101100011 6
18
#38
b001010110111110011001001001100000010010010100100100000100101001110 0
03
#39
b0001111 #
b0001110 +
b0001101 ,
1-
0.
1/
13
b1101110110001110011101100010001000111100 6
#40
b111000110000011111010111000000000100111011001111001100100010110010 0
03
#41
b0010000 #
b111000110000011111010111000000000100111011001111001100100010110010 $
b110000100011010100111000100000110000001001111100111110101111000110 '
0*
b0001111 +
b0001110 ,
1.
0/
13
b0000100111110011111010111100011000011111 6
08
#42
03
#43
b0010001 #
b111000110000011111010111000000000100111011001111001100100010110010 '
1*
b0010000 +
b0001111 ,
0-
1/
13
b1100101100001000110101001110001000001100 6
18
#44
b001010100111100001000010000101001011101011100111100010101101101010 0
03
#45
b0010010 #
0*
b0010001 +
b0010000 ,
1-
0.
13
b0111000000000100111011001111001100100010 6
08
#46
03
#47
b0010011 #
b001010100111100001000010000101001011101011100111100010101101101010 $
1*
b0010010 +
b0010001 ,
0-
1.
0/
13
b1100110010001011001011100011000001111101 6
18
#48
b010110110100000011111011101010100101100011111111101000000100010110 0
03
#49
b0010100 #
b0010011 +
b0010010 ,
1-
0.
1/
13
b1100000111110101110000000001001110110011 6
#50
b110111111101011011111011111101100011110100101101000110011001110010 0
03
#51
b0010101 #
b110111111101011011111011111101100011110100101101000110011001110010 $
b001010100111100001000010000101001011101011100111100010101101101010 '
0*
b0010100 +
b0010011 ,
1.
0/
13
b1011101011100111100010101101101010111000 6
08
#52
03
#53
b0010110 #
b110111111101011011111011111101100011110100101101000110011001110010 '
1*
b0010101 +
b0010100 ,
0-
1/
13
b0111001000101010011110000100001000010100 6
18
#54
b111011010111010111001111001100110000000110111000011111110100000110 0
03
#55
b0010111 #
0*
b0010110 +
b0010101 ,
1-
0.
13
b1110111111011000111101001011010001100110 6
08
#56
03
#57
b0011000 #
b111011010111010111001111001100110000000110111000011111110100000110 $
1*
b0010111 +
b0010110 ,
0-
1.
0/
13
b1101000110011001110010110111111101011011 6
18
#58
b011100111010011011000000011110110100011011011000010000000100101010 0
03
#59
b0011001 #
b0011000 +
b0010111 ,
1-
0.
1/
13
b1111110101101111101111110110001111010010 6
#60
b010010011100101011100000100000010000011001001100011010101001011110 0
03
#61
b0011010 #
b010010011100101011100000100000010000011001001100011010101001011110 $
b111011010111010111001111001100110000000110111000011111110100000110 '
0*
b0011001 +
b0011000 ,
1.
0/
13
b1100000001101110000111111101000001101101 6
08
#62
03
#63
b0011011 #
b010010011100101011100000100000010000011001001100011010101001011110 '
1*
b0011010 +
b0011001 ,
0-
1/
13
b1001011110111011010111010111001111001100 6
18
#64
b111101110011110010011110100100011101011101011100010001010001101010 0
03
#65
b0011100 #
0*
b0011011 +
b0011010 ,
1-
0.
13
b1110000010000001000001100100110001101010 6
08
#66
03
#67
b0011101 #
b111101110011110010011110100100011101011101011100010001010001101010 $
1*
b0011100 +
b0011011 ,
0-
1.
0/
13
b0011000110101010010111100100100111001010 6
18
#68
b100100110110111000100011001101001110110100100001000010111100111010 0
03
#69
b0011110 #
b0011101 +
b0011100 ,
1-
0.
1/
13
b0010011100101011100000100000010000011001 6
#70
b111111100110111110111100111101100101011010010100001011100110000010 0
03
#71
b0011111 #
b111111100110111110111100111101100101011010010100001011100110000010 $
b111101110011110010011110100100011101011101011100010001010001101010 '
0*
b0011110 +
b0011101 ,
1.
0/
13
b0001110101110101110001000101000110101001 6
08
#72
03
#73
b0100000 #
b111111100110111110111100111101100101011010010100001011100110000010 '
1*
b0011111 +
b0011110 ,
0-
1/
13
b1001100000101111011100111100100111101001 6
18
#74
b111111010100001101011110001111011101111010111101000100111010010110 0
03
#75
b0000000 #
0*
b0100000 +
b0011111 ,
1-
0.
13
b1110111100111101100101011010010100001011 6
08
#76
03
#77
b0000001 #
b111111010100001101011110001111011101111010111101000100111010010110 $
1*
b0000000 +
b0100000 ,
0-
1.
0/
13
b1001010000101110011000001011111110011011 6
18
#78
b000100001010101001110111001111110110111011100010110111001001010010 0
03
#79
b0000010 #
b0000001 +
b0000000 ,
1-
0.
1/
13
b1111111001101111101111001111011001010110 6
#80
b101100101110101111101010111000111001111010110101001000001111011010 0
03
#81
b0000011 #
b101100101110101111101010111000111001111010110101001000001111011010 $
b111111010100001101011110001111011101111010111101000100111010010110 '
0*
b0000010 +
b0000001 ,
1.
0/
13
b1111011101111010111101000100111010010110 6
08
#82
03
#83
b0000100 #
b101100101110101111101010111000111001111010110101001000001111011010 '
1*
b0000011 +
b0000010 ,
0-
1/
13
b0000111101101011111101010000110101111000 6
18
#84
b000100001011011100100111010001111100111110111100100101110111110110 0
03
#85
b0000101 #
b0000100 +
b0000011 ,
1-
0.
13
b1011111010101110001110011110101101010010 6
#86
b011101000100011100101001001001100111011010011100011000011000001110 0
03
#87
b0000110 #
b011101000100011100101001001001100111011010011100011000011000001110 $
0*
b0000101 +
b0000100 ,
1.
0/
13
b1010110101001000001111011010101100101110 6
08
#88
03
#89
b0000111 #
b011101000100011100101001001001100111011010011100011000011000001110 '
1*
b0000110 +
b0000101 ,
0-
1/
13
b1010110010111010111110101011100011100111 6
18
#90
b001001100000111101101011101011111000101001110111110110101000101010 0
03
#91
b0001000 #
0*
b0000111 +
b0000110 ,
1-
0.
13
b0010011001110110100111000110000110000011 6
08
#92
03
#93
b0001001 #
b001001100000111101101011101011111000101001110111110110101000101010 $
1*
b0001000 +
b0000111 ,
0-
1.
0/
13
b1000011000001110011101000100011100101001 6
18
#94
b100011110011011001000000100001001000000110101011001111101001101010 0
03
#95
b0001010 #
b0001001 +
b0001000 ,
1-
0.
1/
13
b0001110010100100100110011101101001110001 6
#96
b100111111110100010100101111100101011111100010011110110101000100110 0
03
#97
b0001011 #
b100111111110100010100101111100101011111100010011110110101000100110 $
b001001100000111101101011101011111000101001110111110110101000101010 '
0*
b0001010 +
b0001001 ,
1.
0/
13
b1010011101111101101010001010100111010001 6
08
#98
03
#99
b0001100 #
b100111111110100010100101111100101011111100010011110110101000100110 '
1*
b0001011 +
b0001010 ,
0-
1/
13
b0110001001100000111101101011101011111000 6
18
#100
b011001001000101010010110111011010000101010011101100001000000010010 0
03
#101
b0001101 #
0*
b0001100 +
b0001011 ,
1-
0.
13
b0111110010101111110001001111011010100010 6
08
#102
03
#103
b0001110 #
b011001001000101010010110111011010000101010011101100001000000010010 $
1*
b0001101 +
b0001100 ,
0-
1.
0/
13
b1101101010001001101001111111101000101001 6
18
#104
b001011111011111101001000010110101100001101010000001100001010110010 0
03
#105
b0001111 #
b0001110 +
b0001101 ,
1-
0.
1/
13
b1110100010100101111100101011111100010011 6
#106
b001011001010011100000101000001111000010010010000010101011001010010 0
03
#107
b0010000 #
b001011001010011100000101000001111000010010010000010101011001010010 $
b011001001000101010010110111011010000101010011101100001000000010010 '
0*
b0001111 +
b0001110 ,
1.
0/
13
b0010101001110110000100000001001010011111 6
08
#108
03
#109
b0010001 #
b001011001010011100000101000001111000010010010000010101011001010010 '
1*
b0010000 +
b0001111 ,
0-
1/
13
b0100100110010010001010100101101110110100 6
18
#110
b011001010111100111111100101110110111010110100111111101001010000110 0
03
#111
b0010010 #
0*
b0010001 +
b0010000 ,
1-
0.
13
b0101000001111000010010010000010101011001 6
08
#112
03
#113
b0010011 #
b011001010111100111111100101110110111010110100111111101001010000110 $
1*
b0010010 +
b0010001 ,
0-
1.
0/
13
b0001010101100101001000101100101001110000 6
18
#114
b110100110101011111110010011101110110011100011101111101100101101110 0
03
#115
b0010100 #
b0010011 +
b0010010 ,
1-
0.
1/
13
b0010100111000001010000011110000100100100 6
#116
b011111000100010101000100000101010100001001010110011111100101101110 0
03
#117
b0010101 #
b011111000100010101000100000101010100001001010110011111100101101110 $
b011001010111100111111100101110110111010110100111111101001010000110 '
0*
b0010100 +
b0010011 ,
1.
0/
13
b0111010110100111111101001010000110001011 6
08
#118
03
#119
b0010110 #
b011111000100010101000100000101010100001001010110011111100101101110 '
1*
b0010101 +
b0010100 ,
0-
1/
13
b0110111001100101011110011111110010111011 6
18
#120
b011111101111010110010001100111010100010110011010011000110110000110 0
03
#121
b0010111 #
0*
b0010110 +
b0010101 ,
1-
0.
13
b0001000001010101000010010101100111111001 6
08
#122
03
#123
b0011000 #
b011111101111010110010001100111010100010110011010011000110110000110 $
1*
b0010111 +
b0010110 ,
0-
1.
0/
13
b0110011111100101101110011111000100010101 6
18
#124
b101001100000011101101000010010000011111111100111100111110001100010 0
03
#125
b0011001 #
b0011000 +
b0010111 ,
1-
0.
1/
13
b1100010001010100010000010101010000100101 6
#126
b110101101110111100000110110010110001101101111100100011000101011010 0
03
#127
b0011010 #
b110101101110111100000110110010110001101101111100100011000101011010 $
b011111101111010110010001100111010100010110011010011000110110000110 '
0*
b0011001 +
b0011000 ,
1.
0/
13
b0101000101100110100110001101100001100111 6
08
#128
03
#129
b0011011 #
b110101101110111100000110110010110001101101111100100011000101011010 '
1*
b0011010 +
b0011001 ,
0-
1/
13
b0101011010011111101111010110010001100111 6
18
#130
b111000101011001101000011110001110110110111011011101000111000111110 0
03
#131
b0011100 #
0*
b0011011 +
b0011010 ,
1-
0.
13
b0000011011001011000110110111110010001100 6
08
#132
03
#133
b0011101 #
b111000101011001101000011110001110110110111011011101000111000111110 $
1*
b0011100 +
b0011011 ,
0-
1.
0/
13
b1111001000110001010110101101011011101111 6
18
#134
b000011010110001001111111110010110111000000100101101111110000100110 0
03
#135
b0011110 #
b0011101 +
b0011100 ,
1-
0.
1/
13
b0101101110111100000110110010110001101101 6
#136
b101001010010000100000011010010101010111011001110010000110111110110 0
03
#137
b0011111 #
b101001010010000100000011010010101010111011001110010000110111110110 $
b111000101011001101000011110001110110110111011011101000111000111110 '
0*
b0011110 +
b0011101 ,
1.
0/
13
b0111011011011101101110100011100011111011 6
08
#138
03
#139
b0100000 #
b101001010010000100000011010010101010111011001110010000110111110110 '
1*
b0011111 +
b0011110 ,
0-
1/
13
b1101111101101110001010110011010000111100 6
18
#140
b100000110111010110000000111011101000101000000011101001000110110110 0
03
#141
b0000000 #
0*
b0100000 +
b0011111 ,
1-
0.
13
b0100000011010010101010111011001110010000 6
08
#142
03
#143
b0000001 #
b100000110111010110000000111011101000101000000011101001000110110110 $
1*
b0000000 +
b0100000 ,
0-
1.
0/
13
b1100111001000011011111011010100101001000 6
18
#144
b110110111001101100010110111110110011100011011111010011111110000110 0
03
#145
b0000010 #
b0000001 +
b0000000 ,
1-
0.
1/
13
b1010010100100001000000110100101010101110 6
#146
b110111011100110100011100000000010001011101011101001101001001000010 0
03
#147
b0000011 #
b110111011100110100011100000000010001011101011101001101001001000010 $
b100000110111010110000000111011101000101000000011101001000110110110 '
0*
b0000010 +
b0000001 ,
1.
0/
13
b1011101000101000000011101001000110110110 6
08
#148
03
#149
b0000100 #
b110111011100110100011100000000010001011101011101001101001001000010 '
1*
b0000011 +
b0000010 ,
0-
1/
13
b0100100100001010000011011101011000000011 6
18
#150
b111010110110001100110110001010111101011011100000010001100110100010 0
03
#151
b0000101 #
b0000100 +
b0000011 ,
1-
0.
13
b1101000111000000000100010111010111010011 6
#152
b011000010100101011011101000111100010110011110001101001001100101110 0
03
#153
b0000110 #
b011000010100101011011101000111100010110011110001101001001100101110 $
0*
b0000101 +
b0000100 ,
1.
0/
13
b1101011101001101001001000010110111011100 6
08
#154
03
#155
b0000111 #
b011000010100101011011101000111100010110011110001101001001100101110 '
1*
b0000110 +
b0000101 ,
0-
1/
13
b1011011101110011010001110000000001000101 6
18
#156
b000011111000111011000000011101011110110111100100011100011011001010 0
03
#157
b0001000 #
0*
b0000111 +
b0000110 ,
1-
0.
13
b0001111000101100111100011010010011001011 6
08
#158
03
#159
b0001001 #
b000011111000111011000000011101011110110111100100011100011011001010 $
1*
b0001000 +
b0000111 ,
0-
1.
0/
13
b1001001100101110011000010100101011011101 6
18
#160
b010101100100000110001001101111110010100011100000100111010000010110 0
03
#161
b0001010 #
b0001001 +
b0001000 ,
1-
0.
1/
13
b0010101101110100011110001011001111000110 6
#162
b010101000101010011010111101110101110101001010010011010011101001110 0
03
#163
b0001011 #
b010101000101010011010111101110101110101001010010011010011101001110 $
b000011111000111011000000011101011110110111100100011100011011001010 '
0*
b0001010 +
b0001001 ,
1.
0/
13
b1101111001000111000110110010100110000101 6
08
#164
03
#165
b0001100 #
b010101000101010011010111101110101110101001010010011010011101001110 '
1*
b0001011 +
b0001010 ,
0-
1/
13
b1110000011111000111011000000011101011110 6
18
#166
b010011011011010100010100110000011111010111110001101001101110001110 0
03
#167
b0001101 #
0*
b0001100 +
b0001011 ,
1-
0.
13
b1110111010111010100101001001101001110100 6
08
#168
03
#169
b0001110 #
b010011011011010100010100110000011111010111110001101001101110001110 $
1*
b0001101 +
b0001100 ,
0-
1.
0/
13
b0110100111010011100101010001010100110101 6
18
#170
b111000010100100011001100010001101110111101101100100101100101100010 0
03
#171
b0001111 #
b0001110 +
b0001101 ,
1-
0.
1/
13
b0101010011010111101110101110101001010010 6
#172
b101000101110001010011101111100001000111111100010101010010001100110 0
03
#173
b0010000 #
b101000101110001010011101111100001000111111100010101010010001100110 $
b010011011011010100010100110000011111010111110001101001101110001110 '
0*
b0001111 +
b0001110 ,
1.
0/
13
b1101011111000110100110111000111001010100 6
08
#174
03
#175
b0010001 #
b101000101110001010011101111100001000111111100010101010010001100110 '
1*
b0010000 +
b0001111 ,
0-
1/
13
b1001100100110110110101000101001100000111 6
18
#176
b110010111001100011010001000111111000101101000110010001001101011010 0
03
#177
b0010010 #
0*
b0010001 +
b0010000 ,
1-
0.
13
b1101111100001000111111100010101010010001 6
08
#178
03
#179
b0010011 #
b110010111001100011010001000111111000101101000110010001001101011010 $
1*
b0010010 +
b0010001 ,
0-
1.
0/
13
b1010101001000110011010100010111000101001 6
18
#180
b100111110100011000101001100101101000010001110000101000101110010110 0
03
#181
b0010100 #
b0010011 +
b0010010 ,
1-
0.
1/
13
b1011100010100111011111000010001111111000 6
#182
b010000010101011111010010110111001100110100110110001110111111100010 0
03
#183
b0010101 #
b010000010101011111010010110111001100110100110110001110111111100010 $
b110010111001100011010001000111111000101101000110010001001101011010 '
0*
b0010100 +
b0010011 ,
1.
0/
13
b1000101101000110010001001101011010101000 6
08
#184
03
#185
b0010110 #
b010000010101011111010010110111001100110100110110001110111111100010 '
1*
b0010101 +
b0010100 ,
0-
1/
13
b1110001011001011100110001101000100011111 6
18
#186
b100000010111001100110011010110001110101011101100100001101011000010 0
03
#187
b0010111 #
0*
b0010110 +
b0010101 ,
1-
0.
13
b0100101101110011001101001101100011101111 6
08
#188
03
#189
b0011000 #
b100000010111001100110011010110001110101011101100100001101011000010 $
1*
b0010111 +
b0010110 ,
0-
1.
0/
13
b0110001110111111100010010000010101011111 6
18
#190
b010100111010010111010010101111001110101000001011001001100101100010 0
03
#191
b0011001 #
b0011000 +
b0010111 ,
1-
0.
1/
13
b0001010101111101001011011100110011010011 6
#192
b111011000101110111001011110110100001100101110110010001001101100110 0
03
#193
b0011010 #
b111011000101110111001011110110100001100101110110010001001101100110 $
b100000010111001100110011010110001110101011101100100001101011000010 '
0*
b0011001 +
b0011000 ,
1.
0/
13
b0011101010111011001000011010110000100100 6
08
#194
03
#195
b0011011 #
b111011000101110111001011110110100001100101110110010001001101100110 '
1*
b0011010 +
b0011001 ,
0-
1/
13
b1101100110100000010111001100110011010110 6
18
#196
b110110010000100001011001011011100111000010110101000000000010110010 0
03
#197
b0011100 #
0*
b0011011 +
b0011010 ,
1-
0.
13
b1100101111011010000110010111011001000100 6
08
#198
03
#199
b0011101 #
b110110010000100001011001011011100111000010110101000000000010110010 $
1*
b0011100 +
b0011011 ,
0-
1.
0/
13
b1101100100010011011001101110110001011101 6
18
#200
b111100011111101110010011101111000000100111011101010100010000100110 0
03
#201
b0011110 #
b0011101 +
b0011100 ,
1-
0.
1/
13
b1011000101110111001011110110100001100101 6
#202
b001111100011111101100110100001010011111111011111100110110111100110 0
03
#203
b0011111 #
b001111100011111101100110100001010011111111011111100110110111100110 $
b110110010000100001011001011011100111000010110101000000000010110010 '
0*
b0011110 +
b0011101 ,
1.
0/
13
b1110011100001011010100000000001011001011 6
08
#204
03
#205
b0100000 #
b001111100011111101100110100001010011111111011111100110110111100110 '
1*
b0011111 +
b0011110 ,
0-
1/
13
b1101111001101101100100001000010110010110 6
18
#206
b100110100100100110101101001101000011101101110101000001001100010110 0
03
#207
b0000000 #
0*
b0100000 +
b0011111 ,
1-
0.
13
b1101100110100001010011111111011111100110 6
08
#208
03
#209
b0000001 #
b100110100100100110101101001101000011101101110101000001001100010110 $
1*
b0000000 +
b0100000 ,
0-
1.
0/
13
b1101111110011011011110011000111110001111 6
18
#210
b110110100110010000001011010000001100110000001100011110000011101110 0
03
#211
b0000010 #
b0000001 +
b0000000 ,
1-
0.
1/
13
b0011111000111111011001101000010100111111 6
#212
b011001110000001001110010111101110000011100000000101001011011010110 0
03
#213
b0000011 #
b011001110000001001110010111101110000011100000000101001011011010110 $
b100110100100100110101101001101000011101101110101000001001100010110 '
0*
b0000010 +
b0000001 ,
1.
0/
13
b1101000011101101110101000001001100010110 6
08
#214
03
#215
b0000100 #
b011001110000001001110010111101110000011100000000101001011011010110 '
1*
b0000011 +
b0000010 ,
0-
1/
13
b0101101101011010011010010010011010110100 6
18
#216
b001000101000111010101101110011010110100100010110010010110010010010 0
03
#217
b0000101 #
b0000100 +
b0000011 ,
1-
0.
13
b0010011100101111011100000111000000001010 6
#218
b110100110111100011011110000101010100000011000011100011111010000110 0
03
#219
b0000110 #
b110100110111100011011110000101010100000011000011100011111010000110 $
0*
b0000101 +
b0000100 ,
1.
0/
13
b1100000000101001011011010110011001110000 6
08
#220
03
#221
b0000111 #
b110100110111100011011110000101010100000011000011100011111010000110 '
1*
b0000110 +
b0000101 ,
0-
1/
13
b1001100111000000100111001011110111000001 6
18
#222
b001110011110000010000101101000001101100101010101001111001010100110 0
03
#223
b0001000 #
0*
b0000111 +
b0000110 ,
1-
0.
13
b0001010101000000110000111000111110100001 6
08
#224
03
#225
b0001001 #
b001110011110000010000101101000001101100101010101001111001010100110 $
1*
b0001000 +
b0000111 ,
0-
1.
0/
13
b0011111010000110110100110111100011011110 6
18
#226
b000101101000111111100111101100110100101100010000101100101010101110 0
03
#227
b0001010 #
b0001001 +
b0001000 ,
1-
0.
1/
13
b1110001101111000010101010000001100001110 6
#228
b001101010011010010101001101000101011110011101010101011110101110010 0
03
#229
b0001011 #
b001101010011010010101001101000101011110011101010101011110101110010 $
b001110011110000010000101101000001101100101010101001111001010100110 '
0*
b0001010 +
b0001001 ,
1.
0/
13
b1001010101010011110010101001101101001101 6
08
#230
03
#231
b0001100 #
b001101010011010010101001101000101011110011101010101011110101110010 '
1*
b0001011 +
b0001010 ,
0-
1/
13
b0010001110011110000010000101101000001101 6
18
#232
b001110101100011100001101100010010010010010010100010010011101001010 0
03
#233
b0001101 #
0*
b0001100 +
b0001011 ,
1-
0.
13
b0110100010101111001110101010101111010111 6
08
#234
03
#235
b0001110 #
b001110101100011100001101100010010010010010010100010010011101001010 $
1*
b0001101 +
b0001100 ,
0-
1.
0/
13
b1010111101011100100011010100110100101010 6
18
#236
b100101000000110011101110000110000111010100100101101001011000110010 0
03
#237
b0001111 #
b0001110 +
b0001101 ,
1-
0.
1/
13
b0011010010101001101000101011110011101010 6
#238
b100101110011001001001100010000110101011110011010101000101001101110 0
03
#239
b0010000 #
b100101110011001001001100010000110101011110011010101000101001101110 $
b001110101100011100001101100010010010010010010100010010011101001010 '
0*
b0001111 +
b0001110 ,
1.
0/
13
b1001001001010001001001110100101000110101 6
08
#240
03
#241
b0010001 #
b100101110011001001001100010000110101011110011010101000101001101110 '
1*
b0010000 +
b0001111 ,
0-
1/
13
b1011100011101011000111000011011000100100 6
18
#242
b010001111101001101110011010000111010110001001111011111010001010010 0
03
#243
b0010010 #
0*
b0010001 +
b0010000 ,
1-
0.
13
b1100010000110101011110011010101000101001 6
08
#244
03
#245
b0010011 #
b010001111101001101110011010000111010110001001111011111010001010010 $
1*
b0010010 +
b0010001 ,
0-
1.
0/
13
b1010100010100110111010010111001100100100 6
18
#246
b111010111111001001111101010110011101000100111101101010000001000110 0
03
#247
b0010100 #
b0010011 +
b0010010 ,
1-
0.
1/
13
b1100110010010011000100001101010111100110 6
#248
b111110110010110011000011001101011010101001001001011010000111100110 0
03
#249
b0010101 #
b111110110010110011000011001101011010101001001001011010000111100110 $
b010001111101001101110011010000111010110001001111011111010001010010 '
0*
b0010100 +
b0010011 ,
1.
0/
13
b1010110001001111011111010001010010100101 6
08
#250
03
#251
b0010110 #
b111110110010110011000011001101011010101001001001011010000111100110 '
1*
b0010101 +
b0010100 ,
0-
1/
13
b1110011001000111110100110111001101000011 6
18
#252
b011111010001111000100001110000100111001011111001100011110100110110 0
03
#253
b0010111 #
0*
b0010110 +
b0010101 ,
1-
0.
13
b0000110011010110101010010010010110100001 6
08
#254
03
#255
b0011000 #
b011111010001111000100001110000100111001011111001100011110100110110 $
1*
b0010111 +
b0010110 ,
0-
1.
0/
13
b1001011010000111100110111110110010110011 6
18
#256
b100010001101100011010011000010001011011011100010001111110011001110 0
03
#257
b0011001 #
b0011000 +
b0010111 ,
1-
0.
1/
13
b1011001011001100001100110101101010100100 6
#258
b001110101000111100011010001100010111011010000101001110101001001010 0
03
#259
b0011010 #
b001110101000111100011010001100010111011010000101001110101001001010 $
b011111010001111000100001110000100111001011111001100011110100110110 '
0*
b0011001 +
b0011000 ,
1.
0/
13
b1001110010111110011000111101001101101111 6
08
#260
03
#261
b0011011 #
b001110101000111100011010001100010111011010000101001110101001001010 '
1*
b0011010 +
b0011001 ,
0-
1/
13
b1001001010011111010001111000100001110000 6
18
#262
b100010011100111100110101010000101011010001100010001110000110001010 0
03
#263
b0011100 #
0*
b0011011 +
b0011010 ,
1-
0.
13
b0001101000110001011101101000010100111010 6
08
#264
03
#265
b0011101 #
b100010011100111100110101010000101011010001100010001110000110001010 $
1*
b0011100 +
b0011011 ,
0-
1.
0/
13
b0001010011101010010010100011101010001111 6
18
#266
b101011100001110111001111101001001101100101111000000110111000101010 0
03
#267
b0011110 #
b0011101 +
b0011100 ,
1-
0.
1/
13
b1110101000111100011010001100010111011010 6
#268
b000000010000110001011110110110101010111110110011000000100011101110 0
03
#269
b0011111 #
b000000010000110001011110110110101010111110110011000000100011101110 $
b100010011100111100110101010000101011010001100010001110000110001010 '
0*
b0011110 +
b0011101 ,
1.
0/
13
b0010101101000110001000111000011000101000 6
08
#270
03
#271
b0100000 #
b000000010000110001011110110110101010111110110011000000100011101110 '
1*
b0011111 +
b0011110 ,
0-
1/
13
b1000111011101000100111001111001101010100 6
18
#272
b110000000111101110110111010010101101110010101000100110010110100010 0
03
#273
b0000000 #
0*
b0100000 +
b0011111 ,
1-
0.
13
b0001011110110110101010111110110011000000 6
08
#274
03
#275
b0000001 #
b110000000111101110110111010010101101110010101000100110010110100010 $
1*
b0000000 +
b0100000 ,
0-
1.
0/
13
b1011001100000010001110111000000001000011 6
18
#276
b100001100010100001000001100001000010111010011110001100010011111010 0
03
#277
b0000010 #
b0000001 +
b0000000 ,
1-
0.
1/
13
b0000000100001100010111101101101010101111 6
#278
b111001011110011011101001011100100011001010101111100011101110000010 0
03
#279
b0000011 #
b111001011110011011101001011100100011001010101111100011101110000010 $
b110000000111101110110111010010101101110010101000100110010110100010 '
0*
b0000010 +
b0000001 ,
1.
0/
13
b0010101101110010101000100110010110100010 6
08
#280
03
#281
b0000100 #
b111001011110011011101001011100100011001010101111100011101110000010 '
1*
b0000011 +
b0000010 ,
0-
1/
13
b1110111000001011000000011110111011011101 6
18
#282
b101100010011101000100100011000100000111110001101001101010001001110 0
03
#283
b0000101 #
b0000100 +
b0000011 ,
1-
0.
13
b0110111010010111001000110010101011111000 6
#284
b000100100110101100101001111110100010011100011101001101011110101010 0
03
#285
b0000110 #
b000100100110101100101001111110100010011100011101001101011110101010 $
0*
b0000101 +
b0000100 ,
1.
0/
13
b1010101111100011101110000010111001011110 6
08
#286
03
#287
b0000111 #
b000100100110101100101001111110100010011100011101001101011110101010 '
1*
b0000110 +
b0000101 ,
0-
1/
13
b1011100101111001101110100101110010001100 6
18
#288
b011000001010001001100111000111111110110100110001101100011111001110 0
03
#289
b0001000 #
0*
b0000111 +
b0000110 ,
1-
0.
13
b1111101000100111000111010011010111101010 6
08
#290
03
#291
b0001001 #
b011000001010001001100111000111111110110100110001101100011111001110 $
1*
b0001000 +
b0000111 ,
0-
1.
0/
13
b1101011110101010000100100110101100101001 6
18
#292
b011110111000110000111011100101010001011010110000011111110000010010 0
03
#293
b0001010 #
b0001001 +
b0001000 ,
1-
0.
1/
13
b1010110010100111111010001001110001110100 6
#294
b000110001100100010101010111001001010010001110010001111110100010010 0
03
#295
b0001011 #
b000110001100100010101010111001001010010001110010001111110100010010 $
b011000001010001001100111000111111110110100110001101100011111001110 '
0*
b0001010 +
b0001001 ,
1.
0/
13
b1101001100011011000111110011100001001001 6
08
#296
03
#297
b0001100 #
b000110001100100010101010111001001010010001110010001111110100010010 '
1*
b0001011 +
b0001010 ,
0-
1/
13
b0010011000001010001001100111000111111110 6
18
#298
b001110111001000001011011100100101100001011110111100010001001111010 0
03
#299
b0001101 #
0*
b0001100 +
b0001011 ,
1-
0.
13
b1011100100101001000111001000111111010001 6
08
#300
03
#301
b0001110 #
b001110111001000001011011100100101100001011110111100010001001111010 $
1*
b0001101 +
b0001100 ,
0-
1.
0/
13
b0011111101000100100001100011001000101010 6
18
#302
b010101010100100011001000010000001011000100010111001001110111101010 0
03
#303
b0001111 #
b0001110 +
b0001101 ,
1-
0.
1/
13
b1100100010101010111001001010010001110010 6
#304
b101100011100010001101000001110101001011010011001010001001111001010 0
03
#305
b0010000 #
b101100011100010001101000001110101001011010011001010001001111001010 $
b001110111001000001011011100100101100001011110111100010001001111010 '
0*
b0001111 +
b0001110 ,
1.
0/
13
b0000101111011110001000100111101000011000 6
08
#306
03
