testsuite/verilator_sim/circ_buf/sync_ring_2_128/Vsonic_sync_ring.vcd
$version Generated by VerilatedVcd $end
$date Fri Nov 18 19:24:56 2011
 $end
$timescale 1ns $end

 $scope module TOP $end
  $var wire  2 9 data_in [1:0] $end
  $var wire 128 = data_out [127:0] $end
  $var wire 10 8 rd_address [9:0] $end
  $var wire  1 ; rd_clock $end
  $var wire 15 7 wr_address [14:0] $end
  $var wire  1 : wr_clock $end
  $var wire  1 < wrena $end
  $scope module v $end
   $var wire  2 9 data_in [1:0] $end
   $var wire 128 = data_out [127:0] $end
   $var wire 64 ' data_out_bot [63:0] $end
   $var wire 64 % data_out_top [63:0] $end
   $var wire 10 8 rd_address [9:0] $end
   $var wire  1 ; rd_clock $end
   $var wire 15 7 wr_address [14:0] $end
   $var wire  1 : wr_clock $end
   $var wire  1 < wrena $end
   $scope module bot_half $end
    $var wire  2 9 data [1:0] $end
    $var wire  1 : inclock $end
    $var wire  1 ; outclock $end
    $var wire 64 ' q [63:0] $end
    $var wire 10 8 rdaddress [9:0] $end
    $var wire 64 ' sub_wire0 [63:0] $end
    $var wire 15 $ wraddress [14:0] $end
    $var wire  1 B wren $end
    $scope module altsyncram_component $end
     $var wire 15 $ address_a [14:0] $end
     $var wire 10 8 address_b [9:0] $end
     $var wire  1 : clock0 $end
     $var wire  1 ; clock1 $end
     $var wire  1 C cs_a $end
     $var wire  1 C cs_b $end
     $var wire  2 9 data_a [1:0] $end
     $var wire  2 G data_a_out [1:0] $end
     $var wire 64 + data_b_out [63:0] $end
     $var wire 32 6 i5 [31:0] $end
     $var wire  1 C oe_a $end
     $var wire  1 C oe_b $end
     $var wire 32 5 port_a_bit_count_low [31:0] $end
     $var wire 64 + q_b [63:0] $end
     $var wire  2 2 temp_wa [1:0] $end
     $var wire 64 3 temp_wb [63:0] $end
     $var wire  1 B wren_a $end
     $var wire  1 F wren_b $end
    $upscope $end
   $upscope $end
   $scope module top_half $end
    $var wire  2 9 data [1:0] $end
    $var wire  1 : inclock $end
    $var wire  1 ; outclock $end
    $var wire 64 % q [63:0] $end
    $var wire 10 8 rdaddress [9:0] $end
    $var wire 64 % sub_wire0 [63:0] $end
    $var wire 15 # wraddress [14:0] $end
    $var wire  1 A wren $end
    $scope module altsyncram_component $end
     $var wire 15 # address_a [14:0] $end
     $var wire 10 8 address_b [9:0] $end
     $var wire  1 : clock0 $end
     $var wire  1 ; clock1 $end
     $var wire  1 C cs_a $end
     $var wire  1 C cs_b $end
     $var wire  2 9 data_a [1:0] $end
     $var wire  2 E data_a_out [1:0] $end
     $var wire 64 ) data_b_out [63:0] $end
     $var wire 32 1 i5 [31:0] $end
     $var wire  1 C oe_a $end
     $var wire  1 C oe_b $end
     $var wire 32 0 port_a_bit_count_low [31:0] $end
     $var wire 64 ) q_b [63:0] $end
     $var wire  2 - temp_wa [1:0] $end
     $var wire 64 . temp_wb [63:0] $end
     $var wire  1 A wren_a $end
     $var wire  1 D wren_b $end
    $upscope $end
   $upscope $end
  $upscope $end
 $upscope $end
$enddefinitions $end


#0
b000000000000000 #
b000000000000000 $
b0000000000000000000000000000000000000000000000000000000000000000 %
b0000000000000000000000000000000000000000000000000000000000000000 )
b0000000000000000000000000000000000000000000000000000000000000000 '
b0000000000000000000000000000000000000000000000000000000000000000 +
b00 -
b0000000000000000000000000000000000000000000000000000000000000000 .
b00000000000000000000000000000000 0
b00000000000000000000000000000000 1
b00 2
b0000000000000000000000000000000000000000000000000000000000000000 3
b00000000000000000000000000000000 5
b00000000000000000000000000000000 6
b000000000000000 7
1<
b00000000000000000000000000000000000000000000000000000000000000000000000000000000000000000000000000000000000000000000000000000000 =
0A
1B
b0000000000 8
0:
0;
b11 9
0D
b00 E
0F
1C
b00 G
#1
b11 2
b0000000000000000000000000000000000000000000000000000000000000011 3
b00000000000000000000000000000010 5
b00000000000000000000000000000010 6
1:
1;
#2
b000000000000001 #
b000000000000001 $
b000000000000001 7
0:
0;
b00 9
#3
b0000000000000000000000000000000000000000000000000000000000000011 '
b0000000000000000000000000000000000000000000000000000000000000011 +
b00 2
b00000000000000000000000000000100 5
b00000000000000000000000000000000000000000000000000000000000000000000000000000000000000000000000000000000000000000000000000000011 =
1:
1;
#4
b000000000000010 #
b000000000000010 $
b000000000000010 7
0:
0;
#5
b00000000000000000000000000000110 5
1:
1;
#6
b000000000000011 #
b000000000000011 $
b000000000000011 7
0:
0;
b01 9
#7
b01 2
b0000000000000000000000000000000000000000000000000000000001000011 3
b00000000000000000000000000001000 5
1:
1;
#8
b000000000000100 #
b000000000000100 $
b000000000000100 7
0:
0;
b10 9
#9
b0000000000000000000000000000000000000000000000000000000001000011 '
b0000000000000000000000000000000000000000000000000000000001000011 +
b10 2
b0000000000000000000000000000000000000000000000000000001001000011 3
b00000000000000000000000000001010 5
b00000000000000000000000000000000000000000000000000000000000000000000000000000000000000000000000000000000000000000000000001000011 =
1:
1;
#10
b000000000000101 #
b000000000000101 $
b000000000000101 7
0:
0;
b11 9
#11
b0000000000000000000000000000000000000000000000000000001001000011 '
b0000000000000000000000000000000000000000000000000000001001000011 +
b11 2
b0000000000000000000000000000000000000000000000000000111001000011 3
b00000000000000000000000000001100 5
b00000000000000000000000000000000000000000000000000000000000000000000000000000000000000000000000000000000000000000000001001000011 =
1:
1;
#12
b000000000000110 #
b000000000000110 $
b000000000000110 7
0:
0;
b00 9
#13
b0000000000000000000000000000000000000000000000000000111001000011 '
b0000000000000000000000000000000000000000000000000000111001000011 +
b00 2
b00000000000000000000000000001110 5
b00000000000000000000000000000000000000000000000000000000000000000000000000000000000000000000000000000000000000000000111001000011 =
1:
1;
#14
b000000000000111 #
b000000000000111 $
b000000000000111 7
0:
0;
b11 9
#15
b11 2
b0000000000000000000000000000000000000000000000001100111001000011 3
b00000000000000000000000000010000 5
1:
1;
#16
b000000000001000 #
b000000000001000 $
b000000000001000 7
0:
0;
b10 9
#17
b0000000000000000000000000000000000000000000000001100111001000011 '
b0000000000000000000000000000000000000000000000001100111001000011 +
b10 2
b0000000000000000000000000000000000000000000000101100111001000011 3
b00000000000000000000000000010010 5
b00000000000000000000000000000000000000000000000000000000000000000000000000000000000000000000000000000000000000001100111001000011 =
1:
1;
#18
b000000000001001 #
b000000000001001 $
b000000000001001 7
0:
0;
#19
b0000000000000000000000000000000000000000000000101100111001000011 '
b0000000000000000000000000000000000000000000000101100111001000011 +
b0000000000000000000000000000000000000000000010101100111001000011 3
b00000000000000000000000000010100 5
b00000000000000000000000000000000000000000000000000000000000000000000000000000000000000000000000000000000000000101100111001000011 =
1:
1;
#20
b000000000001010 #
b000000000001010 $
b000000000001010 7
0:
0;
b00 9
#21
b0000000000000000000000000000000000000000000010101100111001000011 '
b0000000000000000000000000000000000000000000010101100111001000011 +
b00 2
b00000000000000000000000000010110 5
b00000000000000000000000000000000000000000000000000000000000000000000000000000000000000000000000000000000000010101100111001000011 =
1:
1;
#22
b000000000001011 #
b000000000001011 $
b000000000001011 7
0:
0;
b11 9
#23
b11 2
b0000000000000000000000000000000000000000110010101100111001000011 3
b00000000000000000000000000011000 5
1:
1;
#24
b000000000001100 #
b000000000001100 $
b000000000001100 7
0:
0;
b10 9
#25
b0000000000000000000000000000000000000000110010101100111001000011 '
b0000000000000000000000000000000000000000110010101100111001000011 +
b10 2
b0000000000000000000000000000000000000010110010101100111001000011 3
b00000000000000000000000000011010 5
b00000000000000000000000000000000000000000000000000000000000000000000000000000000000000000000000000000000110010101100111001000011 =
1:
1;
#26
b000000000001101 #
b000000000001101 $
b000000000001101 7
0:
0;
#27
b0000000000000000000000000000000000000010110010101100111001000011 '
b0000000000000000000000000000000000000010110010101100111001000011 +
b0000000000000000000000000000000000001010110010101100111001000011 3
b00000000000000000000000000011100 5
b00000000000000000000000000000000000000000000000000000000000000000000000000000000000000000000000000000010110010101100111001000011 =
1:
1;
#28
b000000000001110 #
b000000000001110 $
b000000000001110 7
0:
0;
b11 9
#29
b0000000000000000000000000000000000001010110010101100111001000011 '
b0000000000000000000000000000000000001010110010101100111001000011 +
b11 2
b0000000000000000000000000000000000111010110010101100111001000011 3
b00000000000000000000000000011110 5
b00000000000000000000000000000000000000000000000000000000000000000000000000000000000000000000000000001010110010101100111001000011 =
1:
1;
#30
b000000000001111 #
b000000000001111 $
b000000000001111 7
0:
0;
b00 9
#31
b0000000000000000000000000000000000111010110010101100111001000011 '
b0000000000000000000000000000000000111010110010101100111001000011 +
b00 2
b00000000000000000000000000100000 5
b00000000000000000000000000000000000000000000000000000000000000000000000000000000000000000000000000111010110010101100111001000011 =
1:
1;
#32
b000000000010000 #
b000000000010000 $
b000000000010000 7
0:
0;
b11 9
#33
b11 2
b0000000000000000000000000000001100111010110010101100111001000011 3
b00000000000000000000000000100010 5
1:
1;
#34
b000000000010001 #
b000000000010001 $
b000000000010001 7
0:
0;
b10 9
#35
b0000000000000000000000000000001100111010110010101100111001000011 '
b0000000000000000000000000000001100111010110010101100111001000011 +
b10 2
b0000000000000000000000000000101100111010110010101100111001000011 3
b00000000000000000000000000100100 5
b00000000000000000000000000000000000000000000000000000000000000000000000000000000000000000000001100111010110010101100111001000011 =
1:
1;
#36
b000000000010010 #
b000000000010010 $
b000000000010010 7
0:
0;
#37
b0000000000000000000000000000101100111010110010101100111001000011 '
b0000000000000000000000000000101100111010110010101100111001000011 +
b0000000000000000000000000010101100111010110010101100111001000011 3
b00000000000000000000000000100110 5
b00000000000000000000000000000000000000000000000000000000000000000000000000000000000000000000101100111010110010101100111001000011 =
1:
1;
#38
b000000000010011 #
b000000000010011 $
b000000000010011 7
0:
0;
b11 9
#39
b0000000000000000000000000010101100111010110010101100111001000011 '
b0000000000000000000000000010101100111010110010101100111001000011 +
b11 2
b0000000000000000000000001110101100111010110010101100111001000011 3
b00000000000000000000000000101000 5
b00000000000000000000000000000000000000000000000000000000000000000000000000000000000000000010101100111010110010101100111001000011 =
1:
1;
#40
b000000000010100 #
b000000000010100 $
b000000000010100 7
0:
0;
#41
b0000000000000000000000001110101100111010110010101100111001000011 '
b0000000000000000000000001110101100111010110010101100111001000011 +
b0000000000000000000000111110101100111010110010101100111001000011 3
b00000000000000000000000000101010 5
b00000000000000000000000000000000000000000000000000000000000000000000000000000000000000001110101100111010110010101100111001000011 =
1:
1;
#42
b000000000010101 #
b000000000010101 $
b000000000010101 7
0:
0;
#43
b0000000000000000000000111110101100111010110010101100111001000011 '
b0000000000000000000000111110101100111010110010101100111001000011 +
b0000000000000000000011111110101100111010110010101100111001000011 3
b00000000000000000000000000101100 5
b00000000000000000000000000000000000000000000000000000000000000000000000000000000000000111110101100111010110010101100111001000011 =
1:
1;
#44
b000000000010110 #
b000000000010110 $
b000000000010110 7
0:
0;
b00 9
#45
b0000000000000000000011111110101100111010110010101100111001000011 '
b0000000000000000000011111110101100111010110010101100111001000011 +
b00 2
b00000000000000000000000000101110 5
b00000000000000000000000000000000000000000000000000000000000000000000000000000000000011111110101100111010110010101100111001000011 =
1:
1;
#46
b000000000010111 #
b000000000010111 $
b000000000010111 7
0:
0;
b10 9
#47
b10 2
b0000000000000000100011111110101100111010110010101100111001000011 3
b00000000000000000000000000110000 5
1:
1;
#48
b000000000011000 #
b000000000011000 $
b000000000011000 7
0:
0;
b11 9
#49
b0000000000000000100011111110101100111010110010101100111001000011 '
b0000000000000000100011111110101100111010110010101100111001000011 +
b11 2
b0000000000000011100011111110101100111010110010101100111001000011 3
b00000000000000000000000000110010 5
b00000000000000000000000000000000000000000000000000000000000000000000000000000000100011111110101100111010110010101100111001000011 =
1:
1;
#50
b000000000011001 #
b000000000011001 $
b000000000011001 7
0:
0;
b10 9
#51
b0000000000000011100011111110101100111010110010101100111001000011 '
b0000000000000011100011111110101100111010110010101100111001000011 +
b10 2
b0000000000001011100011111110101100111010110010101100111001000011 3
b00000000000000000000000000110100 5
b00000000000000000000000000000000000000000000000000000000000000000000000000000011100011111110101100111010110010101100111001000011 =
1:
1;
#52
b000000000011010 #
b000000000011010 $
b000000000011010 7
0:
0;
b00 9
#53
b0000000000001011100011111110101100111010110010101100111001000011 '
b0000000000001011100011111110101100111010110010101100111001000011 +
b00 2
b00000000000000000000000000110110 5
b00000000000000000000000000000000000000000000000000000000000000000000000000001011100011111110101100111010110010101100111001000011 =
1:
1;
#54
b000000000011011 #
b000000000011011 $
b000000000011011 7
0:
0;
b10 9
#55
b10 2
b0000000010001011100011111110101100111010110010101100111001000011 3
b00000000000000000000000000111000 5
1:
1;
#56
b000000000011100 #
b000000000011100 $
b000000000011100 7
0:
0;
b00 9
#57
b0000000010001011100011111110101100111010110010101100111001000011 '
b0000000010001011100011111110101100111010110010101100111001000011 +
b00 2
b00000000000000000000000000111010 5
b00000000000000000000000000000000000000000000000000000000000000000000000010001011100011111110101100111010110010101100111001000011 =
1:
1;
#58
b000000000011101 #
b000000000011101 $
b000000000011101 7
0:
0;
#59
b00000000000000000000000000111100 5
1:
1;
#60
b000000000011110 #
b000000000011110 $
b000000000011110 7
0:
0;
b01 9
#61
b01 2
b0001000010001011100011111110101100111010110010101100111001000011 3
b00000000000000000000000000111110 5
1:
1;
#62
b000000000011111 #
b000000000011111 $
b000000000011111 7
0:
0;
#63
b0001000010001011100011111110101100111010110010101100111001000011 '
b0001000010001011100011111110101100111010110010101100111001000011 +
b0101000010001011100011111110101100111010110010101100111001000011 3
b00000000000000000000000001000000 5
b00000000000000000000000000000000000000000000000000000000000000000001000010001011100011111110101100111010110010101100111001000011 =
1:
1;
#64
b000000000000000 #
b000000000000000 $
b000000000100000 7
1A
0B
0:
0;
b10 9
#65
b0101000010001011100011111110101100111010110010101100111001000011 '
b0101000010001011100011111110101100111010110010101100111001000011 +
b10 -
b0000000000000000000000000000000000000000000000000000000000000010 .
b00000000000000000000000000000010 0
b00000000000000000000000000000010 1
b00000000000000000000000000000000000000000000000000000000000000000101000010001011100011111110101100111010110010101100111001000011 =
1:
1;
#66
b000000000000001 #
b000000000000001 $
b000000000100001 7
0:
0;
b01 9
#67
b0000000000000000000000000000000000000000000000000000000000000010 %
b0000000000000000000000000000000000000000000000000000000000000010 )
b01 -
b0000000000000000000000000000000000000000000000000000000000000110 .
b00000000000000000000000000000100 0
b00000000000000000000000000000000000000000000000000000000000000100101000010001011100011111110101100111010110010101100111001000011 =
1:
1;
#68
b000000000000010 #
b000000000000010 $
b000000000100010 7
0:
0;
b11 9
#69
b0000000000000000000000000000000000000000000000000000000000000110 %
b0000000000000000000000000000000000000000000000000000000000000110 )
b11 -
b0000000000000000000000000000000000000000000000000000000000110110 .
b00000000000000000000000000000110 0
b00000000000000000000000000000000000000000000000000000000000001100101000010001011100011111110101100111010110010101100111001000011 =
1:
1;
#70
b000000000000011 #
b000000000000011 $
b000000000100011 7
0:
0;
b00 9
#71
b0000000000000000000000000000000000000000000000000000000000110110 %
b0000000000000000000000000000000000000000000000000000000000110110 )
b00 -
b00000000000000000000000000001000 0
b00000000000000000000000000000000000000000000000000000000001101100101000010001011100011111110101100111010110010101100111001000011 =
1:
1;
#72
b000000000000100 #
b000000000000100 $
b000000000100100 7
0:
0;
b01 9
#73
b01 -
b0000000000000000000000000000000000000000000000000000000100110110 .
b00000000000000000000000000001010 0
1:
1;
#74
b000000000000101 #
b000000000000101 $
b000000000100101 7
0:
0;
#75
b0000000000000000000000000000000000000000000000000000000100110110 %
b0000000000000000000000000000000000000000000000000000000100110110 )
b0000000000000000000000000000000000000000000000000000010100110110 .
b00000000000000000000000000001100 0
b00000000000000000000000000000000000000000000000000000001001101100101000010001011100011111110101100111010110010101100111001000011 =
1:
1;
#76
b000000000000110 #
b000000000000110 $
b000000000100110 7
0:
0;
#77
b0000000000000000000000000000000000000000000000000000010100110110 %
b0000000000000000000000000000000000000000000000000000010100110110 )
b0000000000000000000000000000000000000000000000000001010100110110 .
b00000000000000000000000000001110 0
b00000000000000000000000000000000000000000000000000000101001101100101000010001011100011111110101100111010110010101100111001000011 =
1:
1;
#78
b000000000000111 #
b000000000000111 $
b000000000100111 7
0:
0;
#79
b0000000000000000000000000000000000000000000000000001010100110110 %
b0000000000000000000000000000000000000000000000000001010100110110 )
b0000000000000000000000000000000000000000000000000101010100110110 .
b00000000000000000000000000010000 0
b00000000000000000000000000000000000000000000000000010101001101100101000010001011100011111110101100111010110010101100111001000011 =
1:
1;
#80
b000000000001000 #
b000000000001000 $
b000000000101000 7
0:
0;
b11 9
#81
b0000000000000000000000000000000000000000000000000101010100110110 %
b0000000000000000000000000000000000000000000000000101010100110110 )
b11 -
b0000000000000000000000000000000000000000000000110101010100110110 .
b00000000000000000000000000010010 0
b00000000000000000000000000000000000000000000000001010101001101100101000010001011100011111110101100111010110010101100111001000011 =
1:
1;
#82
b000000000001001 #
b000000000001001 $
b000000000101001 7
0:
0;
b00 9
#83
b0000000000000000000000000000000000000000000000110101010100110110 %
b0000000000000000000000000000000000000000000000110101010100110110 )
b00 -
b00000000000000000000000000010100 0
b00000000000000000000000000000000000000000000001101010101001101100101000010001011100011111110101100111010110010101100111001000011 =
1:
1;
#84
b000000000001010 #
b000000000001010 $
b000000000101010 7
0:
0;
b01 9
#85
b01 -
b0000000000000000000000000000000000000000000100110101010100110110 .
b00000000000000000000000000010110 0
1:
1;
#86
b000000000001011 #
b000000000001011 $
b000000000101011 7
0:
0;
b10 9
#87
b0000000000000000000000000000000000000000000100110101010100110110 %
b0000000000000000000000000000000000000000000100110101010100110110 )
b10 -
b0000000000000000000000000000000000000000100100110101010100110110 .
b00000000000000000000000000011000 0
b00000000000000000000000000000000000000000001001101010101001101100101000010001011100011111110101100111010110010101100111001000011 =
1:
1;
#88
b000000000001100 #
b000000000001100 $
b000000000101100 7
0:
0;
b11 9
#89
b0000000000000000000000000000000000000000100100110101010100110110 %
b0000000000000000000000000000000000000000100100110101010100110110 )
b11 -
b0000000000000000000000000000000000000011100100110101010100110110 .
b00000000000000000000000000011010 0
b00000000000000000000000000000000000000001001001101010101001101100101000010001011100011111110101100111010110010101100111001000011 =
1:
1;
#90
b000000000001101 #
b000000000001101 $
b000000000101101 7
0:
0;
#91
b0000000000000000000000000000000000000011100100110101010100110110 %
b0000000000000000000000000000000000000011100100110101010100110110 )
b0000000000000000000000000000000000001111100100110101010100110110 .
b00000000000000000000000000011100 0
b00000000000000000000000000000000000000111001001101010101001101100101000010001011100011111110101100111010110010101100111001000011 =
1:
1;
#92
b000000000001110 #
b000000000001110 $
b000000000101110 7
0:
0;
b10 9
#93
b0000000000000000000000000000000000001111100100110101010100110110 %
b0000000000000000000000000000000000001111100100110101010100110110 )
b10 -
b0000000000000000000000000000000000101111100100110101010100110110 .
b00000000000000000000000000011110 0
b00000000000000000000000000000000000011111001001101010101001101100101000010001011100011111110101100111010110010101100111001000011 =
1:
1;
#94
b000000000001111 #
b000000000001111 $
b000000000101111 7
0:
0;
b00 9
#95
b0000000000000000000000000000000000101111100100110101010100110110 %
b0000000000000000000000000000000000101111100100110101010100110110 )
b00 -
b00000000000000000000000000100000 0
b00000000000000000000000000000000001011111001001101010101001101100101000010001011100011111110101100111010110010101100111001000011 =
1:
1;
#96
b000000000010000 #
b000000000010000 $
b000000000110000 7
0:
0;
b01 9
#97
b01 -
b0000000000000000000000000000000100101111100100110101010100110110 .
b00000000000000000000000000100010 0
1:
1;
#98
b000000000010001 #
b000000000010001 $
b000000000110001 7
0:
0;
b11 9
#99
b0000000000000000000000000000000100101111100100110101010100110110 %
b0000000000000000000000000000000100101111100100110101010100110110 )
b11 -
b0000000000000000000000000000110100101111100100110101010100110110 .
b00000000000000000000000000100100 0
b00000000000000000000000000000001001011111001001101010101001101100101000010001011100011111110101100111010110010101100111001000011 =
1:
1;
#100
b000000000010010 #
b000000000010010 $
b000000000110010 7
0:
0;
b01 9
#101
b0000000000000000000000000000110100101111100100110101010100110110 %
b0000000000000000000000000000110100101111100100110101010100110110 )
b01 -
b0000000000000000000000000001110100101111100100110101010100110110 .
b00000000000000000000000000100110 0
b00000000000000000000000000001101001011111001001101010101001101100101000010001011100011111110101100111010110010101100111001000011 =
1:
1;
#102
b000000000010011 #
b000000000010011 $
b000000000110011 7
0:
0;
b10 9
#103
b0000000000000000000000000001110100101111100100110101010100110110 %
b0000000000000000000000000001110100101111100100110101010100110110 )
b10 -
b0000000000000000000000001001110100101111100100110101010100110110 .
b00000000000000000000000000101000 0
b00000000000000000000000000011101001011111001001101010101001101100101000010001011100011111110101100111010110010101100111001000011 =
1:
1;
#104
b000000000010100 #
b000000000010100 $
b000000000110100 7
0:
0;
b00 9
#105
b0000000000000000000000001001110100101111100100110101010100110110 %
b0000000000000000000000001001110100101111100100110101010100110110 )
b00 -
b00000000000000000000000000101010 0
b00000000000000000000000010011101001011111001001101010101001101100101000010001011100011111110101100111010110010101100111001000011 =
1:
1;
#106
b000000000010101 #
b000000000010101 $
b000000000110101 7
0:
0;
b11 9
#107
b11 -
b0000000000000000000011001001110100101111100100110101010100110110 .
b00000000000000000000000000101100 0
1:
1;
#108
b000000000010110 #
b000000000010110 $
b000000000110110 7
0:
0;
b00 9
#109
b0000000000000000000011001001110100101111100100110101010100110110 %
b0000000000000000000011001001110100101111100100110101010100110110 )
b00 -
b00000000000000000000000000101110 0
b00000000000000000000110010011101001011111001001101010101001101100101000010001011100011111110101100111010110010101100111001000011 =
1:
1;
#110
b000000000010111 #
b000000000010111 $
b000000000110111 7
0:
0;
b10 9
#111
b10 -
b0000000000000000100011001001110100101111100100110101010100110110 .
b00000000000000000000000000110000 0
1:
1;
#112
b000000000011000 #
b000000000011000 $
b000000000111000 7
0:
0;
b11 9
#113
b0000000000000000100011001001110100101111100100110101010100110110 %
b0000000000000000100011001001110100101111100100110101010100110110 )
b11 -
b0000000000000011100011001001110100101111100100110101010100110110 .
b00000000000000000000000000110010 0
b00000000000000001000110010011101001011111001001101010101001101100101000010001011100011111110101100111010110010101100111001000011 =
1:
1;
#114
b000000000011001 #
b000000000011001 $
b000000000111001 7
0:
0;
b00 9
#115
b0000000000000011100011001001110100101111100100110101010100110110 %
b0000000000000011100011001001110100101111100100110101010100110110 )
b00 -
b00000000000000000000000000110100 0
b00000000000000111000110010011101001011111001001101010101001101100101000010001011100011111110101100111010110010101100111001000011 =
1:
1;
#116
b000000000011010 #
b000000000011010 $
b000000000111010 7
0:
0;
b11 9
#117
b11 -
b0000000000110011100011001001110100101111100100110101010100110110 .
b00000000000000000000000000110110 0
1:
1;
#118
b000000000011011 #
b000000000011011 $
b000000000111011 7
0:
0;
b01 9
#119
b0000000000110011100011001001110100101111100100110101010100110110 %
b0000000000110011100011001001110100101111100100110101010100110110 )
b01 -
b0000000001110011100011001001110100101111100100110101010100110110 .
b00000000000000000000000000111000 0
b00000000001100111000110010011101001011111001001101010101001101100101000010001011100011111110101100111010110010101100111001000011 =
1:
1;
#120
b000000000011100 #
b000000000011100 $
b000000000111100 7
0:
0;
b00 9
#121
b0000000001110011100011001001110100101111100100110101010100110110 %
b0000000001110011100011001001110100101111100100110101010100110110 )
b00 -
b00000000000000000000000000111010 0
b00000000011100111000110010011101001011111001001101010101001101100101000010001011100011111110101100111010110010101100111001000011 =
1:
1;
#122
b000000000011101 #
b000000000011101 $
b000000000111101 7
0:
0;
b10 9
#123
b10 -
b0000100001110011100011001001110100101111100100110101010100110110 .
b00000000000000000000000000111100 0
1:
1;
#124
b000000000011110 #
b000000000011110 $
b000000000111110 7
0:
0;
b11 9
#125
b0000100001110011100011001001110100101111100100110101010100110110 %
b0000100001110011100011001001110100101111100100110101010100110110 )
b11 -
b0011100001110011100011001001110100101111100100110101010100110110 .
b00000000000000000000000000111110 0
b00001000011100111000110010011101001011111001001101010101001101100101000010001011100011111110101100111010110010101100111001000011 =
1:
1;
#126
b000000000011111 #
b000000000011111 $
b000000000111111 7
0:
0;
b01 9
#127
b0011100001110011100011001001110100101111100100110101010100110110 %
b0011100001110011100011001001110100101111100100110101010100110110 )
b01 -
b0111100001110011100011001001110100101111100100110101010100110110 .
b00000000000000000000000001000000 0
b00111000011100111000110010011101001011111001001101010101001101100101000010001011100011111110101100111010110010101100111001000011 =
1:
1;
#128
b000000000100000 #
b000000000100000 $
b000000001000000 7
0A
1B
b0000000001 8
0:
0;
#129
b0000000000000000000000000000000000000000000000000000000000000000 %
b0000000000000000000000000000000000000000000000000000000000000000 )
b0000000000000000000000000000000000000000000000000000000000000000 '
b0000000000000000000000000000000000000000000000000000000000000000 +
b0000000000000000000000000000000000000000000000000000000000000001 3
b00000000000000000000000001000010 5
b00000000000000000000000000000000000000000000000000000000000000000000000000000000000000000000000000000000000000000000000000000000 =
1:
1;
#130
b000000000100001 #
b000000000100001 $
b000000001000001 7
0:
0;
b10 9
#131
b0000000000000000000000000000000000000000000000000000000000000001 '
b0000000000000000000000000000000000000000000000000000000000000001 +
b10 2
b0000000000000000000000000000000000000000000000000000000000001001 3
b00000000000000000000000001000100 5
b00000000000000000000000000000000000000000000000000000000000000000000000000000000000000000000000000000000000000000000000000000001 =
1:
1;
#132
b000000000100010 #
b000000000100010 $
b000000001000010 7
0:
0;
b01 9
#133
b0000000000000000000000000000000000000000000000000000000000001001 '
b0000000000000000000000000000000000000000000000000000000000001001 +
b01 2
b0000000000000000000000000000000000000000000000000000000000011001 3
b00000000000000000000000001000110 5
b00000000000000000000000000000000000000000000000000000000000000000000000000000000000000000000000000000000000000000000000000001001 =
1:
1;
#134
b000000000100011 #
b000000000100011 $
b000000001000011 7
0:
0;
#135
b0000000000000000000000000000000000000000000000000000000000011001 '
b0000000000000000000000000000000000000000000000000000000000011001 +
b0000000000000000000000000000000000000000000000000000000001011001 3
b00000000000000000000000001001000 5
b00000000000000000000000000000000000000000000000000000000000000000000000000000000000000000000000000000000000000000000000000011001 =
1:
1;
#136
b000000000100100 #
b000000000100100 $
b000000001000100 7
0:
0;
b11 9
#137
b0000000000000000000000000000000000000000000000000000000001011001 '
b0000000000000000000000000000000000000000000000000000000001011001 +
b11 2
b0000000000000000000000000000000000000000000000000000001101011001 3
b00000000000000000000000001001010 5
b00000000000000000000000000000000000000000000000000000000000000000000000000000000000000000000000000000000000000000000000001011001 =
1:
1;
#138
b000000000100101 #
b000000000100101 $
b000000001000101 7
0:
0;
b01 9
#139
b0000000000000000000000000000000000000000000000000000001101011001 '
b0000000000000000000000000000000000000000000000000000001101011001 +
b01 2
b0000000000000000000000000000000000000000000000000000011101011001 3
b00000000000000000000000001001100 5
b00000000000000000000000000000000000000000000000000000000000000000000000000000000000000000000000000000000000000000000001101011001 =
1:
1;
#140
b000000000100110 #
b000000000100110 $
b000000001000110 7
0:
0;
b00 9
#141
b0000000000000000000000000000000000000000000000000000011101011001 '
b0000000000000000000000000000000000000000000000000000011101011001 +
b00 2
b00000000000000000000000001001110 5
b00000000000000000000000000000000000000000000000000000000000000000000000000000000000000000000000000000000000000000000011101011001 =
1:
1;
#142
b000000000100111 #
b000000000100111 $
b000000001000111 7
0:
0;
#143
b00000000000000000000000001010000 5
1:
1;
#144
b000000000101000 #
b000000000101000 $
b000000001001000 7
0:
0;
#145
b00000000000000000000000001010010 5
1:
1;
#146
b000000000101001 #
b000000000101001 $
b000000001001001 7
0:
0;
b11 9
#147
b11 2
b0000000000000000000000000000000000000000000011000000011101011001 3
b00000000000000000000000001010100 5
1:
1;
#148
b000000000101010 #
b000000000101010 $
b000000001001010 7
0:
0;
b00 9
#149
b0000000000000000000000000000000000000000000011000000011101011001 '
b0000000000000000000000000000000000000000000011000000011101011001 +
b00 2
b00000000000000000000000001010110 5
b00000000000000000000000000000000000000000000000000000000000000000000000000000000000000000000000000000000000011000000011101011001 =
1:
1;
#150
b000000000101011 #
b000000000101011 $
b000000001001011 7
0:
0;
b01 9
#151
b01 2
b0000000000000000000000000000000000000000010011000000011101011001 3
b00000000000000000000000001011000 5
1:
1;
#152
b000000000101100 #
b000000000101100 $
b000000001001100 7
0:
0;
b10 9
#153
b0000000000000000000000000000000000000000010011000000011101011001 '
b0000000000000000000000000000000000000000010011000000011101011001 +
b10 2
b0000000000000000000000000000000000000010010011000000011101011001 3
b00000000000000000000000001011010 5
b00000000000000000000000000000000000000000000000000000000000000000000000000000000000000000000000000000000010011000000011101011001 =
1:
1;
#154
b000000000101101 #
b000000000101101 $
b000000001001101 7
0:
0;
#155
b0000000000000000000000000000000000000010010011000000011101011001 '
b0000000000000000000000000000000000000010010011000000011101011001 +
b0000000000000000000000000000000000001010010011000000011101011001 3
b00000000000000000000000001011100 5
b00000000000000000000000000000000000000000000000000000000000000000000000000000000000000000000000000000010010011000000011101011001 =
1:
1;
#156
b000000000101110 #
b000000000101110 $
b000000001001110 7
0:
0;
b11 9
#157
b0000000000000000000000000000000000001010010011000000011101011001 '
b0000000000000000000000000000000000001010010011000000011101011001 +
b11 2
b0000000000000000000000000000000000111010010011000000011101011001 3
b00000000000000000000000001011110 5
b00000000000000000000000000000000000000000000000000000000000000000000000000000000000000000000000000001010010011000000011101011001 =
1:
1;
#158
b000000000101111 #
b000000000101111 $
b000000001001111 7
0:
0;
#159
b0000000000000000000000000000000000111010010011000000011101011001 '
b0000000000000000000000000000000000111010010011000000011101011001 +
b0000000000000000000000000000000011111010010011000000011101011001 3
b00000000000000000000000001100000 5
b00000000000000000000000000000000000000000000000000000000000000000000000000000000000000000000000000111010010011000000011101011001 =
1:
1;
#160
b000000000110000 #
b000000000110000 $
b000000001010000 7
0:
0;
b01 9
#161
b0000000000000000000000000000000011111010010011000000011101011001 '
b0000000000000000000000000000000011111010010011000000011101011001 +
b01 2
b0000000000000000000000000000000111111010010011000000011101011001 3
b00000000000000000000000001100010 5
b00000000000000000000000000000000000000000000000000000000000000000000000000000000000000000000000011111010010011000000011101011001 =
1:
1;
