testsuite/verilator_sim/blocksync/Vsonic_blocksync_xg.vcd
$version Generated by VerilatedVcd $end
$date Thu Jan 12 21:17:33 2012
 $end
$timescale 1ns $end

 $scope module TOP $end
  $var wire  1 9 block_lock $end
  $var wire  1 7 clk $end
  $var wire 66 3 data_in [65:0] $end
  $var wire 66 : data_out [65:0] $end
  $var wire  1 8 reset $end
  $var wire  1 6 valid $end
  $scope module v $end
   $var wire  1 9 block_lock $end
   $var wire  1 7 clk $end
   $var wire 66 3 data_in [65:0] $end
   $var wire 66 : data_out [65:0] $end
   $var wire  8 ' offset [7:0] $end
   $var wire  1 8 reset $end
   $var wire 66 - rx_b1 [65:0] $end
   $var wire 66 0 rx_b2 [65:0] $end
   $var wire 66 * rx_coded [65:0] $end
   $var wire 32 # sh_cnt [31:0] $end
   $var wire 32 $ sh_invalid_cnt [31:0] $end
   $var wire  1 ) sh_valid $end
   $var wire  1 % slip_done $end
   $var wire  3 ( state [2:0] $end
   $var wire  1 & test_sh $end
   $var wire  1 6 valid $end
  $upscope $end
 $upscope $end
$enddefinitions $end


#0
b00000000000000000000000000000000 #
b00000000000000000000000000000000 $
0%
0&
b00000000 '
b000 (
0)
b000000000000000000000000000000000000000000000000000000000000000000 *
b000000000000000000000000000000000000000000000000000000000000000000 -
b000000000000000000000000000000000000000000000000000000000000000000 0
b000111000000000000010110110101010101010101010101010101010111100001 3
16
07
18
09
b000000000000000000000000000000000000000000000000000000000000000000 :
#1
b000111000000000000010110110101010101010101010101010101010111100001 -
17
#2
b101101111011100100001101000100111000100000111110001111110010101010 3
07
#3
b000111000000000000010110110101010101010101010101010101010111100001 *
b101101111011100100001101000100111000100000111110001111110010101010 -
b000111000000000000010110110101010101010101010101010101010111100001 0
17
b000111000000000000010110110101010101010101010101010101010111100001 :
#4
b010101111000100011000000101110000000101011100000101011000101100010 3
07
#5
b101101111011100100001101000100111000100000111110001111110010101010 *
b010101111000100011000000101110000000101011100000101011000101100010 -
b101101111011100100001101000100111000100000111110001111110010101010 0
17
b101101111011100100001101000100111000100000111110001111110010101010 :
#6
b110001001011001111111001001010010010010010101011110110111011010010 3
07
#7
b010101111000100011000000101110000000101011100000101011000101100010 *
b110001001011001111111001001010010010010010101011110110111011010010 -
b010101111000100011000000101110000000101011100000101011000101100010 0
17
b010101111000100011000000101110000000101011100000101011000101100010 :
#8
b110011111101010010111001101011100011110101110001100011101110110110 3
07
#9
b110001001011001111111001001010010010010010101011110110111011010010 *
b110011111101010010111001101011100011110101110001100011101110110110 -
b110001001011001111111001001010010010010010101011110110111011010010 0
17
b110001001011001111111001001010010010010010101011110110111011010010 :
#10
b011001111010010000011100101100011000110010101011000100011000110110 3
07
#11
b001 (
b110011111101010010111001101011100011110101110001100011101110110110 *
b011001111010010000011100101100011000110010101011000100011000110110 -
b110011111101010010111001101011100011110101110001100011101110110110 0
17
08
b110011111101010010111001101011100011110101110001100011101110110110 :
#12
b000111111101110110001110011101100010001000111100111101000100110010 3
07
#13
1&
b010 (
1)
b011001111010010000011100101100011000110010101011000100011000110110 *
b000111111101110110001110011101100010001000111100111101000100110010 -
b011001111010010000011100101100011000110010101011000100011000110110 0
17
b011001111010010000011100101100011000110010101011000100011000110110 :
#14
b110000100011010100111000100000110000001001111100111110101111000110 3
07
#15
0&
b011 (
b000111111101110110001110011101100010001000111100111101000100110010 *
b110000100011010100111000100000110000001001111100111110101111000110 -
b000111111101110110001110011101100010001000111100111101000100110010 0
17
b000111111101110110001110011101100010001000111100111101000100110010 :
#16
b001010110111110011001001001100000010010010100100100000100101001110 3
07
#17
b00000000000000000000000000000001 #
1&
b010 (
b110000100011010100111000100000110000001001111100111110101111000110 *
b001010110111110011001001001100000010010010100100100000100101001110 -
b110000100011010100111000100000110000001001111100111110101111000110 0
17
b110000100011010100111000100000110000001001111100111110101111000110 :
#18
b111000110000011111010111000000000100111011001111001100100010110010 3
07
#19
0&
b011 (
b001010110111110011001001001100000010010010100100100000100101001110 *
b111000110000011111010111000000000100111011001111001100100010110010 -
b001010110111110011001001001100000010010010100100100000100101001110 0
17
b001010110111110011001001001100000010010010100100100000100101001110 :
#20
b001010100111100001000010000101001011101011100111100010101101101010 3
07
#21
b00000000000000000000000000000010 #
1&
b010 (
b111000110000011111010111000000000100111011001111001100100010110010 *
b001010100111100001000010000101001011101011100111100010101101101010 -
b111000110000011111010111000000000100111011001111001100100010110010 0
17
b111000110000011111010111000000000100111011001111001100100010110010 :
#22
b010110110100000011111011101010100101100011111111101000000100010110 3
07
#23
0&
b011 (
b001010100111100001000010000101001011101011100111100010101101101010 *
b010110110100000011111011101010100101100011111111101000000100010110 -
b001010100111100001000010000101001011101011100111100010101101101010 0
17
b001010100111100001000010000101001011101011100111100010101101101010 :
#24
b110111111101011011111011111101100011110100101101000110011001110010 3
07
#25
b00000000000000000000000000000011 #
1&
b010 (
b010110110100000011111011101010100101100011111111101000000100010110 *
b110111111101011011111011111101100011110100101101000110011001110010 -
b010110110100000011111011101010100101100011111111101000000100010110 0
17
b010110110100000011111011101010100101100011111111101000000100010110 :
#26
b111011010111010111001111001100110000000110111000011111110100000110 3
07
#27
0&
b011 (
b110111111101011011111011111101100011110100101101000110011001110010 *
b111011010111010111001111001100110000000110111000011111110100000110 -
b110111111101011011111011111101100011110100101101000110011001110010 0
17
b110111111101011011111011111101100011110100101101000110011001110010 :
#28
b011100111010011011000000011110110100011011011000010000000100101010 3
07
#29
b00000000000000000000000000000100 #
1&
b010 (
b111011010111010111001111001100110000000110111000011111110100000110 *
b011100111010011011000000011110110100011011011000010000000100101010 -
b111011010111010111001111001100110000000110111000011111110100000110 0
17
b111011010111010111001111001100110000000110111000011111110100000110 :
#30
b010010011100101011100000100000010000011001001100011010101001011110 3
07
#31
0&
b011 (
b011100111010011011000000011110110100011011011000010000000100101010 *
b010010011100101011100000100000010000011001001100011010101001011110 -
b011100111010011011000000011110110100011011011000010000000100101010 0
17
b011100111010011011000000011110110100011011011000010000000100101010 :
#32
b111101110011110010011110100100011101011101011100010001010001101010 3
07
#33
b00000000000000000000000000000101 #
1&
b010 (
b010010011100101011100000100000010000011001001100011010101001011110 *
b111101110011110010011110100100011101011101011100010001010001101010 -
b010010011100101011100000100000010000011001001100011010101001011110 0
17
b010010011100101011100000100000010000011001001100011010101001011110 :
#34
b100100110110111000100011001101001110110100100001000010111100111010 3
07
#35
0&
b011 (
b111101110011110010011110100100011101011101011100010001010001101010 *
b100100110110111000100011001101001110110100100001000010111100111010 -
b111101110011110010011110100100011101011101011100010001010001101010 0
17
b111101110011110010011110100100011101011101011100010001010001101010 :
#36
b111111100110111110111100111101100101011010010100001011100110000010 3
07
#37
b00000000000000000000000000000110 #
1&
b010 (
b100100110110111000100011001101001110110100100001000010111100111010 *
b111111100110111110111100111101100101011010010100001011100110000010 -
b100100110110111000100011001101001110110100100001000010111100111010 0
17
b100100110110111000100011001101001110110100100001000010111100111010 :
#38
b111111010100001101011110001111011101111010111101000100111010010110 3
07
#39
0&
b011 (
b111111100110111110111100111101100101011010010100001011100110000010 *
b111111010100001101011110001111011101111010111101000100111010010110 -
b111111100110111110111100111101100101011010010100001011100110000010 0
17
b111111100110111110111100111101100101011010010100001011100110000010 :
#40
b000100001010101001110111001111110110111011100010110111001001010010 3
07
#41
b00000000000000000000000000000111 #
1&
b010 (
b111111010100001101011110001111011101111010111101000100111010010110 *
b000100001010101001110111001111110110111011100010110111001001010010 -
b111111010100001101011110001111011101111010111101000100111010010110 0
17
b111111010100001101011110001111011101111010111101000100111010010110 :
#42
b101100101110101111101010111000111001111010110101001000001111011010 3
07
#43
0&
b011 (
b000100001010101001110111001111110110111011100010110111001001010010 *
b101100101110101111101010111000111001111010110101001000001111011010 -
b000100001010101001110111001111110110111011100010110111001001010010 0
17
b000100001010101001110111001111110110111011100010110111001001010010 :
#44
b000100001011011100100111010001111100111110111100100101110111110110 3
07
#45
b00000000000000000000000000001000 #
1&
b010 (
b101100101110101111101010111000111001111010110101001000001111011010 *
b000100001011011100100111010001111100111110111100100101110111110110 -
b101100101110101111101010111000111001111010110101001000001111011010 0
17
b101100101110101111101010111000111001111010110101001000001111011010 :
#46
b011101000100011100101001001001100111011010011100011000011000001110 3
07
#47
0&
b011 (
b000100001011011100100111010001111100111110111100100101110111110110 *
b011101000100011100101001001001100111011010011100011000011000001110 -
b000100001011011100100111010001111100111110111100100101110111110110 0
17
b000100001011011100100111010001111100111110111100100101110111110110 :
#48
b001001100000111101101011101011111000101001110111110110101000101010 3
07
#49
b00000000000000000000000000001001 #
1&
b010 (
b011101000100011100101001001001100111011010011100011000011000001110 *
b001001100000111101101011101011111000101001110111110110101000101010 -
b011101000100011100101001001001100111011010011100011000011000001110 0
17
b011101000100011100101001001001100111011010011100011000011000001110 :
#50
b100011110011011001000000100001001000000110101011001111101001101010 3
07
#51
0&
b011 (
b001001100000111101101011101011111000101001110111110110101000101010 *
b100011110011011001000000100001001000000110101011001111101001101010 -
b001001100000111101101011101011111000101001110111110110101000101010 0
17
b001001100000111101101011101011111000101001110111110110101000101010 :
#52
b100111111110100010100101111100101011111100010011110110101000100110 3
07
#53
b00000000000000000000000000001010 #
1&
b010 (
b100011110011011001000000100001001000000110101011001111101001101010 *
b100111111110100010100101111100101011111100010011110110101000100110 -
b100011110011011001000000100001001000000110101011001111101001101010 0
17
b100011110011011001000000100001001000000110101011001111101001101010 :
#54
b011001001000101010010110111011010000101010011101100001000000010010 3
07
#55
0&
b011 (
b100111111110100010100101111100101011111100010011110110101000100110 *
b011001001000101010010110111011010000101010011101100001000000010010 -
b100111111110100010100101111100101011111100010011110110101000100110 0
17
b100111111110100010100101111100101011111100010011110110101000100110 :
#56
b001011111011111101001000010110101100001101010000001100001010110010 3
07
#57
b00000000000000000000000000001011 #
1&
b010 (
b011001001000101010010110111011010000101010011101100001000000010010 *
b001011111011111101001000010110101100001101010000001100001010110010 -
b011001001000101010010110111011010000101010011101100001000000010010 0
17
b011001001000101010010110111011010000101010011101100001000000010010 :
#58
b001011001010011100000101000001111000010010010000010101011001010010 3
07
#59
0&
b011 (
b001011111011111101001000010110101100001101010000001100001010110010 *
b001011001010011100000101000001111000010010010000010101011001010010 -
b001011111011111101001000010110101100001101010000001100001010110010 0
17
b001011111011111101001000010110101100001101010000001100001010110010 :
#60
b011001010111100111111100101110110111010110100111111101001010000110 3
07
#61
b00000000000000000000000000001100 #
1&
b010 (
b001011001010011100000101000001111000010010010000010101011001010010 *
b011001010111100111111100101110110111010110100111111101001010000110 -
b001011001010011100000101000001111000010010010000010101011001010010 0
17
b001011001010011100000101000001111000010010010000010101011001010010 :
#62
b110100110101011111110010011101110110011100011101111101100101101110 3
07
#63
0&
b011 (
b011001010111100111111100101110110111010110100111111101001010000110 *
b110100110101011111110010011101110110011100011101111101100101101110 -
b011001010111100111111100101110110111010110100111111101001010000110 0
17
b011001010111100111111100101110110111010110100111111101001010000110 :
#64
b011111000100010101000100000101010100001001010110011111100101101110 3
07
#65
b00000000000000000000000000001101 #
1&
b010 (
b110100110101011111110010011101110110011100011101111101100101101110 *
b011111000100010101000100000101010100001001010110011111100101101110 -
b110100110101011111110010011101110110011100011101111101100101101110 0
17
b110100110101011111110010011101110110011100011101111101100101101110 :
#66
b011111101111010110010001100111010100010110011010011000110110000110 3
07
#67
0&
b011 (
b011111000100010101000100000101010100001001010110011111100101101110 *
b011111101111010110010001100111010100010110011010011000110110000110 -
b011111000100010101000100000101010100001001010110011111100101101110 0
17
b011111000100010101000100000101010100001001010110011111100101101110 :
#68
b101001100000011101101000010010000011111111100111100111110001100010 3
07
#69
b00000000000000000000000000001110 #
1&
b010 (
b011111101111010110010001100111010100010110011010011000110110000110 *
b101001100000011101101000010010000011111111100111100111110001100010 -
b011111101111010110010001100111010100010110011010011000110110000110 0
17
b011111101111010110010001100111010100010110011010011000110110000110 :
#70
b110101101110111100000110110010110001101101111100100011000101011010 3
07
#71
0&
b011 (
b101001100000011101101000010010000011111111100111100111110001100010 *
b110101101110111100000110110010110001101101111100100011000101011010 -
b101001100000011101101000010010000011111111100111100111110001100010 0
17
b101001100000011101101000010010000011111111100111100111110001100010 :
#72
b111000101011001101000011110001110110110111011011101000111000111110 3
07
#73
b00000000000000000000000000001111 #
1&
b010 (
b110101101110111100000110110010110001101101111100100011000101011010 *
b111000101011001101000011110001110110110111011011101000111000111110 -
b110101101110111100000110110010110001101101111100100011000101011010 0
17
b110101101110111100000110110010110001101101111100100011000101011010 :
#74
b000011010110001001111111110010110111000000100101101111110000100110 3
07
#75
0&
b011 (
b111000101011001101000011110001110110110111011011101000111000111110 *
b000011010110001001111111110010110111000000100101101111110000100110 -
b111000101011001101000011110001110110110111011011101000111000111110 0
17
b111000101011001101000011110001110110110111011011101000111000111110 :
#76
b101001010010000100000011010010101010111011001110010000110111110110 3
07
#77
b00000000000000000000000000010000 #
1&
b010 (
b000011010110001001111111110010110111000000100101101111110000100110 *
b101001010010000100000011010010101010111011001110010000110111110110 -
b000011010110001001111111110010110111000000100101101111110000100110 0
17
b000011010110001001111111110010110111000000100101101111110000100110 :
#78
b100000110111010110000000111011101000101000000011101001000110110110 3
07
#79
0&
b011 (
b101001010010000100000011010010101010111011001110010000110111110110 *
b100000110111010110000000111011101000101000000011101001000110110110 -
b101001010010000100000011010010101010111011001110010000110111110110 0
17
b101001010010000100000011010010101010111011001110010000110111110110 :
#80
b110110111001101100010110111110110011100011011111010011111110000110 3
07
#81
b00000000000000000000000000010001 #
1&
b010 (
b100000110111010110000000111011101000101000000011101001000110110110 *
b110110111001101100010110111110110011100011011111010011111110000110 -
b100000110111010110000000111011101000101000000011101001000110110110 0
17
b100000110111010110000000111011101000101000000011101001000110110110 :
#82
b110111011100110100011100000000010001011101011101001101001001000010 3
07
#83
0&
b011 (
b110110111001101100010110111110110011100011011111010011111110000110 *
b110111011100110100011100000000010001011101011101001101001001000010 -
b110110111001101100010110111110110011100011011111010011111110000110 0
17
b110110111001101100010110111110110011100011011111010011111110000110 :
#84
b111010110110001100110110001010111101011011100000010001100110100010 3
07
#85
b00000000000000000000000000010010 #
1&
b010 (
b110111011100110100011100000000010001011101011101001101001001000010 *
b111010110110001100110110001010111101011011100000010001100110100010 -
b110111011100110100011100000000010001011101011101001101001001000010 0
17
b110111011100110100011100000000010001011101011101001101001001000010 :
#86
b011000010100101011011101000111100010110011110001101001001100101110 3
07
#87
0&
b011 (
b111010110110001100110110001010111101011011100000010001100110100010 *
b011000010100101011011101000111100010110011110001101001001100101110 -
b111010110110001100110110001010111101011011100000010001100110100010 0
17
b111010110110001100110110001010111101011011100000010001100110100010 :
#88
b000011111000111011000000011101011110110111100100011100011011001010 3
07
#89
b00000000000000000000000000010011 #
1&
b010 (
b011000010100101011011101000111100010110011110001101001001100101110 *
b000011111000111011000000011101011110110111100100011100011011001010 -
b011000010100101011011101000111100010110011110001101001001100101110 0
17
b011000010100101011011101000111100010110011110001101001001100101110 :
#90
b010101100100000110001001101111110010100011100000100111010000010110 3
07
#91
0&
b011 (
b000011111000111011000000011101011110110111100100011100011011001010 *
b010101100100000110001001101111110010100011100000100111010000010110 -
b000011111000111011000000011101011110110111100100011100011011001010 0
17
b000011111000111011000000011101011110110111100100011100011011001010 :
#92
b010101000101010011010111101110101110101001010010011010011101001110 3
07
#93
b00000000000000000000000000010100 #
1&
b010 (
b010101100100000110001001101111110010100011100000100111010000010110 *
b010101000101010011010111101110101110101001010010011010011101001110 -
b010101100100000110001001101111110010100011100000100111010000010110 0
17
b010101100100000110001001101111110010100011100000100111010000010110 :
#94
b010011011011010100010100110000011111010111110001101001101110001110 3
07
#95
0&
b011 (
b010101000101010011010111101110101110101001010010011010011101001110 *
b010011011011010100010100110000011111010111110001101001101110001110 -
b010101000101010011010111101110101110101001010010011010011101001110 0
17
b010101000101010011010111101110101110101001010010011010011101001110 :
#96
b111000010100100011001100010001101110111101101100100101100101100010 3
07
#97
b00000000000000000000000000010101 #
1&
b010 (
b010011011011010100010100110000011111010111110001101001101110001110 *
b111000010100100011001100010001101110111101101100100101100101100010 -
b010011011011010100010100110000011111010111110001101001101110001110 0
17
b010011011011010100010100110000011111010111110001101001101110001110 :
#98
b101000101110001010011101111100001000111111100010101010010001100110 3
07
#99
0&
b011 (
b111000010100100011001100010001101110111101101100100101100101100010 *
b101000101110001010011101111100001000111111100010101010010001100110 -
b111000010100100011001100010001101110111101101100100101100101100010 0
17
b111000010100100011001100010001101110111101101100100101100101100010 :
#100
b110010111001100011010001000111111000101101000110010001001101011010 3
07
#101
b00000000000000000000000000010110 #
1&
b010 (
b101000101110001010011101111100001000111111100010101010010001100110 *
b110010111001100011010001000111111000101101000110010001001101011010 -
b101000101110001010011101111100001000111111100010101010010001100110 0
17
b101000101110001010011101111100001000111111100010101010010001100110 :
#102
b100111110100011000101001100101101000010001110000101000101110010110 3
07
#103
0&
b011 (
b110010111001100011010001000111111000101101000110010001001101011010 *
b100111110100011000101001100101101000010001110000101000101110010110 -
b110010111001100011010001000111111000101101000110010001001101011010 0
17
b110010111001100011010001000111111000101101000110010001001101011010 :
#104
b010000010101011111010010110111001100110100110110001110111111100010 3
07
#105
b00000000000000000000000000010111 #
1&
b010 (
b100111110100011000101001100101101000010001110000101000101110010110 *
b010000010101011111010010110111001100110100110110001110111111100010 -
b100111110100011000101001100101101000010001110000101000101110010110 0
17
b100111110100011000101001100101101000010001110000101000101110010110 :
#106
b100000010111001100110011010110001110101011101100100001101011000010 3
07
#107
0&
b011 (
b010000010101011111010010110111001100110100110110001110111111100010 *
b100000010111001100110011010110001110101011101100100001101011000010 -
b010000010101011111010010110111001100110100110110001110111111100010 0
17
b010000010101011111010010110111001100110100110110001110111111100010 :
#108
b010100111010010111010010101111001110101000001011001001100101100010 3
07
#109
b00000000000000000000000000011000 #
1&
b010 (
b100000010111001100110011010110001110101011101100100001101011000010 *
b010100111010010111010010101111001110101000001011001001100101100010 -
b100000010111001100110011010110001110101011101100100001101011000010 0
17
b100000010111001100110011010110001110101011101100100001101011000010 :
#110
b111011000101110111001011110110100001100101110110010001001101100110 3
07
#111
0&
b011 (
b010100111010010111010010101111001110101000001011001001100101100010 *
b111011000101110111001011110110100001100101110110010001001101100110 -
b010100111010010111010010101111001110101000001011001001100101100010 0
17
b010100111010010111010010101111001110101000001011001001100101100010 :
#112
b110110010000100001011001011011100111000010110101000000000010110010 3
07
#113
b00000000000000000000000000011001 #
1&
b010 (
b111011000101110111001011110110100001100101110110010001001101100110 *
b110110010000100001011001011011100111000010110101000000000010110010 -
b111011000101110111001011110110100001100101110110010001001101100110 0
17
b111011000101110111001011110110100001100101110110010001001101100110 :
#114
b111100011111101110010011101111000000100111011101010100010000100110 3
07
#115
0&
b011 (
b110110010000100001011001011011100111000010110101000000000010110010 *
b111100011111101110010011101111000000100111011101010100010000100110 -
b110110010000100001011001011011100111000010110101000000000010110010 0
17
b110110010000100001011001011011100111000010110101000000000010110010 :
#116
b001111100011111101100110100001010011111111011111100110110111100110 3
07
#117
b00000000000000000000000000011010 #
1&
b010 (
b111100011111101110010011101111000000100111011101010100010000100110 *
b001111100011111101100110100001010011111111011111100110110111100110 -
b111100011111101110010011101111000000100111011101010100010000100110 0
17
b111100011111101110010011101111000000100111011101010100010000100110 :
#118
b100110100100100110101101001101000011101101110101000001001100010110 3
07
#119
0&
b011 (
b001111100011111101100110100001010011111111011111100110110111100110 *
b100110100100100110101101001101000011101101110101000001001100010110 -
b001111100011111101100110100001010011111111011111100110110111100110 0
17
b001111100011111101100110100001010011111111011111100110110111100110 :
#120
b110110100110010000001011010000001100110000001100011110000011101110 3
07
#121
b00000000000000000000000000011011 #
1&
b010 (
b100110100100100110101101001101000011101101110101000001001100010110 *
b110110100110010000001011010000001100110000001100011110000011101110 -
b100110100100100110101101001101000011101101110101000001001100010110 0
17
b100110100100100110101101001101000011101101110101000001001100010110 :
#122
b011001110000001001110010111101110000011100000000101001011011010110 3
07
#123
0&
b011 (
b110110100110010000001011010000001100110000001100011110000011101110 *
b011001110000001001110010111101110000011100000000101001011011010110 -
b110110100110010000001011010000001100110000001100011110000011101110 0
17
b110110100110010000001011010000001100110000001100011110000011101110 :
#124
b001000101000111010101101110011010110100100010110010010110010010010 3
07
#125
b00000000000000000000000000011100 #
1&
b010 (
b011001110000001001110010111101110000011100000000101001011011010110 *
b001000101000111010101101110011010110100100010110010010110010010010 -
b011001110000001001110010111101110000011100000000101001011011010110 0
17
b011001110000001001110010111101110000011100000000101001011011010110 :
#126
b110100110111100011011110000101010100000011000011100011111010000110 3
07
#127
0&
b011 (
b001000101000111010101101110011010110100100010110010010110010010010 *
b110100110111100011011110000101010100000011000011100011111010000110 -
b001000101000111010101101110011010110100100010110010010110010010010 0
17
b001000101000111010101101110011010110100100010110010010110010010010 :
#128
b001110011110000010000101101000001101100101010101001111001010100110 3
07
#129
b00000000000000000000000000011101 #
1&
b010 (
b110100110111100011011110000101010100000011000011100011111010000110 *
b001110011110000010000101101000001101100101010101001111001010100110 -
b110100110111100011011110000101010100000011000011100011111010000110 0
17
b110100110111100011011110000101010100000011000011100011111010000110 :
#130
b000101101000111111100111101100110100101100010000101100101010101110 3
07
#131
0&
b011 (
b001110011110000010000101101000001101100101010101001111001010100110 *
b000101101000111111100111101100110100101100010000101100101010101110 -
b001110011110000010000101101000001101100101010101001111001010100110 0
17
b001110011110000010000101101000001101100101010101001111001010100110 :
#132
b001101010011010010101001101000101011110011101010101011110101110010 3
07
#133
b00000000000000000000000000011110 #
1&
b010 (
b000101101000111111100111101100110100101100010000101100101010101110 *
b001101010011010010101001101000101011110011101010101011110101110010 -
b000101101000111111100111101100110100101100010000101100101010101110 0
17
b000101101000111111100111101100110100101100010000101100101010101110 :
#134
b001110101100011100001101100010010010010010010100010010011101001010 3
07
#135
0&
b011 (
b001101010011010010101001101000101011110011101010101011110101110010 *
b001110101100011100001101100010010010010010010100010010011101001010 -
b001101010011010010101001101000101011110011101010101011110101110010 0
17
b001101010011010010101001101000101011110011101010101011110101110010 :
#136
b100101000000110011101110000110000111010100100101101001011000110010 3
07
#137
b00000000000000000000000000011111 #
1&
b010 (
b001110101100011100001101100010010010010010010100010010011101001010 *
b100101000000110011101110000110000111010100100101101001011000110010 -
b001110101100011100001101100010010010010010010100010010011101001010 0
17
b001110101100011100001101100010010010010010010100010010011101001010 :
#138
b100101110011001001001100010000110101011110011010101000101001101110 3
07
#139
0&
b011 (
b100101000000110011101110000110000111010100100101101001011000110010 *
b100101110011001001001100010000110101011110011010101000101001101110 -
b100101000000110011101110000110000111010100100101101001011000110010 0
17
b100101000000110011101110000110000111010100100101101001011000110010 :
#140
b010001111101001101110011010000111010110001001111011111010001010010 3
07
#141
b00000000000000000000000000100000 #
1&
b010 (
b100101110011001001001100010000110101011110011010101000101001101110 *
b010001111101001101110011010000111010110001001111011111010001010010 -
b100101110011001001001100010000110101011110011010101000101001101110 0
17
b100101110011001001001100010000110101011110011010101000101001101110 :
#142
b111010111111001001111101010110011101000100111101101010000001000110 3
07
#143
0&
b011 (
b010001111101001101110011010000111010110001001111011111010001010010 *
b111010111111001001111101010110011101000100111101101010000001000110 -
b010001111101001101110011010000111010110001001111011111010001010010 0
17
b010001111101001101110011010000111010110001001111011111010001010010 :
#144
b111110110010110011000011001101011010101001001001011010000111100110 3
07
#145
b00000000000000000000000000100001 #
1&
b010 (
b111010111111001001111101010110011101000100111101101010000001000110 *
b111110110010110011000011001101011010101001001001011010000111100110 -
b111010111111001001111101010110011101000100111101101010000001000110 0
17
b111010111111001001111101010110011101000100111101101010000001000110 :
#146
b011111010001111000100001110000100111001011111001100011110100110110 3
07
#147
0&
b011 (
b111110110010110011000011001101011010101001001001011010000111100110 *
b011111010001111000100001110000100111001011111001100011110100110110 -
b111110110010110011000011001101011010101001001001011010000111100110 0
17
b111110110010110011000011001101011010101001001001011010000111100110 :
#148
b100010001101100011010011000010001011011011100010001111110011001110 3
07
#149
b00000000000000000000000000100010 #
1&
b010 (
b011111010001111000100001110000100111001011111001100011110100110110 *
b100010001101100011010011000010001011011011100010001111110011001110 -
b011111010001111000100001110000100111001011111001100011110100110110 0
17
b011111010001111000100001110000100111001011111001100011110100110110 :
#150
b001110101000111100011010001100010111011010000101001110101001001010 3
07
#151
0&
b011 (
b100010001101100011010011000010001011011011100010001111110011001110 *
b001110101000111100011010001100010111011010000101001110101001001010 -
b100010001101100011010011000010001011011011100010001111110011001110 0
17
b100010001101100011010011000010001011011011100010001111110011001110 :
#152
b100010011100111100110101010000101011010001100010001110000110001010 3
07
#153
b00000000000000000000000000100011 #
1&
b010 (
b001110101000111100011010001100010111011010000101001110101001001010 *
b100010011100111100110101010000101011010001100010001110000110001010 -
b001110101000111100011010001100010111011010000101001110101001001010 0
17
b001110101000111100011010001100010111011010000101001110101001001010 :
#154
b101011100001110111001111101001001101100101111000000110111000101010 3
07
#155
0&
b011 (
b100010011100111100110101010000101011010001100010001110000110001010 *
b101011100001110111001111101001001101100101111000000110111000101010 -
b100010011100111100110101010000101011010001100010001110000110001010 0
17
b100010011100111100110101010000101011010001100010001110000110001010 :
#156
b000000010000110001011110110110101010111110110011000000100011101110 3
07
#157
b00000000000000000000000000100100 #
1&
b010 (
b101011100001110111001111101001001101100101111000000110111000101010 *
b000000010000110001011110110110101010111110110011000000100011101110 -
b101011100001110111001111101001001101100101111000000110111000101010 0
17
b101011100001110111001111101001001101100101111000000110111000101010 :
#158
b110000000111101110110111010010101101110010101000100110010110100010 3
07
#159
0&
b011 (
b000000010000110001011110110110101010111110110011000000100011101110 *
b110000000111101110110111010010101101110010101000100110010110100010 -
b000000010000110001011110110110101010111110110011000000100011101110 0
17
b000000010000110001011110110110101010111110110011000000100011101110 :
#160
b100001100010100001000001100001000010111010011110001100010011111010 3
07
#161
b00000000000000000000000000100101 #
1&
b010 (
b110000000111101110110111010010101101110010101000100110010110100010 *
b100001100010100001000001100001000010111010011110001100010011111010 -
b110000000111101110110111010010101101110010101000100110010110100010 0
17
b110000000111101110110111010010101101110010101000100110010110100010 :
#162
b111001011110011011101001011100100011001010101111100011101110000010 3
07
#163
0&
b011 (
b100001100010100001000001100001000010111010011110001100010011111010 *
b111001011110011011101001011100100011001010101111100011101110000010 -
b100001100010100001000001100001000010111010011110001100010011111010 0
17
b100001100010100001000001100001000010111010011110001100010011111010 :
#164
b101100010011101000100100011000100000111110001101001101010001001110 3
07
#165
b00000000000000000000000000100110 #
1&
b010 (
b111001011110011011101001011100100011001010101111100011101110000010 *
b101100010011101000100100011000100000111110001101001101010001001110 -
b111001011110011011101001011100100011001010101111100011101110000010 0
17
b111001011110011011101001011100100011001010101111100011101110000010 :
#166
b000100100110101100101001111110100010011100011101001101011110101010 3
07
#167
0&
b011 (
b101100010011101000100100011000100000111110001101001101010001001110 *
b000100100110101100101001111110100010011100011101001101011110101010 -
b101100010011101000100100011000100000111110001101001101010001001110 0
17
b101100010011101000100100011000100000111110001101001101010001001110 :
#168
b011000001010001001100111000111111110110100110001101100011111001110 3
07
#169
b00000000000000000000000000100111 #
1&
b010 (
b000100100110101100101001111110100010011100011101001101011110101010 *
b011000001010001001100111000111111110110100110001101100011111001110 -
b000100100110101100101001111110100010011100011101001101011110101010 0
17
b000100100110101100101001111110100010011100011101001101011110101010 :
#170
b011110111000110000111011100101010001011010110000011111110000010010 3
07
#171
0&
b011 (
b011000001010001001100111000111111110110100110001101100011111001110 *
b011110111000110000111011100101010001011010110000011111110000010010 -
b011000001010001001100111000111111110110100110001101100011111001110 0
17
b011000001010001001100111000111111110110100110001101100011111001110 :
#172
b000110001100100010101010111001001010010001110010001111110100010010 3
07
#173
b00000000000000000000000000101000 #
1&
b010 (
b011110111000110000111011100101010001011010110000011111110000010010 *
b000110001100100010101010111001001010010001110010001111110100010010 -
b011110111000110000111011100101010001011010110000011111110000010010 0
17
b011110111000110000111011100101010001011010110000011111110000010010 :
#174
b001110111001000001011011100100101100001011110111100010001001111010 3
07
#175
0&
b011 (
b000110001100100010101010111001001010010001110010001111110100010010 *
b001110111001000001011011100100101100001011110111100010001001111010 -
b000110001100100010101010111001001010010001110010001111110100010010 0
17
b000110001100100010101010111001001010010001110010001111110100010010 :
#176
b010101010100100011001000010000001011000100010111001001110111101010 3
07
#177
b00000000000000000000000000101001 #
1&
b010 (
b001110111001000001011011100100101100001011110111100010001001111010 *
b010101010100100011001000010000001011000100010111001001110111101010 -
b001110111001000001011011100100101100001011110111100010001001111010 0
17
b001110111001000001011011100100101100001011110111100010001001111010 :
#178
b101100011100010001101000001110101001011010011001010001001111001010 3
07
#179
0&
b011 (
b010101010100100011001000010000001011000100010111001001110111101010 *
b101100011100010001101000001110101001011010011001010001001111001010 -
b010101010100100011001000010000001011000100010111001001110111101010 0
17
b010101010100100011001000010000001011000100010111001001110111101010 :
#180
b101010000101000100010111010000010011000001011001010011100110110110 3
07
#181
b00000000000000000000000000101010 #
1&
b010 (
b101100011100010001101000001110101001011010011001010001001111001010 *
b101010000101000100010111010000010011000001011001010011100110110110 -
b101100011100010001101000001110101001011010011001010001001111001010 0
17
b101100011100010001101000001110101001011010011001010001001111001010 :
#182
b010001010110000010110101001111100001101001111111111100011001001010 3
07
#183
0&
b011 (
b101010000101000100010111010000010011000001011001010011100110110110 *
b010001010110000010110101001111100001101001111111111100011001001010 -
b101010000101000100010111010000010011000001011001010011100110110110 0
17
b101010000101000100010111010000010011000001011001010011100110110110 :
#184
b110100010000101111001001110000110111110000000000010100101111101010 3
07
